%YAML 1.1
%TAG !u! tag:unity3d.com,2011:
--- !u!74 &7400000
AnimationClip:
  m_ObjectHideFlags: 0
  m_PrefabParentObject: {fileID: 0}
  m_PrefabInternal: {fileID: 0}
  m_Name: to light right-blue
  serializedVersion: 6
  m_Legacy: 0
  m_Compressed: 0
  m_UseHighQualityCurve: 1
  m_RotationCurves: []
  m_CompressedRotationCurves: []
  m_EulerCurves: []
  m_PositionCurves: []
  m_ScaleCurves: []
  m_FloatCurves: []
  m_PPtrCurves:
  - curve:
    - time: 0
      value: {fileID: 21300000, guid: 5cf6caa805d114ce8ac52b40e4e2dad4, type: 3}
    - time: 0.25
      value: {fileID: 21300000, guid: 4ce5e3ccf79314136b30e719f26b2849, type: 3}
    - time: 0.375
      value: {fileID: 21300000, guid: 65d0d14514a5a4a99ae7ef700b32e09b, type: 3}
    - time: 0.5
      value: {fileID: 21300000, guid: 5cd91c478fc7d4b69b2fcd476eaf25cd, type: 3}
    - time: 0.5833333
      value: {fileID: 21300000, guid: 39a0c87a2803d4314844f6fcad451613, type: 3}
    - time: 0.6666667
      value: {fileID: 21300000, guid: 3b07ddcda652d454d9fec5a1b14a52d0, type: 3}
    - time: 0.875
      value: {fileID: 21300000, guid: 03fafd8d23fcb44648801d5774c11675, type: 3}
    attribute: m_Sprite
    path: 
    classID: 212
    script: {fileID: 0}
  m_SampleRate: 24
  m_WrapMode: 0
  m_Bounds:
    m_Center: {x: 0, y: 0, z: 0}
    m_Extent: {x: 0, y: 0, z: 0}
  m_ClipBindingConstant:
    genericBindings:
    - serializedVersion: 2
      path: 0
      attribute: 0
      script: {fileID: 0}
      typeID: 212
      customType: 23
      isPPtrCurve: 1
    pptrCurveMapping:
    - {fileID: 21300000, guid: 5cf6caa805d114ce8ac52b40e4e2dad4, type: 3}
    - {fileID: 21300000, guid: 4ce5e3ccf79314136b30e719f26b2849, type: 3}
    - {fileID: 21300000, guid: 65d0d14514a5a4a99ae7ef700b32e09b, type: 3}
    - {fileID: 21300000, guid: 5cd91c478fc7d4b69b2fcd476eaf25cd, type: 3}
    - {fileID: 21300000, guid: 39a0c87a2803d4314844f6fcad451613, type: 3}
    - {fileID: 21300000, guid: 3b07ddcda652d454d9fec5a1b14a52d0, type: 3}
    - {fileID: 21300000, guid: 03fafd8d23fcb44648801d5774c11675, type: 3}
  m_AnimationClipSettings:
    serializedVersion: 2
    m_AdditiveReferencePoseClip: {fileID: 0}
    m_AdditiveReferencePoseTime: 0
    m_StartTime: 0
    m_StopTime: 0.9166667
    m_OrientationOffsetY: 0
    m_Level: 0
    m_CycleOffset: 0
    m_HasAdditiveReferencePose: 0
    m_LoopTime: 0
    m_LoopBlend: 0
    m_LoopBlendOrientation: 0
    m_LoopBlendPositionY: 0
    m_LoopBlendPositionXZ: 0
    m_KeepOriginalOrientation: 0
    m_KeepOriginalPositionY: 1
    m_KeepOriginalPositionXZ: 0
    m_HeightFromFeet: 0
    m_Mirror: 0
  m_EditorCurves: []
  m_EulerEditorCurves: []
  m_HasGenericRootTransform: 0
  m_HasMotionFloatCurves: 0
  m_GenerateMotionCurves: 0
  m_Events: []
