%YAML 1.1
%TAG !u! tag:unity3d.com,2011:
--- !u!74 &7400000
AnimationClip:
  m_ObjectHideFlags: 0
  m_PrefabParentObject: {fileID: 0}
  m_PrefabInternal: {fileID: 0}
  m_Name: 05_leaf_lighton_bg#
  serializedVersion: 6
  m_Legacy: 0
  m_Compressed: 0
  m_UseHighQualityCurve: 1
  m_RotationCurves: []
  m_CompressedRotationCurves: []
  m_EulerCurves: []
  m_PositionCurves: []
  m_ScaleCurves: []
  m_FloatCurves: []
  m_PPtrCurves:
  - curve:
    - time: 0
      value: {fileID: 0}
    - time: 0.083333336
      value: {fileID: 21300000, guid: 0e983f2392eca45348bd0fafddb16866, type: 3}
    - time: 1
      value: {fileID: 21300000, guid: cd26ae01541384c258a7b21963e9bc4d, type: 3}
    - time: 1.375
      value: {fileID: 21300000, guid: 022a437c5354a40f897a0d79b011f669, type: 3}
    - time: 1.5
      value: {fileID: 21300000, guid: 42bd92940e4ce442896c935ca40c3ac4, type: 3}
    - time: 1.625
      value: {fileID: 21300000, guid: 5ee3b1a0bdffd49118ecce58e50007cd, type: 3}
    - time: 1.8333334
      value: {fileID: 21300000, guid: 8f628f5129eed4ecd97520e9da1bcc21, type: 3}
    - time: 2.125
      value: {fileID: 21300000, guid: abb2bd122377347c49b8c72f50df3f68, type: 3}
    - time: 2.375
      value: {fileID: 21300000, guid: 174266257ac124a26a2e1c6beb83969d, type: 3}
    - time: 2.625
      value: {fileID: 21300000, guid: 60d67aa84cdda422490e5010ee0c0f04, type: 3}
    - time: 4.125
      value: {fileID: 21300000, guid: 7188679a06e9f479a9842bb32502d2fb, type: 3}
    - time: 4.25
      value: {fileID: 21300000, guid: c583c471c3f13492e9ba1193376f32c5, type: 3}
    - time: 4.3333335
      value: {fileID: 21300000, guid: 1ee711584cc7942308583fd701b30003, type: 3}
    - time: 4.4166665
      value: {fileID: 21300000, guid: b3aa9b8c7e87c4fd3b2a21f52a515607, type: 3}
    - time: 4.4583335
      value: {fileID: 21300000, guid: 86a03bfac19834b88842283dfa50f605, type: 3}
    - time: 4.5416665
      value: {fileID: 21300000, guid: edd6b774019be488fae815900ac8c99c, type: 3}
    - time: 4.6666665
      value: {fileID: 21300000, guid: ee7154c95fd0a477db1e2dc6809d0692, type: 3}
    - time: 4.75
      value: {fileID: 21300000, guid: db69abce2df594978b10f3d5df9365d8, type: 3}
    - time: 4.8333335
      value: {fileID: 21300000, guid: 25174f41de7eb4c33882786b4ad4b938, type: 3}
    - time: 4.875
      value: {fileID: 21300000, guid: 86fc67c9f96164693af5776901904c5e, type: 3}
    - time: 4.9166665
      value: {fileID: 21300000, guid: bcdc6cc68ccce407e8141291ee93c221, type: 3}
    - time: 5.0833335
      value: {fileID: 21300000, guid: 6a92ac5d19c5548f4bcdd832a79c916f, type: 3}
    - time: 5.2916665
      value: {fileID: 21300000, guid: 7822cc9dfa382433da7766f345a38148, type: 3}
    - time: 5.3333335
      value: {fileID: 21300000, guid: 68877461a385f445ea120094b3a6457e, type: 3}
    - time: 5.5833335
      value: {fileID: 21300000, guid: 66039d5361484447d978dcc3ff9a3579, type: 3}
    - time: 5.75
      value: {fileID: 21300000, guid: 1463ac4380e82482793d39f0fff8ef3e, type: 3}
    - time: 5.7916665
      value: {fileID: 21300000, guid: f776c2eb3379042a3b7807b5c278fdd9, type: 3}
    - time: 5.9583335
      value: {fileID: 21300000, guid: 56d54cc2d5ae547f6b772ccdd1a7d510, type: 3}
    - time: 6.0833335
      value: {fileID: 21300000, guid: 53482bafe34c64f8f9a872fb40ad6565, type: 3}
    - time: 6.125
      value: {fileID: 21300000, guid: 26eb73cf38a9b4a489c712dd795b4f3d, type: 3}
    - time: 6.25
      value: {fileID: 21300000, guid: 1b9ab31369f6c46dc8ce71cc9e46d3d7, type: 3}
    - time: 6.5
      value: {fileID: 21300000, guid: 85e64a9a1199843d098cb61b2840b7a4, type: 3}
    - time: 7.0416665
      value: {fileID: 21300000, guid: 262569423c3d54d27980f5a8bc7cda9c, type: 3}
    - time: 7.1666665
      value: {fileID: 21300000, guid: e6a7375e0f1bd43adad9d92986a3a190, type: 3}
    - time: 7.4166665
      value: {fileID: 21300000, guid: 4970dbe73b1a64d4795b88fff907b5bf, type: 3}
    - time: 7.4583335
      value: {fileID: 21300000, guid: 6aa70d97eae3a41cd9225300bc3653ee, type: 3}
    - time: 7.5416665
      value: {fileID: 21300000, guid: 16f0c489404704cfa82b2033e920b9b5, type: 3}
    - time: 7.9166665
      value: {fileID: 21300000, guid: d9a69a3f452ee4d9d80ceb7e89b5b48f, type: 3}
    - time: 7.9583335
      value: {fileID: 21300000, guid: 477819344ada643e98fa1bd9142fcfac, type: 3}
    - time: 8.166667
      value: {fileID: 21300000, guid: 7bdaf0472f9de40c98e84fa25cf8ee44, type: 3}
    - time: 8.375
      value: {fileID: 21300000, guid: bd709fe3c6f57424cbda331b3183cbfe, type: 3}
    - time: 8.458333
      value: {fileID: 21300000, guid: 8039090c4d75c48f1aa952fb1370f58e, type: 3}
    - time: 8.5
      value: {fileID: 21300000, guid: ad021b8cd53374edbba3bf014ac73efb, type: 3}
    - time: 8.625
      value: {fileID: 21300000, guid: 8276db285f6d942ab9949ebafa2c3597, type: 3}
    - time: 9
      value: {fileID: 21300000, guid: b4728c27506fe482e9a7a84da73de917, type: 3}
    - time: 9.041667
      value: {fileID: 21300000, guid: 3b2881df62f4846d9bf66a3a9cac4194, type: 3}
    attribute: m_Sprite
    path: 
    classID: 212
    script: {fileID: 0}
  m_SampleRate: 24
  m_WrapMode: 0
  m_Bounds:
    m_Center: {x: 0, y: 0, z: 0}
    m_Extent: {x: 0, y: 0, z: 0}
  m_ClipBindingConstant:
    genericBindings:
    - serializedVersion: 2
      path: 0
      attribute: 0
      script: {fileID: 0}
      typeID: 212
      customType: 23
      isPPtrCurve: 1
    pptrCurveMapping:
    - {fileID: 0}
    - {fileID: 21300000, guid: 0e983f2392eca45348bd0fafddb16866, type: 3}
    - {fileID: 21300000, guid: cd26ae01541384c258a7b21963e9bc4d, type: 3}
    - {fileID: 21300000, guid: 022a437c5354a40f897a0d79b011f669, type: 3}
    - {fileID: 21300000, guid: 42bd92940e4ce442896c935ca40c3ac4, type: 3}
    - {fileID: 21300000, guid: 5ee3b1a0bdffd49118ecce58e50007cd, type: 3}
    - {fileID: 21300000, guid: 8f628f5129eed4ecd97520e9da1bcc21, type: 3}
    - {fileID: 21300000, guid: abb2bd122377347c49b8c72f50df3f68, type: 3}
    - {fileID: 21300000, guid: 174266257ac124a26a2e1c6beb83969d, type: 3}
    - {fileID: 21300000, guid: 60d67aa84cdda422490e5010ee0c0f04, type: 3}
    - {fileID: 21300000, guid: 7188679a06e9f479a9842bb32502d2fb, type: 3}
    - {fileID: 21300000, guid: c583c471c3f13492e9ba1193376f32c5, type: 3}
    - {fileID: 21300000, guid: 1ee711584cc7942308583fd701b30003, type: 3}
    - {fileID: 21300000, guid: b3aa9b8c7e87c4fd3b2a21f52a515607, type: 3}
    - {fileID: 21300000, guid: 86a03bfac19834b88842283dfa50f605, type: 3}
    - {fileID: 21300000, guid: edd6b774019be488fae815900ac8c99c, type: 3}
    - {fileID: 21300000, guid: ee7154c95fd0a477db1e2dc6809d0692, type: 3}
    - {fileID: 21300000, guid: db69abce2df594978b10f3d5df9365d8, type: 3}
    - {fileID: 21300000, guid: 25174f41de7eb4c33882786b4ad4b938, type: 3}
    - {fileID: 21300000, guid: 86fc67c9f96164693af5776901904c5e, type: 3}
    - {fileID: 21300000, guid: bcdc6cc68ccce407e8141291ee93c221, type: 3}
    - {fileID: 21300000, guid: 6a92ac5d19c5548f4bcdd832a79c916f, type: 3}
    - {fileID: 21300000, guid: 7822cc9dfa382433da7766f345a38148, type: 3}
    - {fileID: 21300000, guid: 68877461a385f445ea120094b3a6457e, type: 3}
    - {fileID: 21300000, guid: 66039d5361484447d978dcc3ff9a3579, type: 3}
    - {fileID: 21300000, guid: 1463ac4380e82482793d39f0fff8ef3e, type: 3}
    - {fileID: 21300000, guid: f776c2eb3379042a3b7807b5c278fdd9, type: 3}
    - {fileID: 21300000, guid: 56d54cc2d5ae547f6b772ccdd1a7d510, type: 3}
    - {fileID: 21300000, guid: 53482bafe34c64f8f9a872fb40ad6565, type: 3}
    - {fileID: 21300000, guid: 26eb73cf38a9b4a489c712dd795b4f3d, type: 3}
    - {fileID: 21300000, guid: 1b9ab31369f6c46dc8ce71cc9e46d3d7, type: 3}
    - {fileID: 21300000, guid: 85e64a9a1199843d098cb61b2840b7a4, type: 3}
    - {fileID: 21300000, guid: 262569423c3d54d27980f5a8bc7cda9c, type: 3}
    - {fileID: 21300000, guid: e6a7375e0f1bd43adad9d92986a3a190, type: 3}
    - {fileID: 21300000, guid: 4970dbe73b1a64d4795b88fff907b5bf, type: 3}
    - {fileID: 21300000, guid: 6aa70d97eae3a41cd9225300bc3653ee, type: 3}
    - {fileID: 21300000, guid: 16f0c489404704cfa82b2033e920b9b5, type: 3}
    - {fileID: 21300000, guid: d9a69a3f452ee4d9d80ceb7e89b5b48f, type: 3}
    - {fileID: 21300000, guid: 477819344ada643e98fa1bd9142fcfac, type: 3}
    - {fileID: 21300000, guid: 7bdaf0472f9de40c98e84fa25cf8ee44, type: 3}
    - {fileID: 21300000, guid: bd709fe3c6f57424cbda331b3183cbfe, type: 3}
    - {fileID: 21300000, guid: 8039090c4d75c48f1aa952fb1370f58e, type: 3}
    - {fileID: 21300000, guid: ad021b8cd53374edbba3bf014ac73efb, type: 3}
    - {fileID: 21300000, guid: 8276db285f6d942ab9949ebafa2c3597, type: 3}
    - {fileID: 21300000, guid: b4728c27506fe482e9a7a84da73de917, type: 3}
    - {fileID: 21300000, guid: 3b2881df62f4846d9bf66a3a9cac4194, type: 3}
  m_AnimationClipSettings:
    serializedVersion: 2
    m_AdditiveReferencePoseClip: {fileID: 0}
    m_AdditiveReferencePoseTime: 0
    m_StartTime: 0
    m_StopTime: 9.083334
    m_OrientationOffsetY: 0
    m_Level: 0
    m_CycleOffset: 0
    m_HasAdditiveReferencePose: 0
    m_LoopTime: 0
    m_LoopBlend: 0
    m_LoopBlendOrientation: 0
    m_LoopBlendPositionY: 0
    m_LoopBlendPositionXZ: 0
    m_KeepOriginalOrientation: 0
    m_KeepOriginalPositionY: 1
    m_KeepOriginalPositionXZ: 0
    m_HeightFromFeet: 0
    m_Mirror: 0
  m_EditorCurves: []
  m_EulerEditorCurves: []
  m_HasGenericRootTransform: 0
  m_HasMotionFloatCurves: 0
  m_GenerateMotionCurves: 0
  m_Events:
  - time: 0
    functionName: Hello
    data: 
    objectReferenceParameter: {fileID: 0}
    floatParameter: 0
    intParameter: 0
    messageOptions: 0
  - time: 9.041667
    functionName: HelloBaibai
    data: 
    objectReferenceParameter: {fileID: 0}
    floatParameter: 0
    intParameter: 0
    messageOptions: 0
