%YAML 1.1
%TAG !u! tag:unity3d.com,2011:
--- !u!74 &7400000
AnimationClip:
  m_ObjectHideFlags: 0
  m_PrefabParentObject: {fileID: 0}
  m_PrefabInternal: {fileID: 0}
  m_Name: 02_frame_in_triming
  serializedVersion: 6
  m_Legacy: 0
  m_Compressed: 0
  m_UseHighQualityCurve: 1
  m_RotationCurves: []
  m_CompressedRotationCurves: []
  m_EulerCurves: []
  m_PositionCurves:
  - curve:
      serializedVersion: 2
      m_Curve:
      - serializedVersion: 2
        time: 0
        value: {x: -18.02, y: -7.26, z: 0}
        inSlope: {x: 0, y: 0, z: 0}
        outSlope: {x: 0, y: 0, z: 0}
        tangentMode: 0
      m_PreInfinity: 2
      m_PostInfinity: 2
      m_RotationOrder: 4
    path: 
  m_ScaleCurves: []
  m_FloatCurves: []
  m_PPtrCurves:
  - curve:
    - time: 0
      value: {fileID: 21300000, guid: 63b8c20037b694901a0905233a280a40, type: 3}
    - time: 0.083333336
      value: {fileID: 21300000, guid: 17bf0cf0875ff48a48d75858d1dee5a6, type: 3}
    - time: 0.16666667
      value: {fileID: 21300000, guid: 13de981a184234343a891cd9f92d276b, type: 3}
    - time: 0.29166666
      value: {fileID: 21300000, guid: 0717b9d37d6524b0f8a0b25ec92b2963, type: 3}
    - time: 0.375
      value: {fileID: 21300000, guid: 535573ef455d541eebbc6d37fe186a2a, type: 3}
    - time: 0.45833334
      value: {fileID: 21300000, guid: 7ad0c4b0a63f947f885c5d1e72828faa, type: 3}
    - time: 0.5833333
      value: {fileID: 21300000, guid: 3b408b8673359474d928f2b5143514e0, type: 3}
    - time: 0.6666667
      value: {fileID: 21300000, guid: 3b5b2efbdcac849648c8b915cb2a5fb0, type: 3}
    - time: 0.75
      value: {fileID: 21300000, guid: 0b11ba26c1d214dbab557b7cf6cad8f9, type: 3}
    - time: 0.875
      value: {fileID: 21300000, guid: f9344e12f39134ce08104463b0aa0b72, type: 3}
    - time: 0.9583333
      value: {fileID: 21300000, guid: 4f5fe760797e042f6843c0c4defaa1cb, type: 3}
    - time: 1.0416666
      value: {fileID: 21300000, guid: c71d5d0cd906f495fb6d68109849c074, type: 3}
    - time: 1.1666666
      value: {fileID: 21300000, guid: 5deb3cd58489c4ecf9625a0e7f2ce889, type: 3}
    - time: 1.25
      value: {fileID: 21300000, guid: 2a3a7cd0ac0114cb6b80ccdef3ed79f0, type: 3}
    - time: 1.3333334
      value: {fileID: 21300000, guid: d87d9064f233a430d8ff8b1cd505aa1f, type: 3}
    - time: 1.4583334
      value: {fileID: 21300000, guid: 7f1cc5d93ed5844bab3cb48367e1b421, type: 3}
    - time: 1.5416666
      value: {fileID: 21300000, guid: a8ee0ff58a6ba4e99adc32ac7f312328, type: 3}
    - time: 1.625
      value: {fileID: 21300000, guid: c6facde00867a437998a3cb70d24cec4, type: 3}
    - time: 1.75
      value: {fileID: 21300000, guid: b720ff9bf618a46c593ad128aa004ee0, type: 3}
    - time: 1.8333334
      value: {fileID: 21300000, guid: 81f0f0cee957f47ca902925f7ae32a25, type: 3}
    - time: 1.9166666
      value: {fileID: 21300000, guid: 08fd281d8c1d24d2e8b5b81eb70b9834, type: 3}
    - time: 2.0416667
      value: {fileID: 21300000, guid: f34e17efe851e49f7b392b451d18abc5, type: 3}
    - time: 2.125
      value: {fileID: 21300000, guid: 872ee63bcef9e4cfcb15655f5577fb8b, type: 3}
    - time: 2.2083333
      value: {fileID: 21300000, guid: 43231577d587048d3a17945f40c4306e, type: 3}
    - time: 2.2916667
      value: {fileID: 21300000, guid: ff7fa0fa0ff084764b068d709718f8a7, type: 3}
    - time: 2.4166667
      value: {fileID: 21300000, guid: ef0c4d3e57312417a8e56eaeff30e828, type: 3}
    - time: 2.5
      value: {fileID: 21300000, guid: f58efbec91d1040349f585a7e649f6d2, type: 3}
    - time: 2.5833333
      value: {fileID: 21300000, guid: 83ac4109c32c44c8ea44e1bd5aad41fc, type: 3}
    - time: 4.1666665
      value: {fileID: 21300000, guid: 91a17247ca4474948beaf77b565f5a74, type: 3}
    - time: 4.25
      value: {fileID: 21300000, guid: a4e5ca354044845d9a23db8f2e03bff6, type: 3}
    - time: 4.2916665
      value: {fileID: 21300000, guid: 76a57369276ba4e9d8870c4d770a3a5d, type: 3}
    attribute: m_Sprite
    path: 
    classID: 212
    script: {fileID: 0}
  m_SampleRate: 24
  m_WrapMode: 0
  m_Bounds:
    m_Center: {x: 0, y: 0, z: 0}
    m_Extent: {x: 0, y: 0, z: 0}
  m_ClipBindingConstant:
    genericBindings:
    - serializedVersion: 2
      path: 0
      attribute: 0
      script: {fileID: 0}
      typeID: 212
      customType: 23
      isPPtrCurve: 1
    - serializedVersion: 2
      path: 0
      attribute: 1
      script: {fileID: 0}
      typeID: 4
      customType: 0
      isPPtrCurve: 0
    pptrCurveMapping:
    - {fileID: 21300000, guid: 63b8c20037b694901a0905233a280a40, type: 3}
    - {fileID: 21300000, guid: 17bf0cf0875ff48a48d75858d1dee5a6, type: 3}
    - {fileID: 21300000, guid: 13de981a184234343a891cd9f92d276b, type: 3}
    - {fileID: 21300000, guid: 0717b9d37d6524b0f8a0b25ec92b2963, type: 3}
    - {fileID: 21300000, guid: 535573ef455d541eebbc6d37fe186a2a, type: 3}
    - {fileID: 21300000, guid: 7ad0c4b0a63f947f885c5d1e72828faa, type: 3}
    - {fileID: 21300000, guid: 3b408b8673359474d928f2b5143514e0, type: 3}
    - {fileID: 21300000, guid: 3b5b2efbdcac849648c8b915cb2a5fb0, type: 3}
    - {fileID: 21300000, guid: 0b11ba26c1d214dbab557b7cf6cad8f9, type: 3}
    - {fileID: 21300000, guid: f9344e12f39134ce08104463b0aa0b72, type: 3}
    - {fileID: 21300000, guid: 4f5fe760797e042f6843c0c4defaa1cb, type: 3}
    - {fileID: 21300000, guid: c71d5d0cd906f495fb6d68109849c074, type: 3}
    - {fileID: 21300000, guid: 5deb3cd58489c4ecf9625a0e7f2ce889, type: 3}
    - {fileID: 21300000, guid: 2a3a7cd0ac0114cb6b80ccdef3ed79f0, type: 3}
    - {fileID: 21300000, guid: d87d9064f233a430d8ff8b1cd505aa1f, type: 3}
    - {fileID: 21300000, guid: 7f1cc5d93ed5844bab3cb48367e1b421, type: 3}
    - {fileID: 21300000, guid: a8ee0ff58a6ba4e99adc32ac7f312328, type: 3}
    - {fileID: 21300000, guid: c6facde00867a437998a3cb70d24cec4, type: 3}
    - {fileID: 21300000, guid: b720ff9bf618a46c593ad128aa004ee0, type: 3}
    - {fileID: 21300000, guid: 81f0f0cee957f47ca902925f7ae32a25, type: 3}
    - {fileID: 21300000, guid: 08fd281d8c1d24d2e8b5b81eb70b9834, type: 3}
    - {fileID: 21300000, guid: f34e17efe851e49f7b392b451d18abc5, type: 3}
    - {fileID: 21300000, guid: 872ee63bcef9e4cfcb15655f5577fb8b, type: 3}
    - {fileID: 21300000, guid: 43231577d587048d3a17945f40c4306e, type: 3}
    - {fileID: 21300000, guid: ff7fa0fa0ff084764b068d709718f8a7, type: 3}
    - {fileID: 21300000, guid: ef0c4d3e57312417a8e56eaeff30e828, type: 3}
    - {fileID: 21300000, guid: f58efbec91d1040349f585a7e649f6d2, type: 3}
    - {fileID: 21300000, guid: 83ac4109c32c44c8ea44e1bd5aad41fc, type: 3}
    - {fileID: 21300000, guid: 91a17247ca4474948beaf77b565f5a74, type: 3}
    - {fileID: 21300000, guid: a4e5ca354044845d9a23db8f2e03bff6, type: 3}
    - {fileID: 21300000, guid: 76a57369276ba4e9d8870c4d770a3a5d, type: 3}
  m_AnimationClipSettings:
    serializedVersion: 2
    m_AdditiveReferencePoseClip: {fileID: 0}
    m_AdditiveReferencePoseTime: 0
    m_StartTime: 0
    m_StopTime: 4.3333335
    m_OrientationOffsetY: 0
    m_Level: 0
    m_CycleOffset: 0
    m_HasAdditiveReferencePose: 0
    m_LoopTime: 0
    m_LoopBlend: 0
    m_LoopBlendOrientation: 0
    m_LoopBlendPositionY: 0
    m_LoopBlendPositionXZ: 0
    m_KeepOriginalOrientation: 0
    m_KeepOriginalPositionY: 1
    m_KeepOriginalPositionXZ: 0
    m_HeightFromFeet: 0
    m_Mirror: 0
  m_EditorCurves:
  - curve:
      serializedVersion: 2
      m_Curve:
      - serializedVersion: 2
        time: 0
        value: -18.02
        inSlope: 0
        outSlope: 0
        tangentMode: 136
      m_PreInfinity: 2
      m_PostInfinity: 2
      m_RotationOrder: 4
    attribute: m_LocalPosition.x
    path: 
    classID: 4
    script: {fileID: 0}
  - curve:
      serializedVersion: 2
      m_Curve:
      - serializedVersion: 2
        time: 0
        value: -7.26
        inSlope: 0
        outSlope: 0
        tangentMode: 136
      m_PreInfinity: 2
      m_PostInfinity: 2
      m_RotationOrder: 4
    attribute: m_LocalPosition.y
    path: 
    classID: 4
    script: {fileID: 0}
  - curve:
      serializedVersion: 2
      m_Curve:
      - serializedVersion: 2
        time: 0
        value: 0
        inSlope: 0
        outSlope: 0
        tangentMode: 136
      m_PreInfinity: 2
      m_PostInfinity: 2
      m_RotationOrder: 4
    attribute: m_LocalPosition.z
    path: 
    classID: 4
    script: {fileID: 0}
  m_EulerEditorCurves: []
  m_HasGenericRootTransform: 1
  m_HasMotionFloatCurves: 0
  m_GenerateMotionCurves: 0
  m_Events:
  - time: 0
    functionName: FootSound
    data: 
    objectReferenceParameter: {fileID: 0}
    floatParameter: 0
    intParameter: 0
    messageOptions: 0
  - time: 4.3333335
    functionName: TapGuideStart
    data: 
    objectReferenceParameter: {fileID: 0}
    floatParameter: 0
    intParameter: 0
    messageOptions: 0
