%YAML 1.1
%TAG !u! tag:unity3d.com,2011:
--- !u!74 &7400000
AnimationClip:
  m_ObjectHideFlags: 0
  m_PrefabParentObject: {fileID: 0}
  m_PrefabInternal: {fileID: 0}
  m_Name: Angry
  serializedVersion: 6
  m_Legacy: 0
  m_Compressed: 0
  m_UseHighQualityCurve: 1
  m_RotationCurves: []
  m_CompressedRotationCurves: []
  m_EulerCurves: []
  m_PositionCurves: []
  m_ScaleCurves: []
  m_FloatCurves: []
  m_PPtrCurves:
  - curve:
    - time: 0
      value: {fileID: 21300000, guid: c54ec54c09349494ebcfe94b9379fe05, type: 3}
    - time: 0.125
      value: {fileID: 21300000, guid: 28287552fc7d84d05af25259f4e06627, type: 3}
    - time: 0.29166666
      value: {fileID: 21300000, guid: 2d49b509bda8c4db688b560d862a129d, type: 3}
    - time: 0.625
      value: {fileID: 21300000, guid: d5fe6230428d74e0389cc70b3218349e, type: 3}
    - time: 0.75
      value: {fileID: 21300000, guid: 7fe325fd2191c44a7b0bf1e349640900, type: 3}
    - time: 0.875
      value: {fileID: 21300000, guid: bfec288c0e1314edba15774d21de1731, type: 3}
    - time: 1
      value: {fileID: 21300000, guid: 609e55798444d4028a15bb17c1b40908, type: 3}
    - time: 1.25
      value: {fileID: 21300000, guid: 7634ec5f01d30471baec04f26d611a0b, type: 3}
    - time: 1.3333334
      value: {fileID: 21300000, guid: 3cd6a94b426f14f7baa043203a033a4c, type: 3}
    - time: 1.4166666
      value: {fileID: 21300000, guid: 1950a6469cd404cf594f620adb56d21b, type: 3}
    - time: 1.5
      value: {fileID: 21300000, guid: 42f3ac22b08934dad952a399bb03f85f, type: 3}
    - time: 1.5833334
      value: {fileID: 21300000, guid: 13f721e1c37374fc299adb77998fd216, type: 3}
    - time: 1.6666666
      value: {fileID: 21300000, guid: c934392728c7b4c65bace7bf3ccea325, type: 3}
    - time: 2
      value: {fileID: 21300000, guid: c934392728c7b4c65bace7bf3ccea325, type: 3}
    attribute: m_Sprite
    path: 
    classID: 212
    script: {fileID: 0}
  m_SampleRate: 24
  m_WrapMode: 0
  m_Bounds:
    m_Center: {x: 0, y: 0, z: 0}
    m_Extent: {x: 0, y: 0, z: 0}
  m_ClipBindingConstant:
    genericBindings:
    - serializedVersion: 2
      path: 0
      attribute: 0
      script: {fileID: 0}
      typeID: 212
      customType: 23
      isPPtrCurve: 1
    pptrCurveMapping:
    - {fileID: 21300000, guid: c54ec54c09349494ebcfe94b9379fe05, type: 3}
    - {fileID: 21300000, guid: 28287552fc7d84d05af25259f4e06627, type: 3}
    - {fileID: 21300000, guid: 2d49b509bda8c4db688b560d862a129d, type: 3}
    - {fileID: 21300000, guid: d5fe6230428d74e0389cc70b3218349e, type: 3}
    - {fileID: 21300000, guid: 7fe325fd2191c44a7b0bf1e349640900, type: 3}
    - {fileID: 21300000, guid: bfec288c0e1314edba15774d21de1731, type: 3}
    - {fileID: 21300000, guid: 609e55798444d4028a15bb17c1b40908, type: 3}
    - {fileID: 21300000, guid: 7634ec5f01d30471baec04f26d611a0b, type: 3}
    - {fileID: 21300000, guid: 3cd6a94b426f14f7baa043203a033a4c, type: 3}
    - {fileID: 21300000, guid: 1950a6469cd404cf594f620adb56d21b, type: 3}
    - {fileID: 21300000, guid: 42f3ac22b08934dad952a399bb03f85f, type: 3}
    - {fileID: 21300000, guid: 13f721e1c37374fc299adb77998fd216, type: 3}
    - {fileID: 21300000, guid: c934392728c7b4c65bace7bf3ccea325, type: 3}
    - {fileID: 21300000, guid: c934392728c7b4c65bace7bf3ccea325, type: 3}
  m_AnimationClipSettings:
    serializedVersion: 2
    m_AdditiveReferencePoseClip: {fileID: 0}
    m_AdditiveReferencePoseTime: 0
    m_StartTime: 0
    m_StopTime: 2.0416667
    m_OrientationOffsetY: 0
    m_Level: 0
    m_CycleOffset: 0
    m_HasAdditiveReferencePose: 0
    m_LoopTime: 0
    m_LoopBlend: 0
    m_LoopBlendOrientation: 0
    m_LoopBlendPositionY: 0
    m_LoopBlendPositionXZ: 0
    m_KeepOriginalOrientation: 0
    m_KeepOriginalPositionY: 1
    m_KeepOriginalPositionXZ: 0
    m_HeightFromFeet: 0
    m_Mirror: 0
  m_EditorCurves: []
  m_EulerEditorCurves: []
  m_HasGenericRootTransform: 0
  m_HasMotionFloatCurves: 0
  m_GenerateMotionCurves: 0
  m_Events:
  - time: 0
    functionName: PlayId
    data: 
    objectReferenceParameter: {fileID: 0}
    floatParameter: 0
    intParameter: 0
    messageOptions: 0
  - time: 1
    functionName: MuteOff
    data: 
    objectReferenceParameter: {fileID: 0}
    floatParameter: 0
    intParameter: 1
    messageOptions: 0
