%YAML 1.1
%TAG !u! tag:unity3d.com,2011:
--- !u!74 &7400000
AnimationClip:
  m_ObjectHideFlags: 0
  m_PrefabParentObject: {fileID: 0}
  m_PrefabInternal: {fileID: 0}
  m_Name: Walk Down
  serializedVersion: 6
  m_Legacy: 0
  m_Compressed: 0
  m_UseHighQualityCurve: 1
  m_RotationCurves: []
  m_CompressedRotationCurves: []
  m_EulerCurves: []
  m_PositionCurves: []
  m_ScaleCurves: []
  m_FloatCurves: []
  m_PPtrCurves:
  - curve:
    - time: 0
      value: {fileID: 21300000, guid: 27623b928f6f74d32b3bb834bac23a8a, type: 3}
    - time: 0.125
      value: {fileID: 21300000, guid: fdb12a3f8748c483ebb53de24a3c9863, type: 3}
    - time: 0.625
      value: {fileID: 21300000, guid: 35f12c71ef5524c62b6484c7113ac7a8, type: 3}
    - time: 0.75000006
      value: {fileID: 21300000, guid: f1f51da2fc3ac4dbd9b9141cdf6b18a1, type: 3}
    - time: 0.8750001
      value: {fileID: 21300000, guid: 92c68fb8c35654145bce53510bf76b8d, type: 3}
    - time: 1.0000001
      value: {fileID: 21300000, guid: 33a65fea9ccb345d9aac6d9ff8e3a68c, type: 3}
    - time: 1.0833334
      value: {fileID: 21300000, guid: d8d433097eecb434d8454cc528fa7b18, type: 3}
    - time: 1.1666666
      value: {fileID: 21300000, guid: 9a54edc8ceeb5415f81daaf2a44b17fd, type: 3}
    - time: 1.3333331
      value: {fileID: 21300000, guid: 087e57ceb427244f8a153447a8f4c8c3, type: 3}
    - time: 1.6666662
      value: {fileID: 21300000, guid: f487c0bc973d24fb29bea22f1b313476, type: 3}
    - time: 1.8333327
      value: {fileID: 21300000, guid: 0bb376364c9154fc0b72f892af11d115, type: 3}
    - time: 2.833334
      value: {fileID: 21300000, guid: 745fbc5f1076d4bcba4ee293c1b894cb, type: 3}
    - time: 2.9583342
      value: {fileID: 21300000, guid: 4aa9bad6b86eb4347a202e7e0a8769f7, type: 3}
    - time: 3.0833344
      value: {fileID: 21300000, guid: 0b7138211554942318cd3e0426eff734, type: 3}
    - time: 3.2083347
      value: {fileID: 21300000, guid: c8572df29449f4010bcb65a8c05d9ea6, type: 3}
    - time: 3.333335
      value: {fileID: 21300000, guid: 1733af1aedc69448694668e4daba7721, type: 3}
    - time: 3.4583352
      value: {fileID: 21300000, guid: 2a351d5ed9b18414eb846ab1355dc3cc, type: 3}
    - time: 3.5833354
      value: {fileID: 21300000, guid: 8e8b7b43e7d7a4ff49392dc81672ffe1, type: 3}
    - time: 3.7083356
      value: {fileID: 21300000, guid: 863baec85129648228d0d2d9d6478db2, type: 3}
    - time: 3.8333359
      value: {fileID: 21300000, guid: bbcf37f4ff99a4848ad14610220a1b0b, type: 3}
    - time: 3.958336
      value: {fileID: 21300000, guid: ac0e535cedcb0461fa491e7de2c1b86b, type: 3}
    - time: 4.083336
      value: {fileID: 21300000, guid: b4c6905c8379e4835bf621a5ac418e25, type: 3}
    - time: 4.2083354
      value: {fileID: 21300000, guid: fc61bc57b7c0745d89748a2efc36b351, type: 3}
    - time: 4.333335
      value: {fileID: 21300000, guid: a0190f55bf9844ad3a09f4966beec5fa, type: 3}
    - time: 4.4583344
      value: {fileID: 21300000, guid: 43db050a1e36f489c9ed41fb496855d5, type: 3}
    - time: 4.583334
      value: {fileID: 21300000, guid: d1f0e3ef0056d4d26b008348949b42ec, type: 3}
    - time: 4.7083335
      value: {fileID: 21300000, guid: 3e3f84a8e95834dea9f1d561ceb61316, type: 3}
    - time: 4.833333
      value: {fileID: 21300000, guid: e853c9c1b74874b88a546125476196a5, type: 3}
    - time: 4.9583325
      value: {fileID: 21300000, guid: f76a247b4222d4afb8898aed3b3c1b7e, type: 3}
    - time: 5.083332
      value: {fileID: 21300000, guid: 68a90ba2ac73d4fc8ae769665c0486d9, type: 3}
    - time: 5.2083316
      value: {fileID: 21300000, guid: 8631cf04d73c74b86bf0abf5e3cb80a9, type: 3}
    - time: 5.333331
      value: {fileID: 21300000, guid: 5c328e12be5994a1da76de3589cab243, type: 3}
    - time: 5.4583306
      value: {fileID: 21300000, guid: 3ad868d123cf845d0a1a19411a2e5744, type: 3}
    - time: 5.58333
      value: {fileID: 21300000, guid: 19a493a8cfdaa4b0f8a28831ea9a5b3d, type: 3}
    - time: 5.7083297
      value: {fileID: 21300000, guid: 57e24aac30b0b431e9a92e36a7309a94, type: 3}
    - time: 5.833329
      value: {fileID: 21300000, guid: 87f215d24c28f481fb5cfe2e10afc3b3, type: 3}
    - time: 5.9583287
      value: {fileID: 21300000, guid: 495f810f491d64719902416417bb7edb, type: 3}
    - time: 6.0833282
      value: {fileID: 21300000, guid: bc8029b78565f4b78ac415d460d6cd1c, type: 3}
    - time: 6.208328
      value: {fileID: 21300000, guid: 648f9f41cb9364e16852a18481a9f9bd, type: 3}
    - time: 6.3333273
      value: {fileID: 21300000, guid: 56892ae582d874d1495c7fa545762b12, type: 3}
    - time: 6.458327
      value: {fileID: 21300000, guid: ec656521b8462455092450d147a8d0f4, type: 3}
    - time: 6.5833263
      value: {fileID: 21300000, guid: 851753795db3948f7b53397cec207802, type: 3}
    - time: 6.708326
      value: {fileID: 21300000, guid: 4ea4f6da11240493cb8a02213546ea9c, type: 3}
    - time: 6.8333254
      value: {fileID: 21300000, guid: e0ffc1ca88c514d49aeae0f5016cd7e2, type: 3}
    - time: 6.958325
      value: {fileID: 21300000, guid: 8b2aab0ba4faf410891e06700eb6ca89, type: 3}
    - time: 7.0416665
      value: {fileID: 21300000, guid: 8b2aab0ba4faf410891e06700eb6ca89, type: 3}
    attribute: m_Sprite
    path: 
    classID: 212
    script: {fileID: 0}
  m_SampleRate: 24
  m_WrapMode: 0
  m_Bounds:
    m_Center: {x: 0, y: 0, z: 0}
    m_Extent: {x: 0, y: 0, z: 0}
  m_ClipBindingConstant:
    genericBindings:
    - serializedVersion: 2
      path: 0
      attribute: 0
      script: {fileID: 0}
      typeID: 212
      customType: 23
      isPPtrCurve: 1
    pptrCurveMapping:
    - {fileID: 21300000, guid: 27623b928f6f74d32b3bb834bac23a8a, type: 3}
    - {fileID: 21300000, guid: fdb12a3f8748c483ebb53de24a3c9863, type: 3}
    - {fileID: 21300000, guid: 35f12c71ef5524c62b6484c7113ac7a8, type: 3}
    - {fileID: 21300000, guid: f1f51da2fc3ac4dbd9b9141cdf6b18a1, type: 3}
    - {fileID: 21300000, guid: 92c68fb8c35654145bce53510bf76b8d, type: 3}
    - {fileID: 21300000, guid: 33a65fea9ccb345d9aac6d9ff8e3a68c, type: 3}
    - {fileID: 21300000, guid: d8d433097eecb434d8454cc528fa7b18, type: 3}
    - {fileID: 21300000, guid: 9a54edc8ceeb5415f81daaf2a44b17fd, type: 3}
    - {fileID: 21300000, guid: 087e57ceb427244f8a153447a8f4c8c3, type: 3}
    - {fileID: 21300000, guid: f487c0bc973d24fb29bea22f1b313476, type: 3}
    - {fileID: 21300000, guid: 0bb376364c9154fc0b72f892af11d115, type: 3}
    - {fileID: 21300000, guid: 745fbc5f1076d4bcba4ee293c1b894cb, type: 3}
    - {fileID: 21300000, guid: 4aa9bad6b86eb4347a202e7e0a8769f7, type: 3}
    - {fileID: 21300000, guid: 0b7138211554942318cd3e0426eff734, type: 3}
    - {fileID: 21300000, guid: c8572df29449f4010bcb65a8c05d9ea6, type: 3}
    - {fileID: 21300000, guid: 1733af1aedc69448694668e4daba7721, type: 3}
    - {fileID: 21300000, guid: 2a351d5ed9b18414eb846ab1355dc3cc, type: 3}
    - {fileID: 21300000, guid: 8e8b7b43e7d7a4ff49392dc81672ffe1, type: 3}
    - {fileID: 21300000, guid: 863baec85129648228d0d2d9d6478db2, type: 3}
    - {fileID: 21300000, guid: bbcf37f4ff99a4848ad14610220a1b0b, type: 3}
    - {fileID: 21300000, guid: ac0e535cedcb0461fa491e7de2c1b86b, type: 3}
    - {fileID: 21300000, guid: b4c6905c8379e4835bf621a5ac418e25, type: 3}
    - {fileID: 21300000, guid: fc61bc57b7c0745d89748a2efc36b351, type: 3}
    - {fileID: 21300000, guid: a0190f55bf9844ad3a09f4966beec5fa, type: 3}
    - {fileID: 21300000, guid: 43db050a1e36f489c9ed41fb496855d5, type: 3}
    - {fileID: 21300000, guid: d1f0e3ef0056d4d26b008348949b42ec, type: 3}
    - {fileID: 21300000, guid: 3e3f84a8e95834dea9f1d561ceb61316, type: 3}
    - {fileID: 21300000, guid: e853c9c1b74874b88a546125476196a5, type: 3}
    - {fileID: 21300000, guid: f76a247b4222d4afb8898aed3b3c1b7e, type: 3}
    - {fileID: 21300000, guid: 68a90ba2ac73d4fc8ae769665c0486d9, type: 3}
    - {fileID: 21300000, guid: 8631cf04d73c74b86bf0abf5e3cb80a9, type: 3}
    - {fileID: 21300000, guid: 5c328e12be5994a1da76de3589cab243, type: 3}
    - {fileID: 21300000, guid: 3ad868d123cf845d0a1a19411a2e5744, type: 3}
    - {fileID: 21300000, guid: 19a493a8cfdaa4b0f8a28831ea9a5b3d, type: 3}
    - {fileID: 21300000, guid: 57e24aac30b0b431e9a92e36a7309a94, type: 3}
    - {fileID: 21300000, guid: 87f215d24c28f481fb5cfe2e10afc3b3, type: 3}
    - {fileID: 21300000, guid: 495f810f491d64719902416417bb7edb, type: 3}
    - {fileID: 21300000, guid: bc8029b78565f4b78ac415d460d6cd1c, type: 3}
    - {fileID: 21300000, guid: 648f9f41cb9364e16852a18481a9f9bd, type: 3}
    - {fileID: 21300000, guid: 56892ae582d874d1495c7fa545762b12, type: 3}
    - {fileID: 21300000, guid: ec656521b8462455092450d147a8d0f4, type: 3}
    - {fileID: 21300000, guid: 851753795db3948f7b53397cec207802, type: 3}
    - {fileID: 21300000, guid: 4ea4f6da11240493cb8a02213546ea9c, type: 3}
    - {fileID: 21300000, guid: e0ffc1ca88c514d49aeae0f5016cd7e2, type: 3}
    - {fileID: 21300000, guid: 8b2aab0ba4faf410891e06700eb6ca89, type: 3}
    - {fileID: 21300000, guid: 8b2aab0ba4faf410891e06700eb6ca89, type: 3}
  m_AnimationClipSettings:
    serializedVersion: 2
    m_AdditiveReferencePoseClip: {fileID: 0}
    m_AdditiveReferencePoseTime: 0
    m_StartTime: 0
    m_StopTime: 7.083333
    m_OrientationOffsetY: 0
    m_Level: 0
    m_CycleOffset: 0
    m_HasAdditiveReferencePose: 0
    m_LoopTime: 0
    m_LoopBlend: 0
    m_LoopBlendOrientation: 0
    m_LoopBlendPositionY: 0
    m_LoopBlendPositionXZ: 0
    m_KeepOriginalOrientation: 0
    m_KeepOriginalPositionY: 1
    m_KeepOriginalPositionXZ: 0
    m_HeightFromFeet: 0
    m_Mirror: 0
  m_EditorCurves: []
  m_EulerEditorCurves: []
  m_HasGenericRootTransform: 0
  m_HasMotionFloatCurves: 0
  m_GenerateMotionCurves: 0
  m_Events: []
