%YAML 1.1
%TAG !u! tag:unity3d.com,2011:
--- !u!74 &7400000
AnimationClip:
  m_ObjectHideFlags: 0
  m_PrefabParentObject: {fileID: 0}
  m_PrefabInternal: {fileID: 0}
  m_Name: m05_jump01
  serializedVersion: 6
  m_Legacy: 0
  m_Compressed: 0
  m_UseHighQualityCurve: 1
  m_RotationCurves: []
  m_CompressedRotationCurves: []
  m_EulerCurves: []
  m_PositionCurves: []
  m_ScaleCurves: []
  m_FloatCurves: []
  m_PPtrCurves:
  - curve:
    - time: 0
      value: {fileID: 21300000, guid: 2c0e705c5be5b4d2ebccdbf890ab70c5, type: 3}
    - time: 1.0833334
      value: {fileID: 21300000, guid: 474c0ffe689f54778a01034a9207efb9, type: 3}
    - time: 1.1666666
      value: {fileID: 21300000, guid: 3807b058f078e4a20ba64199f9ac5963, type: 3}
    - time: 1.25
      value: {fileID: 21300000, guid: 4e4ab289a23fb4089a420ac55b2cd3e6, type: 3}
    - time: 1.3333334
      value: {fileID: 21300000, guid: e4bd2904f656441a48094e6388c05902, type: 3}
    - time: 1.4166666
      value: {fileID: 21300000, guid: 71e13136311444aff9a49274445ef11c, type: 3}
    - time: 1.4583334
      value: {fileID: 21300000, guid: 637601963b032424c86b25ba3939c171, type: 3}
    - time: 1.5
      value: {fileID: 21300000, guid: abeef3a8491a6405a87923e960c7e266, type: 3}
    - time: 1.5833334
      value: {fileID: 21300000, guid: 68325b6a581c7429aab61e9ebb13effc, type: 3}
    - time: 1.6666666
      value: {fileID: 21300000, guid: aa1268bc6c08645b8b18a7d63660fc60, type: 3}
    - time: 1.7083334
      value: {fileID: 21300000, guid: 8656e9cda0f164406bb9ae9aad3e9b15, type: 3}
    - time: 1.75
      value: {fileID: 21300000, guid: 73b52e293245544009345724e3303cbb, type: 3}
    - time: 1.7916666
      value: {fileID: 21300000, guid: 6fe8c7b1e56134aa5bd853d8cc815cd3, type: 3}
    - time: 1.8333334
      value: {fileID: 21300000, guid: 14fba1b3994fa46e392a0e1f665701c5, type: 3}
    - time: 1.9166666
      value: {fileID: 21300000, guid: 54eae05a8687c4e6bb45eab4301158c5, type: 3}
    - time: 1.9583334
      value: {fileID: 21300000, guid: 1dba9b0e75cb947ec8aca028e22dd4e0, type: 3}
    - time: 2
      value: {fileID: 21300000, guid: 5bc94c580e3fa492b93c0e7010ed9f0e, type: 3}
    - time: 2.0833333
      value: {fileID: 21300000, guid: ae0735cd4dcad459aae9632812a2163e, type: 3}
    - time: 2.1666667
      value: {fileID: 21300000, guid: 5fc168e88081a4ba582e11ac1355028d, type: 3}
    - time: 2.2083333
      value: {fileID: 21300000, guid: 1ccc72f4ca8964720aeb524367fb960d, type: 3}
    - time: 2.25
      value: {fileID: 21300000, guid: bc2a1209893484e77bbe91cf1a377c54, type: 3}
    - time: 2.2916667
      value: {fileID: 21300000, guid: b7b66fcabed0d4b5f8f429dc5793a080, type: 3}
    - time: 2.3333333
      value: {fileID: 21300000, guid: a0ce5e383e11b4c7ea4aa8b63bc51ad1, type: 3}
    - time: 2.375
      value: {fileID: 21300000, guid: b42cd7d225abf46c2b1c6cd73348364a, type: 3}
    - time: 2.4583333
      value: {fileID: 21300000, guid: 51c7bfed3dac244ce914ccb0e8054336, type: 3}
    - time: 2.7083333
      value: {fileID: 21300000, guid: aee7e36cb435149d799f1cdd93914f79, type: 3}
    - time: 0
      value: {fileID: 0}
    attribute: m_Sprite
    path: 
    classID: 212
    script: {fileID: 0}
  m_SampleRate: 24
  m_WrapMode: 0
  m_Bounds:
    m_Center: {x: 0, y: 0, z: 0}
    m_Extent: {x: 0, y: 0, z: 0}
  m_ClipBindingConstant:
    genericBindings:
    - serializedVersion: 2
      path: 0
      attribute: 0
      script: {fileID: 0}
      typeID: 212
      customType: 23
      isPPtrCurve: 1
    pptrCurveMapping:
    - {fileID: 21300000, guid: 2c0e705c5be5b4d2ebccdbf890ab70c5, type: 3}
    - {fileID: 21300000, guid: 474c0ffe689f54778a01034a9207efb9, type: 3}
    - {fileID: 21300000, guid: 3807b058f078e4a20ba64199f9ac5963, type: 3}
    - {fileID: 21300000, guid: 4e4ab289a23fb4089a420ac55b2cd3e6, type: 3}
    - {fileID: 21300000, guid: e4bd2904f656441a48094e6388c05902, type: 3}
    - {fileID: 21300000, guid: 71e13136311444aff9a49274445ef11c, type: 3}
    - {fileID: 21300000, guid: 637601963b032424c86b25ba3939c171, type: 3}
    - {fileID: 21300000, guid: abeef3a8491a6405a87923e960c7e266, type: 3}
    - {fileID: 21300000, guid: 68325b6a581c7429aab61e9ebb13effc, type: 3}
    - {fileID: 21300000, guid: aa1268bc6c08645b8b18a7d63660fc60, type: 3}
    - {fileID: 21300000, guid: 8656e9cda0f164406bb9ae9aad3e9b15, type: 3}
    - {fileID: 21300000, guid: 73b52e293245544009345724e3303cbb, type: 3}
    - {fileID: 21300000, guid: 6fe8c7b1e56134aa5bd853d8cc815cd3, type: 3}
    - {fileID: 21300000, guid: 14fba1b3994fa46e392a0e1f665701c5, type: 3}
    - {fileID: 21300000, guid: 54eae05a8687c4e6bb45eab4301158c5, type: 3}
    - {fileID: 21300000, guid: 1dba9b0e75cb947ec8aca028e22dd4e0, type: 3}
    - {fileID: 21300000, guid: 5bc94c580e3fa492b93c0e7010ed9f0e, type: 3}
    - {fileID: 21300000, guid: ae0735cd4dcad459aae9632812a2163e, type: 3}
    - {fileID: 21300000, guid: 5fc168e88081a4ba582e11ac1355028d, type: 3}
    - {fileID: 21300000, guid: 1ccc72f4ca8964720aeb524367fb960d, type: 3}
    - {fileID: 21300000, guid: bc2a1209893484e77bbe91cf1a377c54, type: 3}
    - {fileID: 21300000, guid: b7b66fcabed0d4b5f8f429dc5793a080, type: 3}
    - {fileID: 21300000, guid: a0ce5e383e11b4c7ea4aa8b63bc51ad1, type: 3}
    - {fileID: 21300000, guid: b42cd7d225abf46c2b1c6cd73348364a, type: 3}
    - {fileID: 21300000, guid: 51c7bfed3dac244ce914ccb0e8054336, type: 3}
    - {fileID: 21300000, guid: aee7e36cb435149d799f1cdd93914f79, type: 3}
    - {fileID: 0}
  m_AnimationClipSettings:
    serializedVersion: 2
    m_AdditiveReferencePoseClip: {fileID: 0}
    m_AdditiveReferencePoseTime: 0
    m_StartTime: 0
    m_StopTime: 0.041666668
    m_OrientationOffsetY: 0
    m_Level: 0
    m_CycleOffset: 0
    m_HasAdditiveReferencePose: 0
    m_LoopTime: 0
    m_LoopBlend: 0
    m_LoopBlendOrientation: 0
    m_LoopBlendPositionY: 0
    m_LoopBlendPositionXZ: 0
    m_KeepOriginalOrientation: 0
    m_KeepOriginalPositionY: 1
    m_KeepOriginalPositionXZ: 0
    m_HeightFromFeet: 0
    m_Mirror: 0
  m_EditorCurves: []
  m_EulerEditorCurves: []
  m_HasGenericRootTransform: 0
  m_HasMotionFloatCurves: 0
  m_GenerateMotionCurves: 0
  m_Events: []
