%YAML 1.1
%TAG !u! tag:unity3d.com,2011:
--- !u!74 &7400000
AnimationClip:
  m_ObjectHideFlags: 0
  m_PrefabParentObject: {fileID: 0}
  m_PrefabInternal: {fileID: 0}
  m_Name: to light left-blue
  serializedVersion: 6
  m_Legacy: 0
  m_Compressed: 0
  m_UseHighQualityCurve: 1
  m_RotationCurves: []
  m_CompressedRotationCurves: []
  m_EulerCurves: []
  m_PositionCurves: []
  m_ScaleCurves: []
  m_FloatCurves: []
  m_PPtrCurves:
  - curve:
    - time: 0
      value: {fileID: 21300000, guid: 66f43e8150e154516ba8edfd622d341b, type: 3}
    - time: 0.25
      value: {fileID: 21300000, guid: 74d8682468cbb48e9b408287aaf830fc, type: 3}
    - time: 0.375
      value: {fileID: 21300000, guid: f27e960111bdd49548cc234bc8e58102, type: 3}
    - time: 0.5
      value: {fileID: 21300000, guid: cbeb295d77d6e4f548fb45297e7cf07e, type: 3}
    - time: 0.5833333
      value: {fileID: 21300000, guid: aed407a11035e4fdb8fabeac115a36c5, type: 3}
    - time: 0.6666667
      value: {fileID: 21300000, guid: f5430dcd8f4d640dcaf2217062a8c8c7, type: 3}
    - time: 0.875
      value: {fileID: 21300000, guid: 4887724c945b14d4f953c6c2bf5a02de, type: 3}
    attribute: m_Sprite
    path: 
    classID: 212
    script: {fileID: 0}
  m_SampleRate: 24
  m_WrapMode: 0
  m_Bounds:
    m_Center: {x: 0, y: 0, z: 0}
    m_Extent: {x: 0, y: 0, z: 0}
  m_ClipBindingConstant:
    genericBindings:
    - serializedVersion: 2
      path: 0
      attribute: 0
      script: {fileID: 0}
      typeID: 212
      customType: 23
      isPPtrCurve: 1
    pptrCurveMapping:
    - {fileID: 21300000, guid: 66f43e8150e154516ba8edfd622d341b, type: 3}
    - {fileID: 21300000, guid: 74d8682468cbb48e9b408287aaf830fc, type: 3}
    - {fileID: 21300000, guid: f27e960111bdd49548cc234bc8e58102, type: 3}
    - {fileID: 21300000, guid: cbeb295d77d6e4f548fb45297e7cf07e, type: 3}
    - {fileID: 21300000, guid: aed407a11035e4fdb8fabeac115a36c5, type: 3}
    - {fileID: 21300000, guid: f5430dcd8f4d640dcaf2217062a8c8c7, type: 3}
    - {fileID: 21300000, guid: 4887724c945b14d4f953c6c2bf5a02de, type: 3}
  m_AnimationClipSettings:
    serializedVersion: 2
    m_AdditiveReferencePoseClip: {fileID: 0}
    m_AdditiveReferencePoseTime: 0
    m_StartTime: 0
    m_StopTime: 0.9166667
    m_OrientationOffsetY: 0
    m_Level: 0
    m_CycleOffset: 0
    m_HasAdditiveReferencePose: 0
    m_LoopTime: 0
    m_LoopBlend: 0
    m_LoopBlendOrientation: 0
    m_LoopBlendPositionY: 0
    m_LoopBlendPositionXZ: 0
    m_KeepOriginalOrientation: 0
    m_KeepOriginalPositionY: 1
    m_KeepOriginalPositionXZ: 0
    m_HeightFromFeet: 0
    m_Mirror: 0
  m_EditorCurves: []
  m_EulerEditorCurves: []
  m_HasGenericRootTransform: 0
  m_HasMotionFloatCurves: 0
  m_GenerateMotionCurves: 0
  m_Events: []
