%YAML 1.1
%TAG !u! tag:unity3d.com,2011:
--- !u!74 &7400000
AnimationClip:
  m_ObjectHideFlags: 0
  m_PrefabParentObject: {fileID: 0}
  m_PrefabInternal: {fileID: 0}
  m_Name: 05_rightgreen_loop
  serializedVersion: 6
  m_Legacy: 0
  m_Compressed: 0
  m_UseHighQualityCurve: 1
  m_RotationCurves: []
  m_CompressedRotationCurves: []
  m_EulerCurves: []
  m_PositionCurves: []
  m_ScaleCurves: []
  m_FloatCurves: []
  m_PPtrCurves:
  - curve:
    - time: 0
      value: {fileID: 21300000, guid: a12264b0f70b843a2aa6ab62d2b038a4, type: 3}
    - time: 0.125
      value: {fileID: 21300000, guid: 8ed95362086bc4af69e794bac878d83b, type: 3}
    - time: 0.25
      value: {fileID: 21300000, guid: 49c95fa6a704141f8bfea9a3c181336a, type: 3}
    - time: 0.375
      value: {fileID: 21300000, guid: b369deb2fd1444e12abddd0550115d5a, type: 3}
    - time: 0.5
      value: {fileID: 21300000, guid: 2f8a2257da22646bf9644ca0958f60fb, type: 3}
    - time: 0.5833333
      value: {fileID: 21300000, guid: 98798c426ad964cf397eb095dc9d3a0f, type: 3}
    - time: 0.625
      value: {fileID: 21300000, guid: ac4a17a574ca44bfb853555187665420, type: 3}
    attribute: m_Sprite
    path: 
    classID: 212
    script: {fileID: 0}
  m_SampleRate: 24
  m_WrapMode: 0
  m_Bounds:
    m_Center: {x: 0, y: 0, z: 0}
    m_Extent: {x: 0, y: 0, z: 0}
  m_ClipBindingConstant:
    genericBindings:
    - serializedVersion: 2
      path: 0
      attribute: 0
      script: {fileID: 0}
      typeID: 212
      customType: 23
      isPPtrCurve: 1
    pptrCurveMapping:
    - {fileID: 21300000, guid: a12264b0f70b843a2aa6ab62d2b038a4, type: 3}
    - {fileID: 21300000, guid: 8ed95362086bc4af69e794bac878d83b, type: 3}
    - {fileID: 21300000, guid: 49c95fa6a704141f8bfea9a3c181336a, type: 3}
    - {fileID: 21300000, guid: b369deb2fd1444e12abddd0550115d5a, type: 3}
    - {fileID: 21300000, guid: 2f8a2257da22646bf9644ca0958f60fb, type: 3}
    - {fileID: 21300000, guid: 98798c426ad964cf397eb095dc9d3a0f, type: 3}
    - {fileID: 21300000, guid: ac4a17a574ca44bfb853555187665420, type: 3}
  m_AnimationClipSettings:
    serializedVersion: 2
    m_AdditiveReferencePoseClip: {fileID: 0}
    m_AdditiveReferencePoseTime: 0
    m_StartTime: 0
    m_StopTime: 0.6666667
    m_OrientationOffsetY: 0
    m_Level: 0
    m_CycleOffset: 0
    m_HasAdditiveReferencePose: 0
    m_LoopTime: 1
    m_LoopBlend: 0
    m_LoopBlendOrientation: 0
    m_LoopBlendPositionY: 0
    m_LoopBlendPositionXZ: 0
    m_KeepOriginalOrientation: 0
    m_KeepOriginalPositionY: 1
    m_KeepOriginalPositionXZ: 0
    m_HeightFromFeet: 0
    m_Mirror: 0
  m_EditorCurves: []
  m_EulerEditorCurves: []
  m_HasGenericRootTransform: 0
  m_HasMotionFloatCurves: 0
  m_GenerateMotionCurves: 0
  m_Events: []
