%YAML 1.1
%TAG !u! tag:unity3d.com,2011:
--- !u!74 &7400000
AnimationClip:
  m_ObjectHideFlags: 0
  m_PrefabParentObject: {fileID: 0}
  m_PrefabInternal: {fileID: 0}
  m_Name: usagi_way02_03
  serializedVersion: 6
  m_Legacy: 0
  m_Compressed: 0
  m_UseHighQualityCurve: 1
  m_RotationCurves: []
  m_CompressedRotationCurves: []
  m_EulerCurves: []
  m_PositionCurves: []
  m_ScaleCurves: []
  m_FloatCurves: []
  m_PPtrCurves:
  - curve:
    - time: 0
      value: {fileID: 21300000, guid: cf8e41aecfbf944759a3a901bf24b78a, type: 3}
    - time: 0.125
      value: {fileID: 21300000, guid: f06ba8a2f14bd4fa4b591d9293f581c1, type: 3}
    - time: 0.20833333
      value: {fileID: 21300000, guid: af0b17b2f3bf345159c8288147da9452, type: 3}
    - time: 0.625
      value: {fileID: 21300000, guid: ff22f5efafd714a17a1fd872a93a5fe3, type: 3}
    - time: 0.75
      value: {fileID: 21300000, guid: 0f75b642d48d147afb7cda479012bbd4, type: 3}
    - time: 0.875
      value: {fileID: 21300000, guid: d05381359803147098facbb93b2f537a, type: 3}
    - time: 0.9583333
      value: {fileID: 21300000, guid: aefd3538542e847e8ad60fa8d120eb36, type: 3}
    - time: 1.0416666
      value: {fileID: 21300000, guid: 63aa7c3adc4ba4a7aa02adccf90ec13c, type: 3}
    - time: 2.0416667
      value: {fileID: 21300000, guid: 3e3b8f27cc1b04b548795ae302b96a3d, type: 3}
    - time: 2.125
      value: {fileID: 21300000, guid: f803775ca516d4a029a16d5d0bb5552e, type: 3}
    - time: 2.2083333
      value: {fileID: 21300000, guid: 20da5782c53e44ba0bf90091263c4461, type: 3}
    - time: 2.3333333
      value: {fileID: 21300000, guid: d15f97de8483f4ef7a9dc4883f78e3b1, type: 3}
    - time: 2.4583333
      value: {fileID: 21300000, guid: 48e34ddbcf32849a5b0db77d91d038ae, type: 3}
    - time: 2.5833333
      value: {fileID: 21300000, guid: b256d29f341c94773b2179e959b922aa, type: 3}
    - time: 2.6666667
      value: {fileID: 21300000, guid: 3835bc6c624324442accd83e0e540c7d, type: 3}
    - time: 2.75
      value: {fileID: 21300000, guid: 66a0c5999651a4a84b7f97b4188534bb, type: 3}
    - time: 2.8333333
      value: {fileID: 21300000, guid: f1985c7a6c84d439ba241dbc5fe9b9eb, type: 3}
    - time: 3.5
      value: {fileID: 21300000, guid: 834338215f8d446e2846e60df67960af, type: 3}
    - time: 3.625
      value: {fileID: 21300000, guid: b3f42cf477e264bc0a85ea5da630178d, type: 3}
    - time: 3.75
      value: {fileID: 21300000, guid: f912509a1273c4457bc76bfdad462e75, type: 3}
    - time: 3.875
      value: {fileID: 21300000, guid: 4919bfd423e8e4fb786902881073c0f0, type: 3}
    - time: 4
      value: {fileID: 21300000, guid: 46a162d74c213404b951d7178f2d0978, type: 3}
    - time: 4.125
      value: {fileID: 21300000, guid: 16b0bc18198ec4c34a175a8c762bd59f, type: 3}
    - time: 4.2916665
      value: {fileID: 21300000, guid: 9fd5b3f6126274bc1a19db3a71460ce5, type: 3}
    - time: 4.4166665
      value: {fileID: 21300000, guid: 6e8dc2fe70e0d4846a4ae1c8ef16ce09, type: 3}
    - time: 4.5416665
      value: {fileID: 21300000, guid: d783a6b440126407a914e422e1e84ea8, type: 3}
    - time: 4.6666665
      value: {fileID: 21300000, guid: 4b56c82a42b854fd2b2313a551ac5a1b, type: 3}
    - time: 4.7916665
      value: {fileID: 21300000, guid: d9c64ca749f4c48b4a5c0336c557679a, type: 3}
    - time: 4.9583335
      value: {fileID: 21300000, guid: bcd31ca8f488a45ebbc9ce08ef1679cc, type: 3}
    - time: 5.0833335
      value: {fileID: 21300000, guid: 6710e32895cd74f859e280cecae45aa3, type: 3}
    - time: 5.2083335
      value: {fileID: 21300000, guid: f632393f099ef4f56a7b18c5539dee8b, type: 3}
    - time: 5.3333335
      value: {fileID: 21300000, guid: 5190513c4c55a4c85a41378154af6260, type: 3}
    - time: 5.4583335
      value: {fileID: 21300000, guid: 983f16330ef89421f9a427b5d23963c8, type: 3}
    - time: 5.625
      value: {fileID: 21300000, guid: 692acaefd1eb4455ebcd64533916a1f7, type: 3}
    - time: 5.75
      value: {fileID: 21300000, guid: 43c94cfe7dd794de9adc91e7b8f18466, type: 3}
    - time: 5.875
      value: {fileID: 21300000, guid: bc9ba24f93f9143dd9bef0fdcf6ccce7, type: 3}
    - time: 6
      value: {fileID: 21300000, guid: 90c691f64d90b4c429a4dd90d767764e, type: 3}
    - time: 6.125
      value: {fileID: 21300000, guid: 0c75917c1212846d59b0db7a750131c6, type: 3}
    - time: 6.2916665
      value: {fileID: 21300000, guid: 2c1a6108133fb40c782133958b3f2cdf, type: 3}
    - time: 6.4166665
      value: {fileID: 21300000, guid: 2f39e3ae18b1043f6ae29abf9847001d, type: 3}
    - time: 6.5416665
      value: {fileID: 21300000, guid: 1e0eeca70e5a64b4a96af54fa64ecfe3, type: 3}
    - time: 6.6666665
      value: {fileID: 21300000, guid: 93e82dc19b87848b1ade5833aabf06b4, type: 3}
    - time: 6.7916665
      value: {fileID: 21300000, guid: 709444c0faed5472393c6dbf17be7274, type: 3}
    - time: 6.9583335
      value: {fileID: 21300000, guid: 805766357d3434703a635ed6bf69a5a0, type: 3}
    - time: 7.0833335
      value: {fileID: 21300000, guid: 20254f4364b42414592e73bea7ac427c, type: 3}
    - time: 7.2083335
      value: {fileID: 21300000, guid: e7f085c7e0273438e8bcd27aa3f03bce, type: 3}
    - time: 7.3333335
      value: {fileID: 21300000, guid: 4df8048d53df1420799c10fbf0b9ed5c, type: 3}
    - time: 7.4583335
      value: {fileID: 21300000, guid: 4b3edb91c130d435995ef9e17db4938b, type: 3}
    - time: 7.625
      value: {fileID: 21300000, guid: 574e3307e5b624297aab686512160fd1, type: 3}
    - time: 7.75
      value: {fileID: 21300000, guid: 82c25706f08764df9b3c15fa57c6622c, type: 3}
    - time: 7.875
      value: {fileID: 21300000, guid: 05f880ff9682a4a11b0f264f8c6daf76, type: 3}
    - time: 8
      value: {fileID: 21300000, guid: aae72b914fb08447ab58e4c8e3cea82a, type: 3}
    - time: 8.125
      value: {fileID: 21300000, guid: 95d14b7ff7cf8415ebbee469f82f5db4, type: 3}
    - time: 8.291667
      value: {fileID: 21300000, guid: 474b90b348ed14b3aba97c3985a16625, type: 3}
    - time: 8.416667
      value: {fileID: 21300000, guid: b4e6c7b35b4ef41a6a634d43a2ae266b, type: 3}
    - time: 8.541667
      value: {fileID: 21300000, guid: 4953968cec0ff417ebf7031bf901e415, type: 3}
    - time: 8.666667
      value: {fileID: 21300000, guid: b2201c816fc8d4290b46162d858401fd, type: 3}
    - time: 8.791667
      value: {fileID: 21300000, guid: c624e0d4bd687468786f0bfaecafa1eb, type: 3}
    - time: 8.958333
      value: {fileID: 21300000, guid: bed47b2f584d04c1881b020f53e6e47f, type: 3}
    - time: 9.083333
      value: {fileID: 21300000, guid: 23bdfcd61b041459eb010bf95607e5cc, type: 3}
    - time: 9.208333
      value: {fileID: 21300000, guid: e615e4a35761c418ea71ed1cb08ca3d4, type: 3}
    - time: 9.333333
      value: {fileID: 21300000, guid: ed2dd9764d0524165bc4bad91a49cdce, type: 3}
    - time: 9.458333
      value: {fileID: 21300000, guid: 0d37b4e3bd9da454eb938f677eed978a, type: 3}
    - time: 9.625
      value: {fileID: 21300000, guid: 8d6d169307aaa4d0eb6d89cb90c74e9f, type: 3}
    - time: 9.75
      value: {fileID: 21300000, guid: 89d5eeeeead9c4a51a4d4f51bdc1c14a, type: 3}
    - time: 9.875
      value: {fileID: 21300000, guid: 0662ccfd7363d44839862ad5bfdaaf74, type: 3}
    - time: 10
      value: {fileID: 21300000, guid: 6d3f69b17b50847adb25ffcd9169a813, type: 3}
    - time: 10.125
      value: {fileID: 21300000, guid: 471df647f6a9649cc8e90ea7c0a01154, type: 3}
    - time: 10.291667
      value: {fileID: 21300000, guid: fd02d13041f084e8db0f97f74d5e43b0, type: 3}
    - time: 10.416667
      value: {fileID: 21300000, guid: 36d5410d54b024d1b9c613f9a2d5ffad, type: 3}
    - time: 10.541667
      value: {fileID: 21300000, guid: 697471ed00f7c482d8d5b5518e677278, type: 3}
    - time: 10.666667
      value: {fileID: 21300000, guid: 4d97c2f76a3314eab916033928e13195, type: 3}
    - time: 10.791667
      value: {fileID: 21300000, guid: 353312107ed584774b46bffe654eb07a, type: 3}
    - time: 11.041667
      value: {fileID: 21300000, guid: 4eb085a7e36014a79a0ca291fc511480, type: 3}
    - time: 11.125
      value: {fileID: 21300000, guid: 19810610abe3c48fdb29c2a5d4b36d5b, type: 3}
    - time: 11.208333
      value: {fileID: 21300000, guid: d3f7a25de7d9d4ca1b0141cc58625994, type: 3}
    - time: 11.291667
      value: {fileID: 21300000, guid: 3660755991ce64239be6554f1b3d6c9b, type: 3}
    - time: 11.541667
      value: {fileID: 21300000, guid: ba493afa8b5384aacb400ac79d8ec19b, type: 3}
    - time: 11.666667
      value: {fileID: 21300000, guid: 736363361f8c04d29b9e72d8e855c0b0, type: 3}
    - time: 11.791667
      value: {fileID: 21300000, guid: 14da2de810273492ea1012d581d3f2d4, type: 3}
    - time: 11.875
      value: {fileID: 21300000, guid: 8bec19640e3df4518ba3f092cb7b3fea, type: 3}
    - time: 11.958333
      value: {fileID: 21300000, guid: 2e7e495391d5e464ca830f322d6698cc, type: 3}
    - time: 12.041667
      value: {fileID: 21300000, guid: 98d5a299c935e455a9c2d84bd8efc306, type: 3}
    - time: 12.166667
      value: {fileID: 21300000, guid: 706ad1f4630b44fce9fb98fbe6747797, type: 3}
    - time: 12.583333
      value: {fileID: 21300000, guid: d04b70f8944454188a2f132f7d627352, type: 3}
    - time: 12.708333
      value: {fileID: 21300000, guid: 4c000074ad6a64e72a204116956c01f0, type: 3}
    - time: 12.833333
      value: {fileID: 21300000, guid: d3c8b338a853e460cb082de725d0d346, type: 3}
    - time: 12.958333
      value: {fileID: 21300000, guid: fd2ec615638e44bcbb0118a58ffb19db, type: 3}
    - time: 13.083333
      value: {fileID: 21300000, guid: f4fbc4b66a3044f2b9824b68e852f92b, type: 3}
    - time: 13.208333
      value: {fileID: 21300000, guid: af4be69fe607549818b6701d60563c6c, type: 3}
    - time: 13.333333
      value: {fileID: 21300000, guid: 67fc85488eb05470f946fb250ad8f46f, type: 3}
    - time: 13.458333
      value: {fileID: 21300000, guid: c7e9a64191ba6476d8c4c52a2b489a5c, type: 3}
    - time: 14.291667
      value: {fileID: 21300000, guid: daef2c5780c70411f95cbc4c0b3e5d3f, type: 3}
    - time: 14.458333
      value: {fileID: 21300000, guid: 94ba529272368484a8ae04d7f4c70c54, type: 3}
    - time: 14.541667
      value: {fileID: 21300000, guid: 4d178d9daea084bc183ddd6afdd39b30, type: 3}
    - time: 14.625
      value: {fileID: 21300000, guid: 239fe95fdfce144f8854e21b35990f42, type: 3}
    - time: 14.958333
      value: {fileID: 21300000, guid: ad6f43dfcfba047b29cefef2244fc49b, type: 3}
    - time: 15.083333
      value: {fileID: 21300000, guid: b886a30d93da744eca34fb4ab8ebf6c4, type: 3}
    - time: 15.208333
      value: {fileID: 21300000, guid: 8eb9d6846c2444c12b295537a100fff1, type: 3}
    - time: 15.291667
      value: {fileID: 21300000, guid: 526577a30157f43bab8e317e5d822057, type: 3}
    - time: 15.375
      value: {fileID: 21300000, guid: 9f2edb240defc4958b81c5b78ba1a3b8, type: 3}
    - time: 15.458333
      value: {fileID: 21300000, guid: b2a64f741ea4c4be8a1b181a3de22d7b, type: 3}
    - time: 15.541667
      value: {fileID: 21300000, guid: 4f1b7b426eef34780bc70fe4eaa9ddd3, type: 3}
    - time: 15.625
      value: {fileID: 21300000, guid: 79d6eec97af33412db4ee0d7390ac2a2, type: 3}
    - time: 15.916667
      value: {fileID: 21300000, guid: 18faf913691554eeea5fc07e4eaf6861, type: 3}
    attribute: m_Sprite
    path: 
    classID: 212
    script: {fileID: 0}
  m_SampleRate: 24
  m_WrapMode: 0
  m_Bounds:
    m_Center: {x: 0, y: 0, z: 0}
    m_Extent: {x: 0, y: 0, z: 0}
  m_ClipBindingConstant:
    genericBindings:
    - serializedVersion: 2
      path: 0
      attribute: 0
      script: {fileID: 0}
      typeID: 212
      customType: 23
      isPPtrCurve: 1
    pptrCurveMapping:
    - {fileID: 21300000, guid: cf8e41aecfbf944759a3a901bf24b78a, type: 3}
    - {fileID: 21300000, guid: f06ba8a2f14bd4fa4b591d9293f581c1, type: 3}
    - {fileID: 21300000, guid: af0b17b2f3bf345159c8288147da9452, type: 3}
    - {fileID: 21300000, guid: ff22f5efafd714a17a1fd872a93a5fe3, type: 3}
    - {fileID: 21300000, guid: 0f75b642d48d147afb7cda479012bbd4, type: 3}
    - {fileID: 21300000, guid: d05381359803147098facbb93b2f537a, type: 3}
    - {fileID: 21300000, guid: aefd3538542e847e8ad60fa8d120eb36, type: 3}
    - {fileID: 21300000, guid: 63aa7c3adc4ba4a7aa02adccf90ec13c, type: 3}
    - {fileID: 21300000, guid: 3e3b8f27cc1b04b548795ae302b96a3d, type: 3}
    - {fileID: 21300000, guid: f803775ca516d4a029a16d5d0bb5552e, type: 3}
    - {fileID: 21300000, guid: 20da5782c53e44ba0bf90091263c4461, type: 3}
    - {fileID: 21300000, guid: d15f97de8483f4ef7a9dc4883f78e3b1, type: 3}
    - {fileID: 21300000, guid: 48e34ddbcf32849a5b0db77d91d038ae, type: 3}
    - {fileID: 21300000, guid: b256d29f341c94773b2179e959b922aa, type: 3}
    - {fileID: 21300000, guid: 3835bc6c624324442accd83e0e540c7d, type: 3}
    - {fileID: 21300000, guid: 66a0c5999651a4a84b7f97b4188534bb, type: 3}
    - {fileID: 21300000, guid: f1985c7a6c84d439ba241dbc5fe9b9eb, type: 3}
    - {fileID: 21300000, guid: 834338215f8d446e2846e60df67960af, type: 3}
    - {fileID: 21300000, guid: b3f42cf477e264bc0a85ea5da630178d, type: 3}
    - {fileID: 21300000, guid: f912509a1273c4457bc76bfdad462e75, type: 3}
    - {fileID: 21300000, guid: 4919bfd423e8e4fb786902881073c0f0, type: 3}
    - {fileID: 21300000, guid: 46a162d74c213404b951d7178f2d0978, type: 3}
    - {fileID: 21300000, guid: 16b0bc18198ec4c34a175a8c762bd59f, type: 3}
    - {fileID: 21300000, guid: 9fd5b3f6126274bc1a19db3a71460ce5, type: 3}
    - {fileID: 21300000, guid: 6e8dc2fe70e0d4846a4ae1c8ef16ce09, type: 3}
    - {fileID: 21300000, guid: d783a6b440126407a914e422e1e84ea8, type: 3}
    - {fileID: 21300000, guid: 4b56c82a42b854fd2b2313a551ac5a1b, type: 3}
    - {fileID: 21300000, guid: d9c64ca749f4c48b4a5c0336c557679a, type: 3}
    - {fileID: 21300000, guid: bcd31ca8f488a45ebbc9ce08ef1679cc, type: 3}
    - {fileID: 21300000, guid: 6710e32895cd74f859e280cecae45aa3, type: 3}
    - {fileID: 21300000, guid: f632393f099ef4f56a7b18c5539dee8b, type: 3}
    - {fileID: 21300000, guid: 5190513c4c55a4c85a41378154af6260, type: 3}
    - {fileID: 21300000, guid: 983f16330ef89421f9a427b5d23963c8, type: 3}
    - {fileID: 21300000, guid: 692acaefd1eb4455ebcd64533916a1f7, type: 3}
    - {fileID: 21300000, guid: 43c94cfe7dd794de9adc91e7b8f18466, type: 3}
    - {fileID: 21300000, guid: bc9ba24f93f9143dd9bef0fdcf6ccce7, type: 3}
    - {fileID: 21300000, guid: 90c691f64d90b4c429a4dd90d767764e, type: 3}
    - {fileID: 21300000, guid: 0c75917c1212846d59b0db7a750131c6, type: 3}
    - {fileID: 21300000, guid: 2c1a6108133fb40c782133958b3f2cdf, type: 3}
    - {fileID: 21300000, guid: 2f39e3ae18b1043f6ae29abf9847001d, type: 3}
    - {fileID: 21300000, guid: 1e0eeca70e5a64b4a96af54fa64ecfe3, type: 3}
    - {fileID: 21300000, guid: 93e82dc19b87848b1ade5833aabf06b4, type: 3}
    - {fileID: 21300000, guid: 709444c0faed5472393c6dbf17be7274, type: 3}
    - {fileID: 21300000, guid: 805766357d3434703a635ed6bf69a5a0, type: 3}
    - {fileID: 21300000, guid: 20254f4364b42414592e73bea7ac427c, type: 3}
    - {fileID: 21300000, guid: e7f085c7e0273438e8bcd27aa3f03bce, type: 3}
    - {fileID: 21300000, guid: 4df8048d53df1420799c10fbf0b9ed5c, type: 3}
    - {fileID: 21300000, guid: 4b3edb91c130d435995ef9e17db4938b, type: 3}
    - {fileID: 21300000, guid: 574e3307e5b624297aab686512160fd1, type: 3}
    - {fileID: 21300000, guid: 82c25706f08764df9b3c15fa57c6622c, type: 3}
    - {fileID: 21300000, guid: 05f880ff9682a4a11b0f264f8c6daf76, type: 3}
    - {fileID: 21300000, guid: aae72b914fb08447ab58e4c8e3cea82a, type: 3}
    - {fileID: 21300000, guid: 95d14b7ff7cf8415ebbee469f82f5db4, type: 3}
    - {fileID: 21300000, guid: 474b90b348ed14b3aba97c3985a16625, type: 3}
    - {fileID: 21300000, guid: b4e6c7b35b4ef41a6a634d43a2ae266b, type: 3}
    - {fileID: 21300000, guid: 4953968cec0ff417ebf7031bf901e415, type: 3}
    - {fileID: 21300000, guid: b2201c816fc8d4290b46162d858401fd, type: 3}
    - {fileID: 21300000, guid: c624e0d4bd687468786f0bfaecafa1eb, type: 3}
    - {fileID: 21300000, guid: bed47b2f584d04c1881b020f53e6e47f, type: 3}
    - {fileID: 21300000, guid: 23bdfcd61b041459eb010bf95607e5cc, type: 3}
    - {fileID: 21300000, guid: e615e4a35761c418ea71ed1cb08ca3d4, type: 3}
    - {fileID: 21300000, guid: ed2dd9764d0524165bc4bad91a49cdce, type: 3}
    - {fileID: 21300000, guid: 0d37b4e3bd9da454eb938f677eed978a, type: 3}
    - {fileID: 21300000, guid: 8d6d169307aaa4d0eb6d89cb90c74e9f, type: 3}
    - {fileID: 21300000, guid: 89d5eeeeead9c4a51a4d4f51bdc1c14a, type: 3}
    - {fileID: 21300000, guid: 0662ccfd7363d44839862ad5bfdaaf74, type: 3}
    - {fileID: 21300000, guid: 6d3f69b17b50847adb25ffcd9169a813, type: 3}
    - {fileID: 21300000, guid: 471df647f6a9649cc8e90ea7c0a01154, type: 3}
    - {fileID: 21300000, guid: fd02d13041f084e8db0f97f74d5e43b0, type: 3}
    - {fileID: 21300000, guid: 36d5410d54b024d1b9c613f9a2d5ffad, type: 3}
    - {fileID: 21300000, guid: 697471ed00f7c482d8d5b5518e677278, type: 3}
    - {fileID: 21300000, guid: 4d97c2f76a3314eab916033928e13195, type: 3}
    - {fileID: 21300000, guid: 353312107ed584774b46bffe654eb07a, type: 3}
    - {fileID: 21300000, guid: 4eb085a7e36014a79a0ca291fc511480, type: 3}
    - {fileID: 21300000, guid: 19810610abe3c48fdb29c2a5d4b36d5b, type: 3}
    - {fileID: 21300000, guid: d3f7a25de7d9d4ca1b0141cc58625994, type: 3}
    - {fileID: 21300000, guid: 3660755991ce64239be6554f1b3d6c9b, type: 3}
    - {fileID: 21300000, guid: ba493afa8b5384aacb400ac79d8ec19b, type: 3}
    - {fileID: 21300000, guid: 736363361f8c04d29b9e72d8e855c0b0, type: 3}
    - {fileID: 21300000, guid: 14da2de810273492ea1012d581d3f2d4, type: 3}
    - {fileID: 21300000, guid: 8bec19640e3df4518ba3f092cb7b3fea, type: 3}
    - {fileID: 21300000, guid: 2e7e495391d5e464ca830f322d6698cc, type: 3}
    - {fileID: 21300000, guid: 98d5a299c935e455a9c2d84bd8efc306, type: 3}
    - {fileID: 21300000, guid: 706ad1f4630b44fce9fb98fbe6747797, type: 3}
    - {fileID: 21300000, guid: d04b70f8944454188a2f132f7d627352, type: 3}
    - {fileID: 21300000, guid: 4c000074ad6a64e72a204116956c01f0, type: 3}
    - {fileID: 21300000, guid: d3c8b338a853e460cb082de725d0d346, type: 3}
    - {fileID: 21300000, guid: fd2ec615638e44bcbb0118a58ffb19db, type: 3}
    - {fileID: 21300000, guid: f4fbc4b66a3044f2b9824b68e852f92b, type: 3}
    - {fileID: 21300000, guid: af4be69fe607549818b6701d60563c6c, type: 3}
    - {fileID: 21300000, guid: 67fc85488eb05470f946fb250ad8f46f, type: 3}
    - {fileID: 21300000, guid: c7e9a64191ba6476d8c4c52a2b489a5c, type: 3}
    - {fileID: 21300000, guid: daef2c5780c70411f95cbc4c0b3e5d3f, type: 3}
    - {fileID: 21300000, guid: 94ba529272368484a8ae04d7f4c70c54, type: 3}
    - {fileID: 21300000, guid: 4d178d9daea084bc183ddd6afdd39b30, type: 3}
    - {fileID: 21300000, guid: 239fe95fdfce144f8854e21b35990f42, type: 3}
    - {fileID: 21300000, guid: ad6f43dfcfba047b29cefef2244fc49b, type: 3}
    - {fileID: 21300000, guid: b886a30d93da744eca34fb4ab8ebf6c4, type: 3}
    - {fileID: 21300000, guid: 8eb9d6846c2444c12b295537a100fff1, type: 3}
    - {fileID: 21300000, guid: 526577a30157f43bab8e317e5d822057, type: 3}
    - {fileID: 21300000, guid: 9f2edb240defc4958b81c5b78ba1a3b8, type: 3}
    - {fileID: 21300000, guid: b2a64f741ea4c4be8a1b181a3de22d7b, type: 3}
    - {fileID: 21300000, guid: 4f1b7b426eef34780bc70fe4eaa9ddd3, type: 3}
    - {fileID: 21300000, guid: 79d6eec97af33412db4ee0d7390ac2a2, type: 3}
    - {fileID: 21300000, guid: 18faf913691554eeea5fc07e4eaf6861, type: 3}
  m_AnimationClipSettings:
    serializedVersion: 2
    m_AdditiveReferencePoseClip: {fileID: 0}
    m_AdditiveReferencePoseTime: 0
    m_StartTime: 0
    m_StopTime: 15.958334
    m_OrientationOffsetY: 0
    m_Level: 0
    m_CycleOffset: 0
    m_HasAdditiveReferencePose: 0
    m_LoopTime: 0
    m_LoopBlend: 0
    m_LoopBlendOrientation: 0
    m_LoopBlendPositionY: 0
    m_LoopBlendPositionXZ: 0
    m_KeepOriginalOrientation: 0
    m_KeepOriginalPositionY: 1
    m_KeepOriginalPositionXZ: 0
    m_HeightFromFeet: 0
    m_Mirror: 0
  m_EditorCurves: []
  m_EulerEditorCurves: []
  m_HasGenericRootTransform: 0
  m_HasMotionFloatCurves: 0
  m_GenerateMotionCurves: 0
  m_Events:
  - time: 0
    functionName: PlayId
    data: 
    objectReferenceParameter: {fileID: 0}
    floatParameter: 0
    intParameter: 1
    messageOptions: 0
