%YAML 1.1
%TAG !u! tag:unity3d.com,2011:
--- !u!74 &7400000
AnimationClip:
  m_ObjectHideFlags: 0
  m_PrefabParentObject: {fileID: 0}
  m_PrefabInternal: {fileID: 0}
  m_Name: 05_violet_loop
  serializedVersion: 6
  m_Legacy: 0
  m_Compressed: 0
  m_UseHighQualityCurve: 1
  m_RotationCurves: []
  m_CompressedRotationCurves: []
  m_EulerCurves: []
  m_PositionCurves: []
  m_ScaleCurves: []
  m_FloatCurves: []
  m_PPtrCurves:
  - curve:
    - time: 0
      value: {fileID: 21300000, guid: e169a25b246c74840a6d9234dbf6d2a2, type: 3}
    - time: 0.083333336
      value: {fileID: 21300000, guid: c8dbf4dca218f4c8e99aa60cae9870ec, type: 3}
    - time: 0.16666667
      value: {fileID: 21300000, guid: b59b3c30b05fe4844a9701ee58b26a53, type: 3}
    - time: 0.20833333
      value: {fileID: 21300000, guid: 76237b4c8f44c4ef0a7bdc8d3b0e65cf, type: 3}
    - time: 0.33333334
      value: {fileID: 21300000, guid: bb2464269ae4e4ae487621c7c1de2617, type: 3}
    - time: 0.5
      value: {fileID: 21300000, guid: c4adbd4a9ac4a454d8c50c04c1c50e8f, type: 3}
    - time: 0.625
      value: {fileID: 21300000, guid: 43d9cee7614b94f0fa4d78eda5941746, type: 3}
    - time: 0.75
      value: {fileID: 21300000, guid: e169a25b246c74840a6d9234dbf6d2a2, type: 3}
    - time: 0.7916667
      value: {fileID: 21300000, guid: e169a25b246c74840a6d9234dbf6d2a2, type: 3}
    attribute: m_Sprite
    path: 
    classID: 212
    script: {fileID: 0}
  m_SampleRate: 24
  m_WrapMode: 0
  m_Bounds:
    m_Center: {x: 0, y: 0, z: 0}
    m_Extent: {x: 0, y: 0, z: 0}
  m_ClipBindingConstant:
    genericBindings:
    - serializedVersion: 2
      path: 0
      attribute: 0
      script: {fileID: 0}
      typeID: 212
      customType: 23
      isPPtrCurve: 1
    pptrCurveMapping:
    - {fileID: 21300000, guid: e169a25b246c74840a6d9234dbf6d2a2, type: 3}
    - {fileID: 21300000, guid: c8dbf4dca218f4c8e99aa60cae9870ec, type: 3}
    - {fileID: 21300000, guid: b59b3c30b05fe4844a9701ee58b26a53, type: 3}
    - {fileID: 21300000, guid: 76237b4c8f44c4ef0a7bdc8d3b0e65cf, type: 3}
    - {fileID: 21300000, guid: bb2464269ae4e4ae487621c7c1de2617, type: 3}
    - {fileID: 21300000, guid: c4adbd4a9ac4a454d8c50c04c1c50e8f, type: 3}
    - {fileID: 21300000, guid: 43d9cee7614b94f0fa4d78eda5941746, type: 3}
    - {fileID: 21300000, guid: e169a25b246c74840a6d9234dbf6d2a2, type: 3}
    - {fileID: 21300000, guid: e169a25b246c74840a6d9234dbf6d2a2, type: 3}
  m_AnimationClipSettings:
    serializedVersion: 2
    m_AdditiveReferencePoseClip: {fileID: 0}
    m_AdditiveReferencePoseTime: 0
    m_StartTime: 0
    m_StopTime: 0.8333334
    m_OrientationOffsetY: 0
    m_Level: 0
    m_CycleOffset: 0
    m_HasAdditiveReferencePose: 0
    m_LoopTime: 1
    m_LoopBlend: 0
    m_LoopBlendOrientation: 0
    m_LoopBlendPositionY: 0
    m_LoopBlendPositionXZ: 0
    m_KeepOriginalOrientation: 0
    m_KeepOriginalPositionY: 1
    m_KeepOriginalPositionXZ: 0
    m_HeightFromFeet: 0
    m_Mirror: 0
  m_EditorCurves: []
  m_EulerEditorCurves: []
  m_HasGenericRootTransform: 0
  m_HasMotionFloatCurves: 0
  m_GenerateMotionCurves: 0
  m_Events:
  - time: 0
    functionName: Play
    data: 
    objectReferenceParameter: {fileID: 0}
    floatParameter: 0
    intParameter: 0
    messageOptions: 0
