%YAML 1.1
%TAG !u! tag:unity3d.com,2011:
--- !u!74 &7400000
AnimationClip:
  m_ObjectHideFlags: 0
  m_PrefabParentObject: {fileID: 0}
  m_PrefabInternal: {fileID: 0}
  m_Name: m05_tap
  serializedVersion: 6
  m_Legacy: 0
  m_Compressed: 0
  m_UseHighQualityCurve: 1
  m_RotationCurves: []
  m_CompressedRotationCurves: []
  m_EulerCurves: []
  m_PositionCurves: []
  m_ScaleCurves: []
  m_FloatCurves: []
  m_PPtrCurves:
  - curve:
    - time: 0
      value: {fileID: 21300000, guid: ff2e2152fd10741f7975d9393ff6106b, type: 3}
    - time: 0.5
      value: {fileID: 21300000, guid: c4dbf44472f87485696f5020f71df295, type: 3}
    - time: 0.5833333
      value: {fileID: 21300000, guid: e3cbc867141d24c629093e12a9abd3a9, type: 3}
    - time: 0.6666667
      value: {fileID: 21300000, guid: 81725d1703b8b4d00a56a9b68a6133b5, type: 3}
    - time: 0.75
      value: {fileID: 21300000, guid: 717d0f5b11d58452a96d164561fccdb7, type: 3}
    - time: 0.8333333
      value: {fileID: 21300000, guid: c9e461a84310c463e847e6920ba23891, type: 3}
    - time: 0.9166667
      value: {fileID: 21300000, guid: 0789fdbcc175e4c74899a8d8108dbe9a, type: 3}
    - time: 1
      value: {fileID: 21300000, guid: 69320bf602d784008a1e72fae758dd8d, type: 3}
    - time: 1.9583334
      value: {fileID: 21300000, guid: e4b6da3f2b4e24fe38d9e16efeb9367e, type: 3}
    attribute: m_Sprite
    path: 
    classID: 212
    script: {fileID: 0}
  m_SampleRate: 24
  m_WrapMode: 0
  m_Bounds:
    m_Center: {x: 0, y: 0, z: 0}
    m_Extent: {x: 0, y: 0, z: 0}
  m_ClipBindingConstant:
    genericBindings:
    - serializedVersion: 2
      path: 0
      attribute: 0
      script: {fileID: 0}
      typeID: 212
      customType: 23
      isPPtrCurve: 1
    pptrCurveMapping:
    - {fileID: 21300000, guid: ff2e2152fd10741f7975d9393ff6106b, type: 3}
    - {fileID: 21300000, guid: c4dbf44472f87485696f5020f71df295, type: 3}
    - {fileID: 21300000, guid: e3cbc867141d24c629093e12a9abd3a9, type: 3}
    - {fileID: 21300000, guid: 81725d1703b8b4d00a56a9b68a6133b5, type: 3}
    - {fileID: 21300000, guid: 717d0f5b11d58452a96d164561fccdb7, type: 3}
    - {fileID: 21300000, guid: c9e461a84310c463e847e6920ba23891, type: 3}
    - {fileID: 21300000, guid: 0789fdbcc175e4c74899a8d8108dbe9a, type: 3}
    - {fileID: 21300000, guid: 69320bf602d784008a1e72fae758dd8d, type: 3}
    - {fileID: 21300000, guid: e4b6da3f2b4e24fe38d9e16efeb9367e, type: 3}
  m_AnimationClipSettings:
    serializedVersion: 2
    m_AdditiveReferencePoseClip: {fileID: 0}
    m_AdditiveReferencePoseTime: 0
    m_StartTime: 0
    m_StopTime: 2
    m_OrientationOffsetY: 0
    m_Level: 0
    m_CycleOffset: 0
    m_HasAdditiveReferencePose: 0
    m_LoopTime: 0
    m_LoopBlend: 0
    m_LoopBlendOrientation: 0
    m_LoopBlendPositionY: 0
    m_LoopBlendPositionXZ: 0
    m_KeepOriginalOrientation: 0
    m_KeepOriginalPositionY: 1
    m_KeepOriginalPositionXZ: 0
    m_HeightFromFeet: 0
    m_Mirror: 0
  m_EditorCurves: []
  m_EulerEditorCurves: []
  m_HasGenericRootTransform: 0
  m_HasMotionFloatCurves: 0
  m_GenerateMotionCurves: 0
  m_Events:
  - time: 0
    functionName: PlayId
    data: 
    objectReferenceParameter: {fileID: 0}
    floatParameter: 0
    intParameter: 2
    messageOptions: 0
  - time: 0.8333333
    functionName: Warp
    data: 
    objectReferenceParameter: {fileID: 0}
    floatParameter: 0
    intParameter: 0
    messageOptions: 0
