%YAML 1.1
%TAG !u! tag:unity3d.com,2011:
--- !u!74 &7400000
AnimationClip:
  m_ObjectHideFlags: 0
  m_PrefabParentObject: {fileID: 0}
  m_PrefabInternal: {fileID: 0}
  m_Name: 05_guru_06
  serializedVersion: 6
  m_Legacy: 0
  m_Compressed: 0
  m_UseHighQualityCurve: 1
  m_RotationCurves: []
  m_CompressedRotationCurves: []
  m_EulerCurves: []
  m_PositionCurves: []
  m_ScaleCurves: []
  m_FloatCurves: []
  m_PPtrCurves:
  - curve:
    - time: 0
      value: {fileID: 21300000, guid: 67aeaee90a4c14883b901ffc69473798, type: 3}
    - time: 0.083333336
      value: {fileID: 21300000, guid: 550b548b336764ddfb19531f34f08705, type: 3}
    - time: 0.16666667
      value: {fileID: 21300000, guid: cf0e8e817a04f4a3994cd8c962bf6903, type: 3}
    - time: 0.25
      value: {fileID: 21300000, guid: 9f86b1804050d450aabf4470d32a0008, type: 3}
    - time: 0.33333334
      value: {fileID: 21300000, guid: 7f491abf4865a4405b25c51dfb793deb, type: 3}
    - time: 0.41666666
      value: {fileID: 21300000, guid: 57c1806a7bf344c52b1f1cbae4251db5, type: 3}
    - time: 0.5
      value: {fileID: 21300000, guid: 54d9887e1b1974df992bb9b439117cea, type: 3}
    - time: 0.5833333
      value: {fileID: 21300000, guid: dae7ecb7346f848938350f24cc0a54e6, type: 3}
    - time: 0.6666667
      value: {fileID: 21300000, guid: 34cac8221a6464b4f8682febde0f611e, type: 3}
    - time: 0.75
      value: {fileID: 21300000, guid: 6a5c1b80cec3e493084fa156629cafa9, type: 3}
    - time: 0.8333333
      value: {fileID: 21300000, guid: 2384070bc6ddd4b018903229589f81bf, type: 3}
    - time: 0.875
      value: {fileID: 21300000, guid: c50db32ba261d4c1c91b90fdcb8d453e, type: 3}
    attribute: m_Sprite
    path: 
    classID: 212
    script: {fileID: 0}
  m_SampleRate: 24
  m_WrapMode: 0
  m_Bounds:
    m_Center: {x: 0, y: 0, z: 0}
    m_Extent: {x: 0, y: 0, z: 0}
  m_ClipBindingConstant:
    genericBindings:
    - serializedVersion: 2
      path: 0
      attribute: 0
      script: {fileID: 0}
      typeID: 212
      customType: 23
      isPPtrCurve: 1
    pptrCurveMapping:
    - {fileID: 21300000, guid: 67aeaee90a4c14883b901ffc69473798, type: 3}
    - {fileID: 21300000, guid: 550b548b336764ddfb19531f34f08705, type: 3}
    - {fileID: 21300000, guid: cf0e8e817a04f4a3994cd8c962bf6903, type: 3}
    - {fileID: 21300000, guid: 9f86b1804050d450aabf4470d32a0008, type: 3}
    - {fileID: 21300000, guid: 7f491abf4865a4405b25c51dfb793deb, type: 3}
    - {fileID: 21300000, guid: 57c1806a7bf344c52b1f1cbae4251db5, type: 3}
    - {fileID: 21300000, guid: 54d9887e1b1974df992bb9b439117cea, type: 3}
    - {fileID: 21300000, guid: dae7ecb7346f848938350f24cc0a54e6, type: 3}
    - {fileID: 21300000, guid: 34cac8221a6464b4f8682febde0f611e, type: 3}
    - {fileID: 21300000, guid: 6a5c1b80cec3e493084fa156629cafa9, type: 3}
    - {fileID: 21300000, guid: 2384070bc6ddd4b018903229589f81bf, type: 3}
    - {fileID: 21300000, guid: c50db32ba261d4c1c91b90fdcb8d453e, type: 3}
  m_AnimationClipSettings:
    serializedVersion: 2
    m_AdditiveReferencePoseClip: {fileID: 0}
    m_AdditiveReferencePoseTime: 0
    m_StartTime: 0
    m_StopTime: 0.9166667
    m_OrientationOffsetY: 0
    m_Level: 0
    m_CycleOffset: 0
    m_HasAdditiveReferencePose: 0
    m_LoopTime: 1
    m_LoopBlend: 0
    m_LoopBlendOrientation: 0
    m_LoopBlendPositionY: 0
    m_LoopBlendPositionXZ: 0
    m_KeepOriginalOrientation: 0
    m_KeepOriginalPositionY: 1
    m_KeepOriginalPositionXZ: 0
    m_HeightFromFeet: 0
    m_Mirror: 0
  m_EditorCurves: []
  m_EulerEditorCurves: []
  m_HasGenericRootTransform: 0
  m_HasMotionFloatCurves: 0
  m_GenerateMotionCurves: 0
  m_Events: []
