%YAML 1.1
%TAG !u! tag:unity3d.com,2011:
--- !u!74 &7400000
AnimationClip:
  m_ObjectHideFlags: 0
  m_PrefabParentObject: {fileID: 0}
  m_PrefabInternal: {fileID: 0}
  m_Name: m03_stop
  serializedVersion: 6
  m_Legacy: 0
  m_Compressed: 0
  m_UseHighQualityCurve: 1
  m_RotationCurves: []
  m_CompressedRotationCurves: []
  m_EulerCurves: []
  m_PositionCurves: []
  m_ScaleCurves: []
  m_FloatCurves: []
  m_PPtrCurves:
  - curve:
    - time: 0
      value: {fileID: 21300000, guid: c5b3639ade9ca4a2abc44d18142c2014, type: 3}
    - time: 1.1666666
      value: {fileID: 21300000, guid: 98539cb902f8348af9f69a59fdcb342f, type: 3}
    - time: 1.25
      value: {fileID: 21300000, guid: acc6b18d88b044656824b609da32d603, type: 3}
    - time: 1.3333334
      value: {fileID: 21300000, guid: 99caadabc2a1a4cc48a57ad9467adf5d, type: 3}
    - time: 1.4166666
      value: {fileID: 21300000, guid: efea2f00363594e47ac0c42faea54c4b, type: 3}
    - time: 1.5416666
      value: {fileID: 21300000, guid: 4b7f3dd6d8abc49a6a832cf58e1db755, type: 3}
    - time: 1.6666666
      value: {fileID: 21300000, guid: 86fe4b0c1bdc44c3c83450e9800d6662, type: 3}
    - time: 1.75
      value: {fileID: 21300000, guid: 1f955ddf988f64e4cb5da8f5857b3b48, type: 3}
    - time: 1.7916666
      value: {fileID: 21300000, guid: 1190979284e6a4bd9a9741565689a405, type: 3}
    - time: 1.8333334
      value: {fileID: 21300000, guid: 8b501e0a0063141fc8fb90e4a70efb75, type: 3}
    - time: 1.875
      value: {fileID: 21300000, guid: ce63f576708934f5395d835c512a615e, type: 3}
    - time: 1.9166666
      value: {fileID: 21300000, guid: 9c7a5ea8059e6412582a66694d9af6af, type: 3}
    - time: 1.9583334
      value: {fileID: 21300000, guid: 0ca6519fc53d649c3971a8228d49e6f4, type: 3}
    - time: 2
      value: {fileID: 21300000, guid: f159befa315104b90bf34b969299a063, type: 3}
    - time: 2.0416667
      value: {fileID: 21300000, guid: 0be9cc3e1a1d24964a6cfd9234e8715b, type: 3}
    - time: 2.0833333
      value: {fileID: 21300000, guid: e854e837cc999475ea14663d5bb16b07, type: 3}
    - time: 2.125
      value: {fileID: 21300000, guid: 81b6b3e1202774984bf1adfd050b588b, type: 3}
    - time: 2.25
      value: {fileID: 21300000, guid: ccd68bb6e2f41456db6d9c9309ee14df, type: 3}
    - time: 2.3333333
      value: {fileID: 21300000, guid: 666d0b0d6712e44f3a2ecfc6c8578c50, type: 3}
    - time: 2.5833333
      value: {fileID: 21300000, guid: 6502684d97cee43d3abc240a1f942c23, type: 3}
    - time: 2.6666667
      value: {fileID: 21300000, guid: 5119a639dc9a84614bacae62a8773db1, type: 3}
    - time: 2.75
      value: {fileID: 21300000, guid: d0ec073bed49a4c7b9c265216f0f455f, type: 3}
    - time: 2.8333333
      value: {fileID: 21300000, guid: e73e491b6923c403ab1b1807f68ed2b8, type: 3}
    - time: 2.9166667
      value: {fileID: 21300000, guid: 7442ef8f580e341fb837911346e6f29f, type: 3}
    - time: 3
      value: {fileID: 21300000, guid: 7b1c0fb1cb091431fae236b85941918e, type: 3}
    - time: 3.0833333
      value: {fileID: 21300000, guid: f95ebe9ef8a024eacabea83cf207efd5, type: 3}
    - time: 3.1666667
      value: {fileID: 21300000, guid: afc3e61a897214497a0d36e217b1197f, type: 3}
    - time: 3.375
      value: {fileID: 21300000, guid: 25bd654fb410545b6a077ce2f5d5128e, type: 3}
    attribute: m_Sprite
    path: 
    classID: 212
    script: {fileID: 0}
  m_SampleRate: 24
  m_WrapMode: 0
  m_Bounds:
    m_Center: {x: 0, y: 0, z: 0}
    m_Extent: {x: 0, y: 0, z: 0}
  m_ClipBindingConstant:
    genericBindings:
    - serializedVersion: 2
      path: 0
      attribute: 0
      script: {fileID: 0}
      typeID: 212
      customType: 23
      isPPtrCurve: 1
    pptrCurveMapping:
    - {fileID: 21300000, guid: c5b3639ade9ca4a2abc44d18142c2014, type: 3}
    - {fileID: 21300000, guid: 98539cb902f8348af9f69a59fdcb342f, type: 3}
    - {fileID: 21300000, guid: acc6b18d88b044656824b609da32d603, type: 3}
    - {fileID: 21300000, guid: 99caadabc2a1a4cc48a57ad9467adf5d, type: 3}
    - {fileID: 21300000, guid: efea2f00363594e47ac0c42faea54c4b, type: 3}
    - {fileID: 21300000, guid: 4b7f3dd6d8abc49a6a832cf58e1db755, type: 3}
    - {fileID: 21300000, guid: 86fe4b0c1bdc44c3c83450e9800d6662, type: 3}
    - {fileID: 21300000, guid: 1f955ddf988f64e4cb5da8f5857b3b48, type: 3}
    - {fileID: 21300000, guid: 1190979284e6a4bd9a9741565689a405, type: 3}
    - {fileID: 21300000, guid: 8b501e0a0063141fc8fb90e4a70efb75, type: 3}
    - {fileID: 21300000, guid: ce63f576708934f5395d835c512a615e, type: 3}
    - {fileID: 21300000, guid: 9c7a5ea8059e6412582a66694d9af6af, type: 3}
    - {fileID: 21300000, guid: 0ca6519fc53d649c3971a8228d49e6f4, type: 3}
    - {fileID: 21300000, guid: f159befa315104b90bf34b969299a063, type: 3}
    - {fileID: 21300000, guid: 0be9cc3e1a1d24964a6cfd9234e8715b, type: 3}
    - {fileID: 21300000, guid: e854e837cc999475ea14663d5bb16b07, type: 3}
    - {fileID: 21300000, guid: 81b6b3e1202774984bf1adfd050b588b, type: 3}
    - {fileID: 21300000, guid: ccd68bb6e2f41456db6d9c9309ee14df, type: 3}
    - {fileID: 21300000, guid: 666d0b0d6712e44f3a2ecfc6c8578c50, type: 3}
    - {fileID: 21300000, guid: 6502684d97cee43d3abc240a1f942c23, type: 3}
    - {fileID: 21300000, guid: 5119a639dc9a84614bacae62a8773db1, type: 3}
    - {fileID: 21300000, guid: d0ec073bed49a4c7b9c265216f0f455f, type: 3}
    - {fileID: 21300000, guid: e73e491b6923c403ab1b1807f68ed2b8, type: 3}
    - {fileID: 21300000, guid: 7442ef8f580e341fb837911346e6f29f, type: 3}
    - {fileID: 21300000, guid: 7b1c0fb1cb091431fae236b85941918e, type: 3}
    - {fileID: 21300000, guid: f95ebe9ef8a024eacabea83cf207efd5, type: 3}
    - {fileID: 21300000, guid: afc3e61a897214497a0d36e217b1197f, type: 3}
    - {fileID: 21300000, guid: 25bd654fb410545b6a077ce2f5d5128e, type: 3}
  m_AnimationClipSettings:
    serializedVersion: 2
    m_AdditiveReferencePoseClip: {fileID: 0}
    m_AdditiveReferencePoseTime: 0
    m_StartTime: 0
    m_StopTime: 3.4166667
    m_OrientationOffsetY: 0
    m_Level: 0
    m_CycleOffset: 0
    m_HasAdditiveReferencePose: 0
    m_LoopTime: 0
    m_LoopBlend: 0
    m_LoopBlendOrientation: 0
    m_LoopBlendPositionY: 0
    m_LoopBlendPositionXZ: 0
    m_KeepOriginalOrientation: 0
    m_KeepOriginalPositionY: 1
    m_KeepOriginalPositionXZ: 0
    m_HeightFromFeet: 0
    m_Mirror: 0
  m_EditorCurves: []
  m_EulerEditorCurves: []
  m_HasGenericRootTransform: 0
  m_HasMotionFloatCurves: 0
  m_GenerateMotionCurves: 0
  m_Events:
  - time: 0
    functionName: Play
    data: 
    objectReferenceParameter: {fileID: 0}
    floatParameter: 0
    intParameter: 0
    messageOptions: 0
  - time: 3.375
    functionName: AfterSpore
    data: 
    objectReferenceParameter: {fileID: 0}
    floatParameter: 0
    intParameter: 0
    messageOptions: 0
