%YAML 1.1
%TAG !u! tag:unity3d.com,2011:
--- !u!74 &7400000
AnimationClip:
  m_ObjectHideFlags: 0
  m_PrefabParentObject: {fileID: 0}
  m_PrefabInternal: {fileID: 0}
  m_Name: m01_way
  serializedVersion: 6
  m_Legacy: 0
  m_Compressed: 0
  m_UseHighQualityCurve: 1
  m_RotationCurves: []
  m_CompressedRotationCurves: []
  m_EulerCurves: []
  m_PositionCurves: []
  m_ScaleCurves: []
  m_FloatCurves: []
  m_PPtrCurves:
  - curve:
    - time: 0
      value: {fileID: 21300000, guid: e6fbc2bcf396744d8860e6c195994b7e, type: 3}
    - time: 0.5833333
      value: {fileID: 21300000, guid: e3f14c37dfdad4c07896fa1f97c0a997, type: 3}
    - time: 0.6666667
      value: {fileID: 21300000, guid: 5716d12e80d5e4ca08eac25f0ff52142, type: 3}
    - time: 0.75
      value: {fileID: 21300000, guid: 2cf69063afc064ef28731ee78ad2f3ef, type: 3}
    - time: 0.8333333
      value: {fileID: 21300000, guid: c24a07fa5b1a540edb4608bf38743ddb, type: 3}
    - time: 0.9166667
      value: {fileID: 21300000, guid: cf8812b1c4bc848f5a5bbf3c772b9050, type: 3}
    - time: 1.0416666
      value: {fileID: 21300000, guid: 6da4c66b917da49009977127f994f467, type: 3}
    - time: 1.1666666
      value: {fileID: 21300000, guid: 267360e237de94abb9d53d4e46bd9094, type: 3}
    - time: 1.25
      value: {fileID: 21300000, guid: 6285098eaeff34a069e75b0b711fb141, type: 3}
    - time: 1.3333334
      value: {fileID: 21300000, guid: 31ca2cb6961d14e0ab32beb3026bc497, type: 3}
    - time: 1.4166666
      value: {fileID: 21300000, guid: 24bff19ac6512450aa8d25a75e4c260b, type: 3}
    - time: 1.4583334
      value: {fileID: 21300000, guid: 265826babc451444e88b98238c2d9f3e, type: 3}
    - time: 1.5
      value: {fileID: 21300000, guid: bd72e9ec789b647c5968ac86fe7ab5ab, type: 3}
    - time: 1.5416666
      value: {fileID: 21300000, guid: 48b886e49ebdf4c5a81de10835849eb4, type: 3}
    - time: 1.5833334
      value: {fileID: 21300000, guid: 1e7b8ea4cba814ef6af5f624f36492d6, type: 3}
    - time: 1.625
      value: {fileID: 21300000, guid: 94548b5ff13a54411801551d286d559b, type: 3}
    - time: 1.6666666
      value: {fileID: 21300000, guid: a131426d917a7491697b14ed95a3cbb3, type: 3}
    - time: 1.7083334
      value: {fileID: 21300000, guid: 736394b66aac14c428e7b2f1b3177ae4, type: 3}
    - time: 1.75
      value: {fileID: 21300000, guid: afc7fb7d2edde4020ac5ed873e3f2a16, type: 3}
    - time: 1.7916666
      value: {fileID: 21300000, guid: 9bb62338c6f204a9bab183342e6ab7af, type: 3}
    - time: 1.8333334
      value: {fileID: 21300000, guid: 88e11593b20b345b0a0c68d70c2c1ff6, type: 3}
    - time: 1.875
      value: {fileID: 21300000, guid: 8531fb5d735194302a33146ed634c663, type: 3}
    - time: 1.9166666
      value: {fileID: 21300000, guid: 346042aef4d3d4cb98b4dbea60cbd8ff, type: 3}
    - time: 1.9583334
      value: {fileID: 21300000, guid: d7ab1350007f14217a3b231b36fb27e1, type: 3}
    - time: 2
      value: {fileID: 21300000, guid: fbba0293247a34c21a7e185548d1dcd4, type: 3}
    - time: 2.0416667
      value: {fileID: 21300000, guid: f455efdc030214a71aa8f2cb82a601e5, type: 3}
    - time: 2.0833333
      value: {fileID: 21300000, guid: 61cc888faa53b40c48a28752cb99c830, type: 3}
    - time: 2.125
      value: {fileID: 21300000, guid: c2196a64e2bd94a7ea85672102a897ed, type: 3}
    - time: 2.1666667
      value: {fileID: 21300000, guid: 4a0294f99cd004425aebd5ef20ba196e, type: 3}
    - time: 2.2083333
      value: {fileID: 21300000, guid: f25b40b733e6e4fdaaa9ec031e18693b, type: 3}
    - time: 2.25
      value: {fileID: 21300000, guid: 4a3adf82886a04847865bd7c4712e5d7, type: 3}
    - time: 2.3333333
      value: {fileID: 21300000, guid: 5c5d04a90f7ba469ab46de45af78e299, type: 3}
    - time: 2.4166667
      value: {fileID: 21300000, guid: 6406b37dd33fb4916b94e622187819cc, type: 3}
    - time: 2.5
      value: {fileID: 21300000, guid: c0fbbb2b21f044e778c060139cf60a43, type: 3}
    - time: 2.5833333
      value: {fileID: 21300000, guid: 2d89dabf1e99b48abab24b7bd076a7f4, type: 3}
    - time: 3.5416667
      value: {fileID: 21300000, guid: 76c38135af077412b932a0346331fe00, type: 3}
    attribute: m_Sprite
    path: 
    classID: 212
    script: {fileID: 0}
  m_SampleRate: 24
  m_WrapMode: 0
  m_Bounds:
    m_Center: {x: 0, y: 0, z: 0}
    m_Extent: {x: 0, y: 0, z: 0}
  m_ClipBindingConstant:
    genericBindings:
    - serializedVersion: 2
      path: 0
      attribute: 0
      script: {fileID: 0}
      typeID: 212
      customType: 23
      isPPtrCurve: 1
    pptrCurveMapping:
    - {fileID: 21300000, guid: e6fbc2bcf396744d8860e6c195994b7e, type: 3}
    - {fileID: 21300000, guid: e3f14c37dfdad4c07896fa1f97c0a997, type: 3}
    - {fileID: 21300000, guid: 5716d12e80d5e4ca08eac25f0ff52142, type: 3}
    - {fileID: 21300000, guid: 2cf69063afc064ef28731ee78ad2f3ef, type: 3}
    - {fileID: 21300000, guid: c24a07fa5b1a540edb4608bf38743ddb, type: 3}
    - {fileID: 21300000, guid: cf8812b1c4bc848f5a5bbf3c772b9050, type: 3}
    - {fileID: 21300000, guid: 6da4c66b917da49009977127f994f467, type: 3}
    - {fileID: 21300000, guid: 267360e237de94abb9d53d4e46bd9094, type: 3}
    - {fileID: 21300000, guid: 6285098eaeff34a069e75b0b711fb141, type: 3}
    - {fileID: 21300000, guid: 31ca2cb6961d14e0ab32beb3026bc497, type: 3}
    - {fileID: 21300000, guid: 24bff19ac6512450aa8d25a75e4c260b, type: 3}
    - {fileID: 21300000, guid: 265826babc451444e88b98238c2d9f3e, type: 3}
    - {fileID: 21300000, guid: bd72e9ec789b647c5968ac86fe7ab5ab, type: 3}
    - {fileID: 21300000, guid: 48b886e49ebdf4c5a81de10835849eb4, type: 3}
    - {fileID: 21300000, guid: 1e7b8ea4cba814ef6af5f624f36492d6, type: 3}
    - {fileID: 21300000, guid: 94548b5ff13a54411801551d286d559b, type: 3}
    - {fileID: 21300000, guid: a131426d917a7491697b14ed95a3cbb3, type: 3}
    - {fileID: 21300000, guid: 736394b66aac14c428e7b2f1b3177ae4, type: 3}
    - {fileID: 21300000, guid: afc7fb7d2edde4020ac5ed873e3f2a16, type: 3}
    - {fileID: 21300000, guid: 9bb62338c6f204a9bab183342e6ab7af, type: 3}
    - {fileID: 21300000, guid: 88e11593b20b345b0a0c68d70c2c1ff6, type: 3}
    - {fileID: 21300000, guid: 8531fb5d735194302a33146ed634c663, type: 3}
    - {fileID: 21300000, guid: 346042aef4d3d4cb98b4dbea60cbd8ff, type: 3}
    - {fileID: 21300000, guid: d7ab1350007f14217a3b231b36fb27e1, type: 3}
    - {fileID: 21300000, guid: fbba0293247a34c21a7e185548d1dcd4, type: 3}
    - {fileID: 21300000, guid: f455efdc030214a71aa8f2cb82a601e5, type: 3}
    - {fileID: 21300000, guid: 61cc888faa53b40c48a28752cb99c830, type: 3}
    - {fileID: 21300000, guid: c2196a64e2bd94a7ea85672102a897ed, type: 3}
    - {fileID: 21300000, guid: 4a0294f99cd004425aebd5ef20ba196e, type: 3}
    - {fileID: 21300000, guid: f25b40b733e6e4fdaaa9ec031e18693b, type: 3}
    - {fileID: 21300000, guid: 4a3adf82886a04847865bd7c4712e5d7, type: 3}
    - {fileID: 21300000, guid: 5c5d04a90f7ba469ab46de45af78e299, type: 3}
    - {fileID: 21300000, guid: 6406b37dd33fb4916b94e622187819cc, type: 3}
    - {fileID: 21300000, guid: c0fbbb2b21f044e778c060139cf60a43, type: 3}
    - {fileID: 21300000, guid: 2d89dabf1e99b48abab24b7bd076a7f4, type: 3}
    - {fileID: 21300000, guid: 76c38135af077412b932a0346331fe00, type: 3}
  m_AnimationClipSettings:
    serializedVersion: 2
    m_AdditiveReferencePoseClip: {fileID: 0}
    m_AdditiveReferencePoseTime: 0
    m_StartTime: 0
    m_StopTime: 3.5833335
    m_OrientationOffsetY: 0
    m_Level: 0
    m_CycleOffset: 0
    m_HasAdditiveReferencePose: 0
    m_LoopTime: 0
    m_LoopBlend: 0
    m_LoopBlendOrientation: 0
    m_LoopBlendPositionY: 0
    m_LoopBlendPositionXZ: 0
    m_KeepOriginalOrientation: 0
    m_KeepOriginalPositionY: 1
    m_KeepOriginalPositionXZ: 0
    m_HeightFromFeet: 0
    m_Mirror: 0
  m_EditorCurves: []
  m_EulerEditorCurves: []
  m_HasGenericRootTransform: 0
  m_HasMotionFloatCurves: 0
  m_GenerateMotionCurves: 0
  m_Events:
  - time: 0
    functionName: Play
    data: 
    objectReferenceParameter: {fileID: 0}
    floatParameter: 0
    intParameter: 0
    messageOptions: 0
  - time: 2.5833333
    functionName: AfterSpore
    data: 
    objectReferenceParameter: {fileID: 0}
    floatParameter: 0
    intParameter: 0
    messageOptions: 0
