%YAML 1.1
%TAG !u! tag:unity3d.com,2011:
--- !u!74 &7400000
AnimationClip:
  m_ObjectHideFlags: 0
  m_PrefabParentObject: {fileID: 0}
  m_PrefabInternal: {fileID: 0}
  m_Name: 05_guru_01
  serializedVersion: 6
  m_Legacy: 0
  m_Compressed: 0
  m_UseHighQualityCurve: 1
  m_RotationCurves: []
  m_CompressedRotationCurves: []
  m_EulerCurves: []
  m_PositionCurves: []
  m_ScaleCurves: []
  m_FloatCurves: []
  m_PPtrCurves:
  - curve:
    - time: 0
      value: {fileID: 21300000, guid: fc7054525dab14396968947e5ff84e8e, type: 3}
    - time: 0.083333336
      value: {fileID: 21300000, guid: 6a9a7091b8b59430b9be9828b8d7da5a, type: 3}
    - time: 0.16666667
      value: {fileID: 21300000, guid: ffe95a1d6cf2e4058aadde0b9a60a13c, type: 3}
    - time: 0.25
      value: {fileID: 21300000, guid: c64aefdb689b34165a3cbc3f7983c56c, type: 3}
    - time: 0.33333334
      value: {fileID: 21300000, guid: 9c48a36b54b6c404cbedf68b09f6afd4, type: 3}
    - time: 0.375
      value: {fileID: 21300000, guid: b00698e4d8cfd49b78ccc54d468e71f3, type: 3}
    attribute: m_Sprite
    path: 
    classID: 212
    script: {fileID: 0}
  m_SampleRate: 24
  m_WrapMode: 0
  m_Bounds:
    m_Center: {x: 0, y: 0, z: 0}
    m_Extent: {x: 0, y: 0, z: 0}
  m_ClipBindingConstant:
    genericBindings:
    - serializedVersion: 2
      path: 0
      attribute: 0
      script: {fileID: 0}
      typeID: 212
      customType: 23
      isPPtrCurve: 1
    pptrCurveMapping:
    - {fileID: 21300000, guid: fc7054525dab14396968947e5ff84e8e, type: 3}
    - {fileID: 21300000, guid: 6a9a7091b8b59430b9be9828b8d7da5a, type: 3}
    - {fileID: 21300000, guid: ffe95a1d6cf2e4058aadde0b9a60a13c, type: 3}
    - {fileID: 21300000, guid: c64aefdb689b34165a3cbc3f7983c56c, type: 3}
    - {fileID: 21300000, guid: 9c48a36b54b6c404cbedf68b09f6afd4, type: 3}
    - {fileID: 21300000, guid: b00698e4d8cfd49b78ccc54d468e71f3, type: 3}
  m_AnimationClipSettings:
    serializedVersion: 2
    m_AdditiveReferencePoseClip: {fileID: 0}
    m_AdditiveReferencePoseTime: 0
    m_StartTime: 0
    m_StopTime: 0.41666666
    m_OrientationOffsetY: 0
    m_Level: 0
    m_CycleOffset: 0
    m_HasAdditiveReferencePose: 0
    m_LoopTime: 1
    m_LoopBlend: 0
    m_LoopBlendOrientation: 0
    m_LoopBlendPositionY: 0
    m_LoopBlendPositionXZ: 0
    m_KeepOriginalOrientation: 0
    m_KeepOriginalPositionY: 1
    m_KeepOriginalPositionXZ: 0
    m_HeightFromFeet: 0
    m_Mirror: 0
  m_EditorCurves: []
  m_EulerEditorCurves: []
  m_HasGenericRootTransform: 0
  m_HasMotionFloatCurves: 0
  m_GenerateMotionCurves: 0
  m_Events: []
