%YAML 1.1
%TAG !u! tag:unity3d.com,2011:
--- !u!74 &7400000
AnimationClip:
  m_ObjectHideFlags: 0
  m_PrefabParentObject: {fileID: 0}
  m_PrefabInternal: {fileID: 0}
  m_Name: m05_handoff
  serializedVersion: 6
  m_Legacy: 0
  m_Compressed: 0
  m_UseHighQualityCurve: 1
  m_RotationCurves: []
  m_CompressedRotationCurves: []
  m_EulerCurves: []
  m_PositionCurves: []
  m_ScaleCurves: []
  m_FloatCurves: []
  m_PPtrCurves:
  - curve:
    - time: 0
      value: {fileID: 21300000, guid: a8d3af6c696744160aae4f3a64e1e0ad, type: 3}
    - time: 0.125
      value: {fileID: 21300000, guid: 5f8d68f73ea7a4bc082eec426b69c765, type: 3}
    - time: 0.20833333
      value: {fileID: 21300000, guid: e07c1c6a2036c4feca2103e23fb46f75, type: 3}
    - time: 0.25
      value: {fileID: 21300000, guid: b00774a61729c43f5a25660e7197b959, type: 3}
    - time: 0.29166666
      value: {fileID: 21300000, guid: 9c94b4def4be649619625c00a5256e2b, type: 3}
    - time: 0.33333334
      value: {fileID: 21300000, guid: 2aa167ddb00984659b1086f598c4bb2b, type: 3}
    - time: 0.375
      value: {fileID: 21300000, guid: 17b315dfd668641df8491ed8b46314ee, type: 3}
    - time: 0.41666666
      value: {fileID: 21300000, guid: f1ba1f36016964231b30285297faa3f3, type: 3}
    - time: 0.45833334
      value: {fileID: 21300000, guid: d01ab091ecd4949398ee4dcddab54da7, type: 3}
    - time: 0.5
      value: {fileID: 21300000, guid: 34d2c26982a7f43abadfc4e78241363c, type: 3}
    - time: 0.5416667
      value: {fileID: 21300000, guid: c4c206f44db7849c382eb91d88c575ea, type: 3}
    - time: 0.5833333
      value: {fileID: 21300000, guid: 4d47866af110e4f0cb5e4bb249e27262, type: 3}
    - time: 0.625
      value: {fileID: 21300000, guid: 731c38c2fa71c4ac8a9bdb3d200cf251, type: 3}
    - time: 0.6666667
      value: {fileID: 21300000, guid: c7a94adb1a9e54cb1bd8db97a9b0760e, type: 3}
    - time: 0.7083333
      value: {fileID: 21300000, guid: c611881b9225a4d75aa61437cf64867b, type: 3}
    - time: 0.75
      value: {fileID: 21300000, guid: 0b831da2179d74c3da151e9f1a6804f5, type: 3}
    - time: 0.8333333
      value: {fileID: 21300000, guid: c7135aa669f644da4b51b1d368577591, type: 3}
    - time: 6.4583335
      value: {fileID: 21300000, guid: 984d2b4335cef45e4a7f30f8b6eca154, type: 3}
    attribute: m_Sprite
    path: 
    classID: 212
    script: {fileID: 0}
  m_SampleRate: 24
  m_WrapMode: 0
  m_Bounds:
    m_Center: {x: 0, y: 0, z: 0}
    m_Extent: {x: 0, y: 0, z: 0}
  m_ClipBindingConstant:
    genericBindings:
    - serializedVersion: 2
      path: 0
      attribute: 0
      script: {fileID: 0}
      typeID: 212
      customType: 23
      isPPtrCurve: 1
    pptrCurveMapping:
    - {fileID: 21300000, guid: a8d3af6c696744160aae4f3a64e1e0ad, type: 3}
    - {fileID: 21300000, guid: 5f8d68f73ea7a4bc082eec426b69c765, type: 3}
    - {fileID: 21300000, guid: e07c1c6a2036c4feca2103e23fb46f75, type: 3}
    - {fileID: 21300000, guid: b00774a61729c43f5a25660e7197b959, type: 3}
    - {fileID: 21300000, guid: 9c94b4def4be649619625c00a5256e2b, type: 3}
    - {fileID: 21300000, guid: 2aa167ddb00984659b1086f598c4bb2b, type: 3}
    - {fileID: 21300000, guid: 17b315dfd668641df8491ed8b46314ee, type: 3}
    - {fileID: 21300000, guid: f1ba1f36016964231b30285297faa3f3, type: 3}
    - {fileID: 21300000, guid: d01ab091ecd4949398ee4dcddab54da7, type: 3}
    - {fileID: 21300000, guid: 34d2c26982a7f43abadfc4e78241363c, type: 3}
    - {fileID: 21300000, guid: c4c206f44db7849c382eb91d88c575ea, type: 3}
    - {fileID: 21300000, guid: 4d47866af110e4f0cb5e4bb249e27262, type: 3}
    - {fileID: 21300000, guid: 731c38c2fa71c4ac8a9bdb3d200cf251, type: 3}
    - {fileID: 21300000, guid: c7a94adb1a9e54cb1bd8db97a9b0760e, type: 3}
    - {fileID: 21300000, guid: c611881b9225a4d75aa61437cf64867b, type: 3}
    - {fileID: 21300000, guid: 0b831da2179d74c3da151e9f1a6804f5, type: 3}
    - {fileID: 21300000, guid: c7135aa669f644da4b51b1d368577591, type: 3}
    - {fileID: 21300000, guid: 984d2b4335cef45e4a7f30f8b6eca154, type: 3}
  m_AnimationClipSettings:
    serializedVersion: 2
    m_AdditiveReferencePoseClip: {fileID: 0}
    m_AdditiveReferencePoseTime: 0
    m_StartTime: 0
    m_StopTime: 6.5
    m_OrientationOffsetY: 0
    m_Level: 0
    m_CycleOffset: 0
    m_HasAdditiveReferencePose: 0
    m_LoopTime: 0
    m_LoopBlend: 0
    m_LoopBlendOrientation: 0
    m_LoopBlendPositionY: 0
    m_LoopBlendPositionXZ: 0
    m_KeepOriginalOrientation: 0
    m_KeepOriginalPositionY: 1
    m_KeepOriginalPositionXZ: 0
    m_HeightFromFeet: 0
    m_Mirror: 0
  m_EditorCurves: []
  m_EulerEditorCurves: []
  m_HasGenericRootTransform: 0
  m_HasMotionFloatCurves: 0
  m_GenerateMotionCurves: 0
  m_Events:
  - time: 0
    functionName: PlayId
    data: 
    objectReferenceParameter: {fileID: 0}
    floatParameter: 0
    intParameter: 0
    messageOptions: 0
