%YAML 1.1
%TAG !u! tag:unity3d.com,2011:
--- !u!74 &7400000
AnimationClip:
  m_ObjectHideFlags: 0
  m_PrefabParentObject: {fileID: 0}
  m_PrefabInternal: {fileID: 0}
  m_Name: 05_bluereal_wayout
  serializedVersion: 6
  m_Legacy: 0
  m_Compressed: 0
  m_UseHighQualityCurve: 1
  m_RotationCurves: []
  m_CompressedRotationCurves: []
  m_EulerCurves: []
  m_PositionCurves: []
  m_ScaleCurves: []
  m_FloatCurves: []
  m_PPtrCurves:
  - curve:
    - time: 0
      value: {fileID: 0}
    - time: 1
      value: {fileID: 21300000, guid: 68b3e3b24d6bc4d4195c8f7cb5509f5c, type: 3}
    - time: 1.0833334
      value: {fileID: 21300000, guid: ea68bb456da914ea796ab99fc1d34e9f, type: 3}
    - time: 1.2083334
      value: {fileID: 21300000, guid: 5b50bf82da6be4047a6befd253fe3ae6, type: 3}
    - time: 1.25
      value: {fileID: 21300000, guid: e7147c42ee6804fe7a4c4a53f0372bef, type: 3}
    - time: 1.2916666
      value: {fileID: 21300000, guid: e289655b63a5c41ca972f15aac1a8497, type: 3}
    - time: 1.375
      value: {fileID: 21300000, guid: 934d0f56a86c846c0a577fbeb80c2c20, type: 3}
    - time: 1.4166666
      value: {fileID: 21300000, guid: bfed9df7314214f718a5c9badb1f4317, type: 3}
    - time: 1.4583334
      value: {fileID: 21300000, guid: 02a6e4d9beb974473842cf5f917ef33c, type: 3}
    - time: 1.5
      value: {fileID: 21300000, guid: a4b03e722b1bb4451b04908471d7a144, type: 3}
    - time: 1.5833334
      value: {fileID: 21300000, guid: 94bfd0ef59dec465a9f34dba1c8fa015, type: 3}
    - time: 1.6666666
      value: {fileID: 21300000, guid: 60411d6c55d914c14904b1a863c663cc, type: 3}
    - time: 1.75
      value: {fileID: 21300000, guid: 6e08e36fc41bb43be9f53918291be1d9, type: 3}
    - time: 1.8333334
      value: {fileID: 21300000, guid: d7ced3e6a09fc403cb54edd8fb418651, type: 3}
    - time: 1.875
      value: {fileID: 21300000, guid: e650be029d6ca47878198656b942177f, type: 3}
    - time: 1.9583334
      value: {fileID: 21300000, guid: 3ee003559bdfc407e87a465d45f07655, type: 3}
    - time: 2.0416667
      value: {fileID: 21300000, guid: 170ee8bc0492f43b89beff728abfa521, type: 3}
    - time: 2.125
      value: {fileID: 21300000, guid: f4e30b8ef8be54164a2a57ae71fcf86a, type: 3}
    - time: 2.2083333
      value: {fileID: 21300000, guid: db7fcd312c8e44fb6ae9380a316c1a4a, type: 3}
    - time: 3.125
      value: {fileID: 21300000, guid: 87b50c993521c4351ae192b3748e8aa0, type: 3}
    attribute: m_Sprite
    path: 
    classID: 212
    script: {fileID: 0}
  m_SampleRate: 24
  m_WrapMode: 0
  m_Bounds:
    m_Center: {x: 0, y: 0, z: 0}
    m_Extent: {x: 0, y: 0, z: 0}
  m_ClipBindingConstant:
    genericBindings:
    - serializedVersion: 2
      path: 0
      attribute: 0
      script: {fileID: 0}
      typeID: 212
      customType: 23
      isPPtrCurve: 1
    pptrCurveMapping:
    - {fileID: 0}
    - {fileID: 21300000, guid: 68b3e3b24d6bc4d4195c8f7cb5509f5c, type: 3}
    - {fileID: 21300000, guid: ea68bb456da914ea796ab99fc1d34e9f, type: 3}
    - {fileID: 21300000, guid: 5b50bf82da6be4047a6befd253fe3ae6, type: 3}
    - {fileID: 21300000, guid: e7147c42ee6804fe7a4c4a53f0372bef, type: 3}
    - {fileID: 21300000, guid: e289655b63a5c41ca972f15aac1a8497, type: 3}
    - {fileID: 21300000, guid: 934d0f56a86c846c0a577fbeb80c2c20, type: 3}
    - {fileID: 21300000, guid: bfed9df7314214f718a5c9badb1f4317, type: 3}
    - {fileID: 21300000, guid: 02a6e4d9beb974473842cf5f917ef33c, type: 3}
    - {fileID: 21300000, guid: a4b03e722b1bb4451b04908471d7a144, type: 3}
    - {fileID: 21300000, guid: 94bfd0ef59dec465a9f34dba1c8fa015, type: 3}
    - {fileID: 21300000, guid: 60411d6c55d914c14904b1a863c663cc, type: 3}
    - {fileID: 21300000, guid: 6e08e36fc41bb43be9f53918291be1d9, type: 3}
    - {fileID: 21300000, guid: d7ced3e6a09fc403cb54edd8fb418651, type: 3}
    - {fileID: 21300000, guid: e650be029d6ca47878198656b942177f, type: 3}
    - {fileID: 21300000, guid: 3ee003559bdfc407e87a465d45f07655, type: 3}
    - {fileID: 21300000, guid: 170ee8bc0492f43b89beff728abfa521, type: 3}
    - {fileID: 21300000, guid: f4e30b8ef8be54164a2a57ae71fcf86a, type: 3}
    - {fileID: 21300000, guid: db7fcd312c8e44fb6ae9380a316c1a4a, type: 3}
    - {fileID: 21300000, guid: 87b50c993521c4351ae192b3748e8aa0, type: 3}
  m_AnimationClipSettings:
    serializedVersion: 2
    m_AdditiveReferencePoseClip: {fileID: 0}
    m_AdditiveReferencePoseTime: 0
    m_StartTime: 0
    m_StopTime: 3.1666667
    m_OrientationOffsetY: 0
    m_Level: 0
    m_CycleOffset: 0
    m_HasAdditiveReferencePose: 0
    m_LoopTime: 0
    m_LoopBlend: 0
    m_LoopBlendOrientation: 0
    m_LoopBlendPositionY: 0
    m_LoopBlendPositionXZ: 0
    m_KeepOriginalOrientation: 0
    m_KeepOriginalPositionY: 1
    m_KeepOriginalPositionXZ: 0
    m_HeightFromFeet: 0
    m_Mirror: 0
  m_EditorCurves: []
  m_EulerEditorCurves: []
  m_HasGenericRootTransform: 0
  m_HasMotionFloatCurves: 0
  m_GenerateMotionCurves: 0
  m_Events:
  - time: 3.125
    functionName: AfterWay
    data: 
    objectReferenceParameter: {fileID: 0}
    floatParameter: 0
    intParameter: 0
    messageOptions: 0
