%YAML 1.1
%TAG !u! tag:unity3d.com,2011:
--- !u!74 &7400000
AnimationClip:
  m_ObjectHideFlags: 0
  m_PrefabParentObject: {fileID: 0}
  m_PrefabInternal: {fileID: 0}
  m_Name: 05_walk_naname-rightup-blue
  serializedVersion: 6
  m_Legacy: 0
  m_Compressed: 0
  m_UseHighQualityCurve: 1
  m_RotationCurves: []
  m_CompressedRotationCurves: []
  m_EulerCurves: []
  m_PositionCurves: []
  m_ScaleCurves: []
  m_FloatCurves: []
  m_PPtrCurves:
  - curve:
    - time: 0
      value: {fileID: 21300000, guid: 98c1048f7e71c4a3fac1ca3ea742690f, type: 3}
    - time: 0.125
      value: {fileID: 21300000, guid: 9d330f2c18da046709d22a1f53f1fa36, type: 3}
    - time: 0.20833333
      value: {fileID: 21300000, guid: d163958681cd94396b285d92aae71dd1, type: 3}
    - time: 0.29166666
      value: {fileID: 21300000, guid: f5dbd341f10834afdba1869028d88afc, type: 3}
    - time: 0.375
      value: {fileID: 21300000, guid: 2f8d6331ab04f487b96e761dcb973f48, type: 3}
    - time: 0.45833334
      value: {fileID: 21300000, guid: e5546b06395914d6fbf8156277fc4fa4, type: 3}
    - time: 0.5833333
      value: {fileID: 21300000, guid: a9ddd99c77aad461a96fc75d166c602e, type: 3}
    - time: 0.6666667
      value: {fileID: 21300000, guid: cee3980cb05314577a863f0d60d1b30c, type: 3}
    - time: 0.75
      value: {fileID: 21300000, guid: a8c65ae53cdc442d4a91025b5c4c56be, type: 3}
    - time: 0.8333333
      value: {fileID: 21300000, guid: f758103018d6c431abfa7a5a70299922, type: 3}
    - time: 0.875
      value: {fileID: 21300000, guid: 479d096a6abc3401487f148306a0eb0f, type: 3}
    attribute: m_Sprite
    path: 
    classID: 212
    script: {fileID: 0}
  m_SampleRate: 24
  m_WrapMode: 0
  m_Bounds:
    m_Center: {x: 0, y: 0, z: 0}
    m_Extent: {x: 0, y: 0, z: 0}
  m_ClipBindingConstant:
    genericBindings:
    - serializedVersion: 2
      path: 0
      attribute: 0
      script: {fileID: 0}
      typeID: 212
      customType: 23
      isPPtrCurve: 1
    pptrCurveMapping:
    - {fileID: 21300000, guid: 98c1048f7e71c4a3fac1ca3ea742690f, type: 3}
    - {fileID: 21300000, guid: 9d330f2c18da046709d22a1f53f1fa36, type: 3}
    - {fileID: 21300000, guid: d163958681cd94396b285d92aae71dd1, type: 3}
    - {fileID: 21300000, guid: f5dbd341f10834afdba1869028d88afc, type: 3}
    - {fileID: 21300000, guid: 2f8d6331ab04f487b96e761dcb973f48, type: 3}
    - {fileID: 21300000, guid: e5546b06395914d6fbf8156277fc4fa4, type: 3}
    - {fileID: 21300000, guid: a9ddd99c77aad461a96fc75d166c602e, type: 3}
    - {fileID: 21300000, guid: cee3980cb05314577a863f0d60d1b30c, type: 3}
    - {fileID: 21300000, guid: a8c65ae53cdc442d4a91025b5c4c56be, type: 3}
    - {fileID: 21300000, guid: f758103018d6c431abfa7a5a70299922, type: 3}
    - {fileID: 21300000, guid: 479d096a6abc3401487f148306a0eb0f, type: 3}
  m_AnimationClipSettings:
    serializedVersion: 2
    m_AdditiveReferencePoseClip: {fileID: 0}
    m_AdditiveReferencePoseTime: 0
    m_StartTime: 0
    m_StopTime: 0.9166667
    m_OrientationOffsetY: 0
    m_Level: 0
    m_CycleOffset: 0
    m_HasAdditiveReferencePose: 0
    m_LoopTime: 1
    m_LoopBlend: 0
    m_LoopBlendOrientation: 0
    m_LoopBlendPositionY: 0
    m_LoopBlendPositionXZ: 0
    m_KeepOriginalOrientation: 0
    m_KeepOriginalPositionY: 1
    m_KeepOriginalPositionXZ: 0
    m_HeightFromFeet: 0
    m_Mirror: 0
  m_EditorCurves: []
  m_EulerEditorCurves: []
  m_HasGenericRootTransform: 0
  m_HasMotionFloatCurves: 0
  m_GenerateMotionCurves: 0
  m_Events: []
