%YAML 1.1
%TAG !u! tag:unity3d.com,2011:
--- !u!74 &7400000
AnimationClip:
  m_ObjectHideFlags: 0
  m_PrefabParentObject: {fileID: 0}
  m_PrefabInternal: {fileID: 0}
  m_Name: m03_stop
  serializedVersion: 6
  m_Legacy: 0
  m_Compressed: 0
  m_UseHighQualityCurve: 1
  m_RotationCurves: []
  m_CompressedRotationCurves: []
  m_EulerCurves: []
  m_PositionCurves: []
  m_ScaleCurves: []
  m_FloatCurves: []
  m_PPtrCurves:
  - curve:
    - time: 0
      value: {fileID: 21300000, guid: 948f127efafcf4f6089b55e2b3a29a5d, type: 3}
    - time: 1.1666666
      value: {fileID: 21300000, guid: 25dd8d530e03b45d3b04c5400d179ff9, type: 3}
    - time: 1.25
      value: {fileID: 21300000, guid: d687815948f2d4aa2b972405bc98a142, type: 3}
    - time: 1.3333334
      value: {fileID: 21300000, guid: e7668f69865ee4497b2b8c9b9caf3196, type: 3}
    - time: 1.4166666
      value: {fileID: 21300000, guid: 8f3da3e8987994d8db0067f2674cc904, type: 3}
    - time: 1.5416666
      value: {fileID: 21300000, guid: 802bb9db5128e4bd89eb69fdfea186c7, type: 3}
    - time: 1.6666666
      value: {fileID: 21300000, guid: 62c742256300c4c2bae4ec64eed46fdf, type: 3}
    - time: 1.75
      value: {fileID: 21300000, guid: 16f2c9837fcd145c1b3ddbdf798d9679, type: 3}
    - time: 1.7916666
      value: {fileID: 21300000, guid: ae2dafa1258b443129a4a870eb40ccf6, type: 3}
    - time: 1.8333334
      value: {fileID: 21300000, guid: 395822decf4174662a1dbfa5661b7dc7, type: 3}
    - time: 1.875
      value: {fileID: 21300000, guid: 6ecde97f9993e4bdba9af4fe567ad43b, type: 3}
    - time: 1.9166666
      value: {fileID: 21300000, guid: 36187bfbdf90743dca5e49c320a70383, type: 3}
    - time: 1.9583334
      value: {fileID: 21300000, guid: c2725c4a9d414453ba70245fede89118, type: 3}
    - time: 2
      value: {fileID: 21300000, guid: 999c90582306c49d2bb138c21f286cb3, type: 3}
    - time: 2.0416667
      value: {fileID: 21300000, guid: 32634a1fb0c554f75a23f4bf322cb3b5, type: 3}
    - time: 2.0833333
      value: {fileID: 21300000, guid: f084ecaa1848a4a20a12f7f1fa5d5574, type: 3}
    - time: 2.125
      value: {fileID: 21300000, guid: 76633555ce9784d1f8c3dce3d9484559, type: 3}
    - time: 2.25
      value: {fileID: 21300000, guid: e15cffbe41c6143a2892559a88968a59, type: 3}
    - time: 2.3333333
      value: {fileID: 21300000, guid: b5153cdd1a5094e65897a42d6aea34f4, type: 3}
    - time: 2.5833333
      value: {fileID: 21300000, guid: d8899cc039a6c4514b565fe3c3269b06, type: 3}
    - time: 2.6666667
      value: {fileID: 21300000, guid: a96ae60b0fa114f43b6943b82acdbe06, type: 3}
    - time: 2.75
      value: {fileID: 21300000, guid: c4afe79b3fb64460eb4194a74e1dd513, type: 3}
    - time: 2.8333333
      value: {fileID: 21300000, guid: 28555da0985354d0ab32812911616f6d, type: 3}
    - time: 2.9166667
      value: {fileID: 21300000, guid: 0de95412701e645568c69e7b0b6e9057, type: 3}
    - time: 3
      value: {fileID: 21300000, guid: 0f5ec56a5cbce4cb4aaa1db1b9e1f017, type: 3}
    - time: 3.0833333
      value: {fileID: 21300000, guid: db2f9ea1544784256ad4871460298694, type: 3}
    - time: 3.1666667
      value: {fileID: 21300000, guid: 36c5b4629bd114aac81ba74ca3453f7f, type: 3}
    - time: 3.375
      value: {fileID: 21300000, guid: 780ca13aa81294abaa2f1700452bd504, type: 3}
    attribute: m_Sprite
    path: 
    classID: 212
    script: {fileID: 0}
  m_SampleRate: 24
  m_WrapMode: 0
  m_Bounds:
    m_Center: {x: 0, y: 0, z: 0}
    m_Extent: {x: 0, y: 0, z: 0}
  m_ClipBindingConstant:
    genericBindings:
    - serializedVersion: 2
      path: 0
      attribute: 0
      script: {fileID: 0}
      typeID: 212
      customType: 23
      isPPtrCurve: 1
    pptrCurveMapping:
    - {fileID: 21300000, guid: 948f127efafcf4f6089b55e2b3a29a5d, type: 3}
    - {fileID: 21300000, guid: 25dd8d530e03b45d3b04c5400d179ff9, type: 3}
    - {fileID: 21300000, guid: d687815948f2d4aa2b972405bc98a142, type: 3}
    - {fileID: 21300000, guid: e7668f69865ee4497b2b8c9b9caf3196, type: 3}
    - {fileID: 21300000, guid: 8f3da3e8987994d8db0067f2674cc904, type: 3}
    - {fileID: 21300000, guid: 802bb9db5128e4bd89eb69fdfea186c7, type: 3}
    - {fileID: 21300000, guid: 62c742256300c4c2bae4ec64eed46fdf, type: 3}
    - {fileID: 21300000, guid: 16f2c9837fcd145c1b3ddbdf798d9679, type: 3}
    - {fileID: 21300000, guid: ae2dafa1258b443129a4a870eb40ccf6, type: 3}
    - {fileID: 21300000, guid: 395822decf4174662a1dbfa5661b7dc7, type: 3}
    - {fileID: 21300000, guid: 6ecde97f9993e4bdba9af4fe567ad43b, type: 3}
    - {fileID: 21300000, guid: 36187bfbdf90743dca5e49c320a70383, type: 3}
    - {fileID: 21300000, guid: c2725c4a9d414453ba70245fede89118, type: 3}
    - {fileID: 21300000, guid: 999c90582306c49d2bb138c21f286cb3, type: 3}
    - {fileID: 21300000, guid: 32634a1fb0c554f75a23f4bf322cb3b5, type: 3}
    - {fileID: 21300000, guid: f084ecaa1848a4a20a12f7f1fa5d5574, type: 3}
    - {fileID: 21300000, guid: 76633555ce9784d1f8c3dce3d9484559, type: 3}
    - {fileID: 21300000, guid: e15cffbe41c6143a2892559a88968a59, type: 3}
    - {fileID: 21300000, guid: b5153cdd1a5094e65897a42d6aea34f4, type: 3}
    - {fileID: 21300000, guid: d8899cc039a6c4514b565fe3c3269b06, type: 3}
    - {fileID: 21300000, guid: a96ae60b0fa114f43b6943b82acdbe06, type: 3}
    - {fileID: 21300000, guid: c4afe79b3fb64460eb4194a74e1dd513, type: 3}
    - {fileID: 21300000, guid: 28555da0985354d0ab32812911616f6d, type: 3}
    - {fileID: 21300000, guid: 0de95412701e645568c69e7b0b6e9057, type: 3}
    - {fileID: 21300000, guid: 0f5ec56a5cbce4cb4aaa1db1b9e1f017, type: 3}
    - {fileID: 21300000, guid: db2f9ea1544784256ad4871460298694, type: 3}
    - {fileID: 21300000, guid: 36c5b4629bd114aac81ba74ca3453f7f, type: 3}
    - {fileID: 21300000, guid: 780ca13aa81294abaa2f1700452bd504, type: 3}
  m_AnimationClipSettings:
    serializedVersion: 2
    m_AdditiveReferencePoseClip: {fileID: 0}
    m_AdditiveReferencePoseTime: 0
    m_StartTime: 0
    m_StopTime: 3.4166667
    m_OrientationOffsetY: 0
    m_Level: 0
    m_CycleOffset: 0
    m_HasAdditiveReferencePose: 0
    m_LoopTime: 0
    m_LoopBlend: 0
    m_LoopBlendOrientation: 0
    m_LoopBlendPositionY: 0
    m_LoopBlendPositionXZ: 0
    m_KeepOriginalOrientation: 0
    m_KeepOriginalPositionY: 1
    m_KeepOriginalPositionXZ: 0
    m_HeightFromFeet: 0
    m_Mirror: 0
  m_EditorCurves: []
  m_EulerEditorCurves: []
  m_HasGenericRootTransform: 0
  m_HasMotionFloatCurves: 0
  m_GenerateMotionCurves: 0
  m_Events:
  - time: 0
    functionName: Play
    data: 
    objectReferenceParameter: {fileID: 0}
    floatParameter: 0
    intParameter: 0
    messageOptions: 0
  - time: 3.375
    functionName: AfterSpore
    data: 
    objectReferenceParameter: {fileID: 0}
    floatParameter: 0
    intParameter: 0
    messageOptions: 0
