%YAML 1.1
%TAG !u! tag:unity3d.com,2011:
--- !u!74 &7400000
AnimationClip:
  m_ObjectHideFlags: 0
  m_PrefabParentObject: {fileID: 0}
  m_PrefabInternal: {fileID: 0}
  m_Name: fly 5
  serializedVersion: 6
  m_Legacy: 0
  m_Compressed: 0
  m_UseHighQualityCurve: 1
  m_RotationCurves: []
  m_CompressedRotationCurves: []
  m_EulerCurves: []
  m_PositionCurves: []
  m_ScaleCurves: []
  m_FloatCurves: []
  m_PPtrCurves:
  - curve:
    - time: 0
      value: {fileID: 21300000, guid: 7ed51853d40414cae9a44f99cf131008, type: 3}
    - time: 0.125
      value: {fileID: 21300000, guid: cc02f672395a9413ebacaad11dd7bc94, type: 3}
    - time: 0.25
      value: {fileID: 21300000, guid: c8626c13695b445ada253c2ea6f0c89d, type: 3}
    - time: 0.375
      value: {fileID: 21300000, guid: d448f95075af744a9bfdc3e9abe97089, type: 3}
    - time: 0.5
      value: {fileID: 21300000, guid: 259cb765c17f4484a960f257581d6044, type: 3}
    - time: 0.625
      value: {fileID: 21300000, guid: 9c7620608eb13480fade274caac23bfa, type: 3}
    - time: 0.75
      value: {fileID: 21300000, guid: 37f4739ebb640474ebd684dfb7240c78, type: 3}
    - time: 0.875
      value: {fileID: 21300000, guid: 13c1723611f7d401894bd3a36b92db7d, type: 3}
    - time: 0.9583333
      value: {fileID: 21300000, guid: 13c1723611f7d401894bd3a36b92db7d, type: 3}
    attribute: m_Sprite
    path: 
    classID: 212
    script: {fileID: 0}
  m_SampleRate: 24
  m_WrapMode: 0
  m_Bounds:
    m_Center: {x: 0, y: 0, z: 0}
    m_Extent: {x: 0, y: 0, z: 0}
  m_ClipBindingConstant:
    genericBindings:
    - serializedVersion: 2
      path: 0
      attribute: 0
      script: {fileID: 0}
      typeID: 212
      customType: 23
      isPPtrCurve: 1
    pptrCurveMapping:
    - {fileID: 21300000, guid: 7ed51853d40414cae9a44f99cf131008, type: 3}
    - {fileID: 21300000, guid: cc02f672395a9413ebacaad11dd7bc94, type: 3}
    - {fileID: 21300000, guid: c8626c13695b445ada253c2ea6f0c89d, type: 3}
    - {fileID: 21300000, guid: d448f95075af744a9bfdc3e9abe97089, type: 3}
    - {fileID: 21300000, guid: 259cb765c17f4484a960f257581d6044, type: 3}
    - {fileID: 21300000, guid: 9c7620608eb13480fade274caac23bfa, type: 3}
    - {fileID: 21300000, guid: 37f4739ebb640474ebd684dfb7240c78, type: 3}
    - {fileID: 21300000, guid: 13c1723611f7d401894bd3a36b92db7d, type: 3}
    - {fileID: 21300000, guid: 13c1723611f7d401894bd3a36b92db7d, type: 3}
  m_AnimationClipSettings:
    serializedVersion: 2
    m_AdditiveReferencePoseClip: {fileID: 0}
    m_AdditiveReferencePoseTime: 0
    m_StartTime: 0
    m_StopTime: 1
    m_OrientationOffsetY: 0
    m_Level: 0
    m_CycleOffset: 0
    m_HasAdditiveReferencePose: 0
    m_LoopTime: 0
    m_LoopBlend: 0
    m_LoopBlendOrientation: 0
    m_LoopBlendPositionY: 0
    m_LoopBlendPositionXZ: 0
    m_KeepOriginalOrientation: 0
    m_KeepOriginalPositionY: 1
    m_KeepOriginalPositionXZ: 0
    m_HeightFromFeet: 0
    m_Mirror: 0
  m_EditorCurves: []
  m_EulerEditorCurves: []
  m_HasGenericRootTransform: 0
  m_HasMotionFloatCurves: 0
  m_GenerateMotionCurves: 0
  m_Events:
  - time: 0
    functionName: Play
    data: 
    objectReferenceParameter: {fileID: 0}
    floatParameter: 0
    intParameter: 0
    messageOptions: 0
  - time: 0.9583333
    functionName: Removed
    data: 
    objectReferenceParameter: {fileID: 0}
    floatParameter: 0
    intParameter: 0
    messageOptions: 0
