%YAML 1.1
%TAG !u! tag:unity3d.com,2011:
--- !u!74 &7400000
AnimationClip:
  m_ObjectHideFlags: 0
  m_PrefabParentObject: {fileID: 0}
  m_PrefabInternal: {fileID: 0}
  m_Name: Onamomi 3
  serializedVersion: 6
  m_Legacy: 0
  m_Compressed: 0
  m_UseHighQualityCurve: 1
  m_RotationCurves: []
  m_CompressedRotationCurves: []
  m_EulerCurves: []
  m_PositionCurves: []
  m_ScaleCurves: []
  m_FloatCurves: []
  m_PPtrCurves:
  - curve:
    - time: 0
      value: {fileID: 21300000, guid: c30c5dd63e5b948c5ac03d0023b59cb7, type: 3}
    - time: 2
      value: {fileID: 21300000, guid: 776b02e9a3c934f0d99507df7936a1da, type: 3}
    - time: 2.1249993
      value: {fileID: 21300000, guid: 3fa5e541479f44e68b31e2aa24b629d2, type: 3}
    - time: 2.2499995
      value: {fileID: 21300000, guid: 4f888401dc97841569c512aaf86e835b, type: 3}
    - time: 2.3749998
      value: {fileID: 21300000, guid: 59801f65f9f4f4a6dbf65b602fc3a77b, type: 3}
    - time: 2.5
      value: {fileID: 21300000, guid: f6aec68d934674c78a4fd69da565561e, type: 3}
    - time: 2.6250002
      value: {fileID: 21300000, guid: f0d82b0a4604d49fdaa43831f31fdf50, type: 3}
    - time: 2.7500005
      value: {fileID: 21300000, guid: 0b34bd682e736469b834de92863b434c, type: 3}
    - time: 2.8750007
      value: {fileID: 21300000, guid: 81645ad2318884b79aa10aef85d0b873, type: 3}
    - time: 3.000001
      value: {fileID: 21300000, guid: 60e9fbda7b3db46c9a54d97604aec35e, type: 3}
    - time: 3.1250012
      value: {fileID: 21300000, guid: 660e75b12b48447debd6f8032a382fee, type: 3}
    - time: 3.2500014
      value: {fileID: 21300000, guid: 3ef189501c181465eb713512489b12dd, type: 3}
    - time: 3.3750017
      value: {fileID: 21300000, guid: cd9f1b7d7420e4739994bdd951805ec9, type: 3}
    - time: 3.500002
      value: {fileID: 21300000, guid: 1d4a93322c8934df49c4171fdf0554c5, type: 3}
    - time: 3.625
      value: {fileID: 21300000, guid: c52b15922529d4f9eae0a06a67055252, type: 3}
    - time: 3.7500024
      value: {fileID: 21300000, guid: bbdc1e4c116d74f94a7fcf1d79c7e5f8, type: 3}
    - time: 4.4583335
      value: {fileID: 21300000, guid: bbdc1e4c116d74f94a7fcf1d79c7e5f8, type: 3}
    attribute: m_Sprite
    path: 
    classID: 212
    script: {fileID: 0}
  m_SampleRate: 24
  m_WrapMode: 0
  m_Bounds:
    m_Center: {x: 0, y: 0, z: 0}
    m_Extent: {x: 0, y: 0, z: 0}
  m_ClipBindingConstant:
    genericBindings:
    - serializedVersion: 2
      path: 0
      attribute: 0
      script: {fileID: 0}
      typeID: 212
      customType: 23
      isPPtrCurve: 1
    pptrCurveMapping:
    - {fileID: 21300000, guid: c30c5dd63e5b948c5ac03d0023b59cb7, type: 3}
    - {fileID: 21300000, guid: 776b02e9a3c934f0d99507df7936a1da, type: 3}
    - {fileID: 21300000, guid: 3fa5e541479f44e68b31e2aa24b629d2, type: 3}
    - {fileID: 21300000, guid: 4f888401dc97841569c512aaf86e835b, type: 3}
    - {fileID: 21300000, guid: 59801f65f9f4f4a6dbf65b602fc3a77b, type: 3}
    - {fileID: 21300000, guid: f6aec68d934674c78a4fd69da565561e, type: 3}
    - {fileID: 21300000, guid: f0d82b0a4604d49fdaa43831f31fdf50, type: 3}
    - {fileID: 21300000, guid: 0b34bd682e736469b834de92863b434c, type: 3}
    - {fileID: 21300000, guid: 81645ad2318884b79aa10aef85d0b873, type: 3}
    - {fileID: 21300000, guid: 60e9fbda7b3db46c9a54d97604aec35e, type: 3}
    - {fileID: 21300000, guid: 660e75b12b48447debd6f8032a382fee, type: 3}
    - {fileID: 21300000, guid: 3ef189501c181465eb713512489b12dd, type: 3}
    - {fileID: 21300000, guid: cd9f1b7d7420e4739994bdd951805ec9, type: 3}
    - {fileID: 21300000, guid: 1d4a93322c8934df49c4171fdf0554c5, type: 3}
    - {fileID: 21300000, guid: c52b15922529d4f9eae0a06a67055252, type: 3}
    - {fileID: 21300000, guid: bbdc1e4c116d74f94a7fcf1d79c7e5f8, type: 3}
    - {fileID: 21300000, guid: bbdc1e4c116d74f94a7fcf1d79c7e5f8, type: 3}
  m_AnimationClipSettings:
    serializedVersion: 2
    m_AdditiveReferencePoseClip: {fileID: 0}
    m_AdditiveReferencePoseTime: 0
    m_StartTime: 0
    m_StopTime: 4.5
    m_OrientationOffsetY: 0
    m_Level: 0
    m_CycleOffset: 0
    m_HasAdditiveReferencePose: 0
    m_LoopTime: 0
    m_LoopBlend: 0
    m_LoopBlendOrientation: 0
    m_LoopBlendPositionY: 0
    m_LoopBlendPositionXZ: 0
    m_KeepOriginalOrientation: 0
    m_KeepOriginalPositionY: 1
    m_KeepOriginalPositionXZ: 0
    m_HeightFromFeet: 0
    m_Mirror: 0
  m_EditorCurves: []
  m_EulerEditorCurves: []
  m_HasGenericRootTransform: 0
  m_HasMotionFloatCurves: 0
  m_GenerateMotionCurves: 0
  m_Events:
  - time: 4.4583335
    functionName: EnableCollider
    data: 
    objectReferenceParameter: {fileID: 0}
    floatParameter: 0
    intParameter: 0
    messageOptions: 0
