%YAML 1.1
%TAG !u! tag:unity3d.com,2011:
--- !u!74 &7400000
AnimationClip:
  m_ObjectHideFlags: 0
  m_PrefabParentObject: {fileID: 0}
  m_PrefabInternal: {fileID: 0}
  m_Name: Onamomi 5
  serializedVersion: 6
  m_Legacy: 0
  m_Compressed: 0
  m_UseHighQualityCurve: 1
  m_RotationCurves: []
  m_CompressedRotationCurves: []
  m_EulerCurves: []
  m_PositionCurves: []
  m_ScaleCurves: []
  m_FloatCurves: []
  m_PPtrCurves:
  - curve:
    - time: 0
      value: {fileID: 21300000, guid: 3cf38ffa0f4ea4eff808f50fd5132d54, type: 3}
    - time: 3.7500024
      value: {fileID: 21300000, guid: f1b3c3c656f8645de8fb52dbc39dd8ea, type: 3}
    - time: 4.000003
      value: {fileID: 21300000, guid: bf257a663c6d24127be8c9cc8b8ca81b, type: 3}
    - time: 4.250002
      value: {fileID: 21300000, guid: cf1e3e276b3434db886cbb8f67d6b982, type: 3}
    - time: 4.4583335
      value: {fileID: 21300000, guid: cf1e3e276b3434db886cbb8f67d6b982, type: 3}
    attribute: m_Sprite
    path: 
    classID: 212
    script: {fileID: 0}
  m_SampleRate: 24
  m_WrapMode: 0
  m_Bounds:
    m_Center: {x: 0, y: 0, z: 0}
    m_Extent: {x: 0, y: 0, z: 0}
  m_ClipBindingConstant:
    genericBindings:
    - serializedVersion: 2
      path: 0
      attribute: 0
      script: {fileID: 0}
      typeID: 212
      customType: 23
      isPPtrCurve: 1
    pptrCurveMapping:
    - {fileID: 21300000, guid: 3cf38ffa0f4ea4eff808f50fd5132d54, type: 3}
    - {fileID: 21300000, guid: f1b3c3c656f8645de8fb52dbc39dd8ea, type: 3}
    - {fileID: 21300000, guid: bf257a663c6d24127be8c9cc8b8ca81b, type: 3}
    - {fileID: 21300000, guid: cf1e3e276b3434db886cbb8f67d6b982, type: 3}
    - {fileID: 21300000, guid: cf1e3e276b3434db886cbb8f67d6b982, type: 3}
  m_AnimationClipSettings:
    serializedVersion: 2
    m_AdditiveReferencePoseClip: {fileID: 0}
    m_AdditiveReferencePoseTime: 0
    m_StartTime: 0
    m_StopTime: 4.5
    m_OrientationOffsetY: 0
    m_Level: 0
    m_CycleOffset: 0
    m_HasAdditiveReferencePose: 0
    m_LoopTime: 0
    m_LoopBlend: 0
    m_LoopBlendOrientation: 0
    m_LoopBlendPositionY: 0
    m_LoopBlendPositionXZ: 0
    m_KeepOriginalOrientation: 0
    m_KeepOriginalPositionY: 1
    m_KeepOriginalPositionXZ: 0
    m_HeightFromFeet: 0
    m_Mirror: 0
  m_EditorCurves: []
  m_EulerEditorCurves: []
  m_HasGenericRootTransform: 0
  m_HasMotionFloatCurves: 0
  m_GenerateMotionCurves: 0
  m_Events:
  - time: 4.4583335
    functionName: EnableCollider
    data: 
    objectReferenceParameter: {fileID: 0}
    floatParameter: 0
    intParameter: 0
    messageOptions: 0
