%YAML 1.1
%TAG !u! tag:unity3d.com,2011:
--- !u!74 &7400000
AnimationClip:
  m_ObjectHideFlags: 0
  m_PrefabParentObject: {fileID: 0}
  m_PrefabInternal: {fileID: 0}
  m_Name: m05_jump02-handoff
  serializedVersion: 6
  m_Legacy: 0
  m_Compressed: 0
  m_UseHighQualityCurve: 1
  m_RotationCurves: []
  m_CompressedRotationCurves: []
  m_EulerCurves: []
  m_PositionCurves: []
  m_ScaleCurves: []
  m_FloatCurves: []
  m_PPtrCurves:
  - curve:
    - time: 0
      value: {fileID: 21300000, guid: a8d3af6c696744160aae4f3a64e1e0ad, type: 3}
    - time: 0.125
      value: {fileID: 21300000, guid: 5f8d68f73ea7a4bc082eec426b69c765, type: 3}
    - time: 0.20833333
      value: {fileID: 21300000, guid: e07c1c6a2036c4feca2103e23fb46f75, type: 3}
    - time: 0.25
      value: {fileID: 21300000, guid: b00774a61729c43f5a25660e7197b959, type: 3}
    - time: 0.29166666
      value: {fileID: 21300000, guid: 9c94b4def4be649619625c00a5256e2b, type: 3}
    - time: 0.33333334
      value: {fileID: 21300000, guid: 2aa167ddb00984659b1086f598c4bb2b, type: 3}
    - time: 0.375
      value: {fileID: 21300000, guid: 17b315dfd668641df8491ed8b46314ee, type: 3}
    - time: 0.41666666
      value: {fileID: 21300000, guid: f1ba1f36016964231b30285297faa3f3, type: 3}
    - time: 0.45833334
      value: {fileID: 21300000, guid: d01ab091ecd4949398ee4dcddab54da7, type: 3}
    - time: 0.5
      value: {fileID: 21300000, guid: 34d2c26982a7f43abadfc4e78241363c, type: 3}
    - time: 0.5416667
      value: {fileID: 21300000, guid: c4c206f44db7849c382eb91d88c575ea, type: 3}
    - time: 0.5833333
      value: {fileID: 21300000, guid: 4d47866af110e4f0cb5e4bb249e27262, type: 3}
    - time: 0.625
      value: {fileID: 21300000, guid: 731c38c2fa71c4ac8a9bdb3d200cf251, type: 3}
    - time: 0.6666667
      value: {fileID: 21300000, guid: c7a94adb1a9e54cb1bd8db97a9b0760e, type: 3}
    - time: 0.7083333
      value: {fileID: 21300000, guid: c611881b9225a4d75aa61437cf64867b, type: 3}
    - time: 0.75
      value: {fileID: 21300000, guid: 0b831da2179d74c3da151e9f1a6804f5, type: 3}
    - time: 0.8333333
      value: {fileID: 21300000, guid: c7135aa669f644da4b51b1d368577591, type: 3}
    - time: 6.5
      value: {fileID: 21300000, guid: 055e35f23fd0e488ab7639057e41d10d, type: 3}
    - time: 6.5833335
      value: {fileID: 21300000, guid: 3c06c64d4f6da4208b70182f038fd35d, type: 3}
    - time: 6.6666665
      value: {fileID: 21300000, guid: 76d844644bbf84bd59ac88db0b3e086b, type: 3}
    - time: 6.7916665
      value: {fileID: 21300000, guid: 044b4375f098b40ecad5c7d2f18e10a3, type: 3}
    - time: 6.9166665
      value: {fileID: 21300000, guid: 5db5763ea85c74ea4897033892b1bc0f, type: 3}
    - time: 7.0416665
      value: {fileID: 21300000, guid: 2e6e4e01b188b4c2d8ecb13513d41b5b, type: 3}
    - time: 7.125
      value: {fileID: 21300000, guid: 57a341326079b49ba8bc953f2f5b1270, type: 3}
    - time: 7.2916665
      value: {fileID: 21300000, guid: eff9c7662beea494998f3958016a645c, type: 3}
    - time: 7.375
      value: {fileID: 21300000, guid: 93840c33e4ed44e26b2361ac2c395cdd, type: 3}
    - time: 7.625
      value: {fileID: 21300000, guid: 8199e069ed1f445eaa3849c1b12a35f4, type: 3}
    - time: 7.7083335
      value: {fileID: 21300000, guid: 1cf48d59cff6e418eabc84e869e7e3e2, type: 3}
    - time: 7.7916665
      value: {fileID: 21300000, guid: d9942310b3c944e4c9794f4cb230106f, type: 3}
    - time: 8.458333
      value: {fileID: 21300000, guid: 5d4998ad95e4f47f0be8cb97e3f6e339, type: 3}
    - time: 8.541667
      value: {fileID: 21300000, guid: 3a0e3192bd6b44446b0af53f8ab68a2d, type: 3}
    - time: 8.625
      value: {fileID: 21300000, guid: 0c9a017b7284e48d6a5c3228dee5f505, type: 3}
    - time: 8.708333
      value: {fileID: 21300000, guid: a93c269947a8046e792033467a9e5a29, type: 3}
    - time: 9.625
      value: {fileID: 21300000, guid: 8855c47b9231e46e1828dfb791a725c1, type: 3}
    - time: 9.708333
      value: {fileID: 21300000, guid: ebec96d67141b476aa67ee8eb4129efb, type: 3}
    - time: 9.791667
      value: {fileID: 21300000, guid: 28bda8abf1c3446c1a06c8134e12f265, type: 3}
    - time: 9.875
      value: {fileID: 21300000, guid: 1ed6b8c2fe230445090025439fdecc4e, type: 3}
    - time: 10.208333
      value: {fileID: 21300000, guid: f11d67d6abab645ad85a56cef0ac3679, type: 3}
    - time: 10.291667
      value: {fileID: 21300000, guid: 0ff743fc66958486b9516328e7f12c54, type: 3}
    - time: 10.375
      value: {fileID: 21300000, guid: 58095d4ecce8c4672a51b566ab70cad5, type: 3}
    - time: 10.5
      value: {fileID: 21300000, guid: 93087f141d8c54d1ea614ddcd21fbbbd, type: 3}
    - time: 10.625
      value: {fileID: 21300000, guid: 7fde5eca9032a4b89b5cda82fd7b934c, type: 3}
    - time: 10.708333
      value: {fileID: 21300000, guid: 191bb06d7ff564cc18de868d1afc29d6, type: 3}
    - time: 10.791667
      value: {fileID: 21300000, guid: cdd42f5a399d0494cb1f6876329db638, type: 3}
    - time: 11.041667
      value: {fileID: 21300000, guid: e2c9812a314494a558c24e152a928136, type: 3}
    - time: 11.166667
      value: {fileID: 21300000, guid: 8020b0ed0b1cc47b9a8ec2cdf7c9ad71, type: 3}
    - time: 11.291667
      value: {fileID: 21300000, guid: 6daee6e4bd3f64f308fee99d111f1912, type: 3}
    - time: 11.375
      value: {fileID: 21300000, guid: 49ba794720ed8448c8ec0282ea73c2f0, type: 3}
    - time: 11.458333
      value: {fileID: 21300000, guid: 67a3b4e2e31fc4a6d860bbfd541b8dbb, type: 3}
    - time: 11.583333
      value: {fileID: 21300000, guid: d11add31a7d5048beb7c3b5849997c45, type: 3}
    - time: 11.666667
      value: {fileID: 21300000, guid: c83112d9e3e2741089e26ea6f020683a, type: 3}
    - time: 11.75
      value: {fileID: 21300000, guid: 58bafebca18b64a0db9fe37b8c9d916d, type: 3}
    - time: 11.875
      value: {fileID: 21300000, guid: d38a22c9c5ffd42da83d7b31c24b65a5, type: 3}
    - time: 12
      value: {fileID: 21300000, guid: a7e24a9135c3e4761ad5858b7604e19f, type: 3}
    - time: 12.958333
      value: {fileID: 21300000, guid: e72652726a3084792836b16713a78ccf, type: 3}
    attribute: m_Sprite
    path: 
    classID: 212
    script: {fileID: 0}
  m_SampleRate: 24
  m_WrapMode: 0
  m_Bounds:
    m_Center: {x: 0, y: 0, z: 0}
    m_Extent: {x: 0, y: 0, z: 0}
  m_ClipBindingConstant:
    genericBindings:
    - serializedVersion: 2
      path: 0
      attribute: 0
      script: {fileID: 0}
      typeID: 212
      customType: 23
      isPPtrCurve: 1
    pptrCurveMapping:
    - {fileID: 21300000, guid: a8d3af6c696744160aae4f3a64e1e0ad, type: 3}
    - {fileID: 21300000, guid: 5f8d68f73ea7a4bc082eec426b69c765, type: 3}
    - {fileID: 21300000, guid: e07c1c6a2036c4feca2103e23fb46f75, type: 3}
    - {fileID: 21300000, guid: b00774a61729c43f5a25660e7197b959, type: 3}
    - {fileID: 21300000, guid: 9c94b4def4be649619625c00a5256e2b, type: 3}
    - {fileID: 21300000, guid: 2aa167ddb00984659b1086f598c4bb2b, type: 3}
    - {fileID: 21300000, guid: 17b315dfd668641df8491ed8b46314ee, type: 3}
    - {fileID: 21300000, guid: f1ba1f36016964231b30285297faa3f3, type: 3}
    - {fileID: 21300000, guid: d01ab091ecd4949398ee4dcddab54da7, type: 3}
    - {fileID: 21300000, guid: 34d2c26982a7f43abadfc4e78241363c, type: 3}
    - {fileID: 21300000, guid: c4c206f44db7849c382eb91d88c575ea, type: 3}
    - {fileID: 21300000, guid: 4d47866af110e4f0cb5e4bb249e27262, type: 3}
    - {fileID: 21300000, guid: 731c38c2fa71c4ac8a9bdb3d200cf251, type: 3}
    - {fileID: 21300000, guid: c7a94adb1a9e54cb1bd8db97a9b0760e, type: 3}
    - {fileID: 21300000, guid: c611881b9225a4d75aa61437cf64867b, type: 3}
    - {fileID: 21300000, guid: 0b831da2179d74c3da151e9f1a6804f5, type: 3}
    - {fileID: 21300000, guid: c7135aa669f644da4b51b1d368577591, type: 3}
    - {fileID: 21300000, guid: 055e35f23fd0e488ab7639057e41d10d, type: 3}
    - {fileID: 21300000, guid: 3c06c64d4f6da4208b70182f038fd35d, type: 3}
    - {fileID: 21300000, guid: 76d844644bbf84bd59ac88db0b3e086b, type: 3}
    - {fileID: 21300000, guid: 044b4375f098b40ecad5c7d2f18e10a3, type: 3}
    - {fileID: 21300000, guid: 5db5763ea85c74ea4897033892b1bc0f, type: 3}
    - {fileID: 21300000, guid: 2e6e4e01b188b4c2d8ecb13513d41b5b, type: 3}
    - {fileID: 21300000, guid: 57a341326079b49ba8bc953f2f5b1270, type: 3}
    - {fileID: 21300000, guid: eff9c7662beea494998f3958016a645c, type: 3}
    - {fileID: 21300000, guid: 93840c33e4ed44e26b2361ac2c395cdd, type: 3}
    - {fileID: 21300000, guid: 8199e069ed1f445eaa3849c1b12a35f4, type: 3}
    - {fileID: 21300000, guid: 1cf48d59cff6e418eabc84e869e7e3e2, type: 3}
    - {fileID: 21300000, guid: d9942310b3c944e4c9794f4cb230106f, type: 3}
    - {fileID: 21300000, guid: 5d4998ad95e4f47f0be8cb97e3f6e339, type: 3}
    - {fileID: 21300000, guid: 3a0e3192bd6b44446b0af53f8ab68a2d, type: 3}
    - {fileID: 21300000, guid: 0c9a017b7284e48d6a5c3228dee5f505, type: 3}
    - {fileID: 21300000, guid: a93c269947a8046e792033467a9e5a29, type: 3}
    - {fileID: 21300000, guid: 8855c47b9231e46e1828dfb791a725c1, type: 3}
    - {fileID: 21300000, guid: ebec96d67141b476aa67ee8eb4129efb, type: 3}
    - {fileID: 21300000, guid: 28bda8abf1c3446c1a06c8134e12f265, type: 3}
    - {fileID: 21300000, guid: 1ed6b8c2fe230445090025439fdecc4e, type: 3}
    - {fileID: 21300000, guid: f11d67d6abab645ad85a56cef0ac3679, type: 3}
    - {fileID: 21300000, guid: 0ff743fc66958486b9516328e7f12c54, type: 3}
    - {fileID: 21300000, guid: 58095d4ecce8c4672a51b566ab70cad5, type: 3}
    - {fileID: 21300000, guid: 93087f141d8c54d1ea614ddcd21fbbbd, type: 3}
    - {fileID: 21300000, guid: 7fde5eca9032a4b89b5cda82fd7b934c, type: 3}
    - {fileID: 21300000, guid: 191bb06d7ff564cc18de868d1afc29d6, type: 3}
    - {fileID: 21300000, guid: cdd42f5a399d0494cb1f6876329db638, type: 3}
    - {fileID: 21300000, guid: e2c9812a314494a558c24e152a928136, type: 3}
    - {fileID: 21300000, guid: 8020b0ed0b1cc47b9a8ec2cdf7c9ad71, type: 3}
    - {fileID: 21300000, guid: 6daee6e4bd3f64f308fee99d111f1912, type: 3}
    - {fileID: 21300000, guid: 49ba794720ed8448c8ec0282ea73c2f0, type: 3}
    - {fileID: 21300000, guid: 67a3b4e2e31fc4a6d860bbfd541b8dbb, type: 3}
    - {fileID: 21300000, guid: d11add31a7d5048beb7c3b5849997c45, type: 3}
    - {fileID: 21300000, guid: c83112d9e3e2741089e26ea6f020683a, type: 3}
    - {fileID: 21300000, guid: 58bafebca18b64a0db9fe37b8c9d916d, type: 3}
    - {fileID: 21300000, guid: d38a22c9c5ffd42da83d7b31c24b65a5, type: 3}
    - {fileID: 21300000, guid: a7e24a9135c3e4761ad5858b7604e19f, type: 3}
    - {fileID: 21300000, guid: e72652726a3084792836b16713a78ccf, type: 3}
  m_AnimationClipSettings:
    serializedVersion: 2
    m_AdditiveReferencePoseClip: {fileID: 0}
    m_AdditiveReferencePoseTime: 0
    m_StartTime: 0
    m_StopTime: 13
    m_OrientationOffsetY: 0
    m_Level: 0
    m_CycleOffset: 0
    m_HasAdditiveReferencePose: 0
    m_LoopTime: 0
    m_LoopBlend: 0
    m_LoopBlendOrientation: 0
    m_LoopBlendPositionY: 0
    m_LoopBlendPositionXZ: 0
    m_KeepOriginalOrientation: 0
    m_KeepOriginalPositionY: 1
    m_KeepOriginalPositionXZ: 0
    m_HeightFromFeet: 0
    m_Mirror: 0
  m_EditorCurves: []
  m_EulerEditorCurves: []
  m_HasGenericRootTransform: 0
  m_HasMotionFloatCurves: 0
  m_GenerateMotionCurves: 0
  m_Events: []
