%YAML 1.1
%TAG !u! tag:unity3d.com,2011:
--- !u!74 &7400000
AnimationClip:
  m_ObjectHideFlags: 0
  m_PrefabParentObject: {fileID: 0}
  m_PrefabInternal: {fileID: 0}
  m_Name: 03_06 happy_andwalk
  serializedVersion: 6
  m_Legacy: 0
  m_Compressed: 0
  m_UseHighQualityCurve: 1
  m_RotationCurves: []
  m_CompressedRotationCurves: []
  m_EulerCurves: []
  m_PositionCurves: []
  m_ScaleCurves: []
  m_FloatCurves: []
  m_PPtrCurves:
  - curve:
    - time: 0
      value: {fileID: 21300000, guid: cf0b0970283a844c58acaa1d9655bb43, type: 3}
    - time: 0.125
      value: {fileID: 21300000, guid: aa627311d63ad487f8c6bc20614d47ff, type: 3}
    - time: 0.25
      value: {fileID: 21300000, guid: 79d38a7402ac64db88e27ae9b50252e2, type: 3}
    - time: 0.375
      value: {fileID: 21300000, guid: 09e98c4ea3fd148be90e2ca0e2c63971, type: 3}
    - time: 0.5416667
      value: {fileID: 21300000, guid: fd5d6346887554f219429193cb96a60c, type: 3}
    - time: 0.625
      value: {fileID: 21300000, guid: 2417228807ee14203a52e9a03dad4a36, type: 3}
    - time: 0.7083333
      value: {fileID: 21300000, guid: 8f67be4cee9004afb9d3a96ab7bef07a, type: 3}
    - time: 1.4583334
      value: {fileID: 21300000, guid: 14db17f48e5054702a229dea1359b0bd, type: 3}
    - time: 1.5833334
      value: {fileID: 21300000, guid: fb0a6bdef84824a4aa64e7e688f37ee9, type: 3}
    - time: 1.7083334
      value: {fileID: 21300000, guid: 622b7b504c5b24ce3afaf70cbde1789c, type: 3}
    - time: 1.7916666
      value: {fileID: 21300000, guid: 1047391960045439b949efee6639a160, type: 3}
    - time: 1.875
      value: {fileID: 21300000, guid: 1dc144eb0c5e449a29dd014e0013b945, type: 3}
    - time: 1.9583334
      value: {fileID: 21300000, guid: e31d3cd2cd3ad4e79b7c44117a8f391b, type: 3}
    - time: 2.0416667
      value: {fileID: 21300000, guid: 2c7c666eb54664f1dabed3420540fb67, type: 3}
    - time: 2.125
      value: {fileID: 21300000, guid: 080c54305045942a0967df50d56b455a, type: 3}
    - time: 2.4583333
      value: {fileID: 21300000, guid: 5a2b44784799849c2951c1b29525d6a8, type: 3}
    - time: 2.5416667
      value: {fileID: 21300000, guid: f2edfa05d52a841c48f6d4de98b37029, type: 3}
    - time: 2.625
      value: {fileID: 21300000, guid: a898a4f77b8744bdfb831ab21f1d5a64, type: 3}
    - time: 2.7083333
      value: {fileID: 21300000, guid: 91a3eb5eb61424059961edd285d01090, type: 3}
    - time: 2.8333333
      value: {fileID: 21300000, guid: c6db1f8324545414c95164a45d3375bf, type: 3}
    - time: 2.9166667
      value: {fileID: 21300000, guid: 8770905968dcc4e85960ed8809decf36, type: 3}
    - time: 3
      value: {fileID: 21300000, guid: c00a15b3958e24d8f9c31353733ab453, type: 3}
    - time: 3.0833333
      value: {fileID: 21300000, guid: ea06fd8d5930240d0a65062810be7d15, type: 3}
    - time: 3.2083333
      value: {fileID: 21300000, guid: 223da9deaa3d947e3af49e7efc508f8b, type: 3}
    - time: 3.4583333
      value: {fileID: 21300000, guid: a60bca01f1671471c876ff2be2aecec9, type: 3}
    - time: 3.5
      value: {fileID: 21300000, guid: c4a48064f51a44658913b90c9a0554ba, type: 3}
    - time: 3.5833333
      value: {fileID: 21300000, guid: e33cfb857e36b48c7b55ec0563d5c2cf, type: 3}
    - time: 3.7083333
      value: {fileID: 21300000, guid: 614fb4f6f67fe42548d26d3884a14593, type: 3}
    - time: 3.7916667
      value: {fileID: 21300000, guid: 81751111de90c4996958ab63ce6d1f09, type: 3}
    - time: 3.875
      value: {fileID: 21300000, guid: 969a5058820b34a46aee5ddc9899bee2, type: 3}
    - time: 3.9583333
      value: {fileID: 21300000, guid: e0aba34fdbda6492daf89fef49b4657f, type: 3}
    - time: 4.0416665
      value: {fileID: 21300000, guid: 7fdbccd33a2fc475cb0128e2485c2296, type: 3}
    - time: 4.125
      value: {fileID: 21300000, guid: 4394e16f5d65d4770bd4f1953fcc3fdf, type: 3}
    - time: 4.2083335
      value: {fileID: 21300000, guid: b8a2e41ace8d9403bbc88e3043f605b6, type: 3}
    - time: 4.2916665
      value: {fileID: 21300000, guid: a873a97c7fd5346bb9139a43815f7d21, type: 3}
    - time: 4.375
      value: {fileID: 21300000, guid: 233430457a6604955af22826df3c04aa, type: 3}
    - time: 4.4583335
      value: {fileID: 21300000, guid: 81d1c5c1add9f4f9e85720ca6e2b61e7, type: 3}
    - time: 4.5416665
      value: {fileID: 21300000, guid: 60efc0ae8b4184415b9fda6f047d8acb, type: 3}
    - time: 4.625
      value: {fileID: 21300000, guid: 4b4d3452c348d4980ab480b9ecba3b52, type: 3}
    - time: 4.7083335
      value: {fileID: 21300000, guid: 09c287c15222b458783f0a310acd2220, type: 3}
    - time: 4.7916665
      value: {fileID: 21300000, guid: 742a061715f1d4318a01499bef67984f, type: 3}
    - time: 4.9166665
      value: {fileID: 21300000, guid: b3141142de3d943cd8f953451502418e, type: 3}
    attribute: m_Sprite
    path: 
    classID: 212
    script: {fileID: 0}
  m_SampleRate: 24
  m_WrapMode: 0
  m_Bounds:
    m_Center: {x: 0, y: 0, z: 0}
    m_Extent: {x: 0, y: 0, z: 0}
  m_ClipBindingConstant:
    genericBindings:
    - serializedVersion: 2
      path: 0
      attribute: 0
      script: {fileID: 0}
      typeID: 212
      customType: 23
      isPPtrCurve: 1
    pptrCurveMapping:
    - {fileID: 21300000, guid: cf0b0970283a844c58acaa1d9655bb43, type: 3}
    - {fileID: 21300000, guid: aa627311d63ad487f8c6bc20614d47ff, type: 3}
    - {fileID: 21300000, guid: 79d38a7402ac64db88e27ae9b50252e2, type: 3}
    - {fileID: 21300000, guid: 09e98c4ea3fd148be90e2ca0e2c63971, type: 3}
    - {fileID: 21300000, guid: fd5d6346887554f219429193cb96a60c, type: 3}
    - {fileID: 21300000, guid: 2417228807ee14203a52e9a03dad4a36, type: 3}
    - {fileID: 21300000, guid: 8f67be4cee9004afb9d3a96ab7bef07a, type: 3}
    - {fileID: 21300000, guid: 14db17f48e5054702a229dea1359b0bd, type: 3}
    - {fileID: 21300000, guid: fb0a6bdef84824a4aa64e7e688f37ee9, type: 3}
    - {fileID: 21300000, guid: 622b7b504c5b24ce3afaf70cbde1789c, type: 3}
    - {fileID: 21300000, guid: 1047391960045439b949efee6639a160, type: 3}
    - {fileID: 21300000, guid: 1dc144eb0c5e449a29dd014e0013b945, type: 3}
    - {fileID: 21300000, guid: e31d3cd2cd3ad4e79b7c44117a8f391b, type: 3}
    - {fileID: 21300000, guid: 2c7c666eb54664f1dabed3420540fb67, type: 3}
    - {fileID: 21300000, guid: 080c54305045942a0967df50d56b455a, type: 3}
    - {fileID: 21300000, guid: 5a2b44784799849c2951c1b29525d6a8, type: 3}
    - {fileID: 21300000, guid: f2edfa05d52a841c48f6d4de98b37029, type: 3}
    - {fileID: 21300000, guid: a898a4f77b8744bdfb831ab21f1d5a64, type: 3}
    - {fileID: 21300000, guid: 91a3eb5eb61424059961edd285d01090, type: 3}
    - {fileID: 21300000, guid: c6db1f8324545414c95164a45d3375bf, type: 3}
    - {fileID: 21300000, guid: 8770905968dcc4e85960ed8809decf36, type: 3}
    - {fileID: 21300000, guid: c00a15b3958e24d8f9c31353733ab453, type: 3}
    - {fileID: 21300000, guid: ea06fd8d5930240d0a65062810be7d15, type: 3}
    - {fileID: 21300000, guid: 223da9deaa3d947e3af49e7efc508f8b, type: 3}
    - {fileID: 21300000, guid: a60bca01f1671471c876ff2be2aecec9, type: 3}
    - {fileID: 21300000, guid: c4a48064f51a44658913b90c9a0554ba, type: 3}
    - {fileID: 21300000, guid: e33cfb857e36b48c7b55ec0563d5c2cf, type: 3}
    - {fileID: 21300000, guid: 614fb4f6f67fe42548d26d3884a14593, type: 3}
    - {fileID: 21300000, guid: 81751111de90c4996958ab63ce6d1f09, type: 3}
    - {fileID: 21300000, guid: 969a5058820b34a46aee5ddc9899bee2, type: 3}
    - {fileID: 21300000, guid: e0aba34fdbda6492daf89fef49b4657f, type: 3}
    - {fileID: 21300000, guid: 7fdbccd33a2fc475cb0128e2485c2296, type: 3}
    - {fileID: 21300000, guid: 4394e16f5d65d4770bd4f1953fcc3fdf, type: 3}
    - {fileID: 21300000, guid: b8a2e41ace8d9403bbc88e3043f605b6, type: 3}
    - {fileID: 21300000, guid: a873a97c7fd5346bb9139a43815f7d21, type: 3}
    - {fileID: 21300000, guid: 233430457a6604955af22826df3c04aa, type: 3}
    - {fileID: 21300000, guid: 81d1c5c1add9f4f9e85720ca6e2b61e7, type: 3}
    - {fileID: 21300000, guid: 60efc0ae8b4184415b9fda6f047d8acb, type: 3}
    - {fileID: 21300000, guid: 4b4d3452c348d4980ab480b9ecba3b52, type: 3}
    - {fileID: 21300000, guid: 09c287c15222b458783f0a310acd2220, type: 3}
    - {fileID: 21300000, guid: 742a061715f1d4318a01499bef67984f, type: 3}
    - {fileID: 21300000, guid: b3141142de3d943cd8f953451502418e, type: 3}
  m_AnimationClipSettings:
    serializedVersion: 2
    m_AdditiveReferencePoseClip: {fileID: 0}
    m_AdditiveReferencePoseTime: 0
    m_StartTime: 0
    m_StopTime: 4.958333
    m_OrientationOffsetY: 0
    m_Level: 0
    m_CycleOffset: 0
    m_HasAdditiveReferencePose: 0
    m_LoopTime: 0
    m_LoopBlend: 0
    m_LoopBlendOrientation: 0
    m_LoopBlendPositionY: 0
    m_LoopBlendPositionXZ: 0
    m_KeepOriginalOrientation: 0
    m_KeepOriginalPositionY: 1
    m_KeepOriginalPositionXZ: 0
    m_HeightFromFeet: 0
    m_Mirror: 0
  m_EditorCurves: []
  m_EulerEditorCurves: []
  m_HasGenericRootTransform: 0
  m_HasMotionFloatCurves: 0
  m_GenerateMotionCurves: 0
  m_Events:
  - time: 1.5833334
    functionName: Yorokobi
    data: 
    objectReferenceParameter: {fileID: 0}
    floatParameter: 0
    intParameter: 0
    messageOptions: 0
  - time: 1.5833334
    functionName: MuteOn
    data: 
    objectReferenceParameter: {fileID: 0}
    floatParameter: 0
    intParameter: 0
    messageOptions: 0
