%YAML 1.1
%TAG !u! tag:unity3d.com,2011:
--- !u!74 &7400000
AnimationClip:
  m_ObjectHideFlags: 0
  m_PrefabParentObject: {fileID: 0}
  m_PrefabInternal: {fileID: 0}
  m_Name: 05_guru_02
  serializedVersion: 6
  m_Legacy: 0
  m_Compressed: 0
  m_UseHighQualityCurve: 1
  m_RotationCurves: []
  m_CompressedRotationCurves: []
  m_EulerCurves: []
  m_PositionCurves: []
  m_ScaleCurves: []
  m_FloatCurves: []
  m_PPtrCurves:
  - curve:
    - time: 0
      value: {fileID: 21300000, guid: 49c31ec2127ac421190aa85b242ac7ee, type: 3}
    - time: 0.083333336
      value: {fileID: 21300000, guid: aa045f7fe8b1942bf9cd2d72987c92c3, type: 3}
    - time: 0.16666667
      value: {fileID: 21300000, guid: 595a1bf5e42ab4db69b03b908fb2fb99, type: 3}
    - time: 0.25
      value: {fileID: 21300000, guid: 388e62623fe7c462fbb3197607e04ae4, type: 3}
    - time: 0.33333334
      value: {fileID: 21300000, guid: a77f7fc7ff0a646b69e768c431a69f4a, type: 3}
    - time: 0.41666666
      value: {fileID: 21300000, guid: fc324b630a0fa42edaa6065a3dbe825f, type: 3}
    - time: 0.5
      value: {fileID: 21300000, guid: 42fb08109af8542fcb728b81b66046f0, type: 3}
    - time: 0.5833333
      value: {fileID: 21300000, guid: cd39676dfe18f48959c4519c0005a326, type: 3}
    - time: 0.6666667
      value: {fileID: 21300000, guid: 1b535d9e7fd6245efae9b6aa01aca528, type: 3}
    - time: 0.75
      value: {fileID: 21300000, guid: 3b0ea6b97043f4aca8bbf25fc79bfb06, type: 3}
    - time: 0.7916667
      value: {fileID: 21300000, guid: dae7c98cd7ce04b8e9834bee1e9cb077, type: 3}
    attribute: m_Sprite
    path: 
    classID: 212
    script: {fileID: 0}
  m_SampleRate: 24
  m_WrapMode: 0
  m_Bounds:
    m_Center: {x: 0, y: 0, z: 0}
    m_Extent: {x: 0, y: 0, z: 0}
  m_ClipBindingConstant:
    genericBindings:
    - serializedVersion: 2
      path: 0
      attribute: 0
      script: {fileID: 0}
      typeID: 212
      customType: 23
      isPPtrCurve: 1
    pptrCurveMapping:
    - {fileID: 21300000, guid: 49c31ec2127ac421190aa85b242ac7ee, type: 3}
    - {fileID: 21300000, guid: aa045f7fe8b1942bf9cd2d72987c92c3, type: 3}
    - {fileID: 21300000, guid: 595a1bf5e42ab4db69b03b908fb2fb99, type: 3}
    - {fileID: 21300000, guid: 388e62623fe7c462fbb3197607e04ae4, type: 3}
    - {fileID: 21300000, guid: a77f7fc7ff0a646b69e768c431a69f4a, type: 3}
    - {fileID: 21300000, guid: fc324b630a0fa42edaa6065a3dbe825f, type: 3}
    - {fileID: 21300000, guid: 42fb08109af8542fcb728b81b66046f0, type: 3}
    - {fileID: 21300000, guid: cd39676dfe18f48959c4519c0005a326, type: 3}
    - {fileID: 21300000, guid: 1b535d9e7fd6245efae9b6aa01aca528, type: 3}
    - {fileID: 21300000, guid: 3b0ea6b97043f4aca8bbf25fc79bfb06, type: 3}
    - {fileID: 21300000, guid: dae7c98cd7ce04b8e9834bee1e9cb077, type: 3}
  m_AnimationClipSettings:
    serializedVersion: 2
    m_AdditiveReferencePoseClip: {fileID: 0}
    m_AdditiveReferencePoseTime: 0
    m_StartTime: 0
    m_StopTime: 0.8333333
    m_OrientationOffsetY: 0
    m_Level: 0
    m_CycleOffset: 0
    m_HasAdditiveReferencePose: 0
    m_LoopTime: 1
    m_LoopBlend: 0
    m_LoopBlendOrientation: 0
    m_LoopBlendPositionY: 0
    m_LoopBlendPositionXZ: 0
    m_KeepOriginalOrientation: 0
    m_KeepOriginalPositionY: 1
    m_KeepOriginalPositionXZ: 0
    m_HeightFromFeet: 0
    m_Mirror: 0
  m_EditorCurves: []
  m_EulerEditorCurves: []
  m_HasGenericRootTransform: 0
  m_HasMotionFloatCurves: 0
  m_GenerateMotionCurves: 0
  m_Events: []
