%YAML 1.1
%TAG !u! tag:unity3d.com,2011:
--- !u!74 &7400000
AnimationClip:
  m_ObjectHideFlags: 0
  m_PrefabParentObject: {fileID: 0}
  m_PrefabInternal: {fileID: 0}
  m_Name: 05_guru_to_bluereal
  serializedVersion: 6
  m_Legacy: 0
  m_Compressed: 0
  m_UseHighQualityCurve: 1
  m_RotationCurves: []
  m_CompressedRotationCurves: []
  m_EulerCurves: []
  m_PositionCurves: []
  m_ScaleCurves: []
  m_FloatCurves: []
  m_PPtrCurves:
  - curve:
    - time: 0
      value: {fileID: 21300000, guid: b5a8148e2451c41c6a722207c107a743, type: 3}
    - time: 0.083333336
      value: {fileID: 21300000, guid: 3939bcb95098a48078108f1d2c31d98b, type: 3}
    - time: 0.16666667
      value: {fileID: 21300000, guid: 27584f943183245878bfe9e0d08b3608, type: 3}
    - time: 0.25
      value: {fileID: 21300000, guid: b3004c344a32149c4884443efa2b403a, type: 3}
    - time: 0.33333334
      value: {fileID: 21300000, guid: e46b38008c95645b59199fc6f06667aa, type: 3}
    - time: 0.41666666
      value: {fileID: 21300000, guid: f921fd34ee5b94d3584a7da95c935046, type: 3}
    - time: 0.5
      value: {fileID: 21300000, guid: 1439fb691eeeb4be0b7c7f7d48ec5180, type: 3}
    - time: 0.5833333
      value: {fileID: 21300000, guid: 4ff39071bc21648d6b296e81311fc34d, type: 3}
    - time: 0.6666667
      value: {fileID: 21300000, guid: 16db1043b607b4dba8e7befafc1042cd, type: 3}
    - time: 0.75
      value: {fileID: 21300000, guid: 8c2dc8540ba5a48bf842f77b9eae679c, type: 3}
    - time: 0.8333333
      value: {fileID: 21300000, guid: 1ba64e4d450fe4b2d8eca38f7be39d6d, type: 3}
    - time: 0.9166667
      value: {fileID: 21300000, guid: 4763d7eba88094eefabbc852495fd330, type: 3}
    - time: 1
      value: {fileID: 21300000, guid: 947c3e8448a3b407aa7f62b83493c344, type: 3}
    - time: 1.0833334
      value: {fileID: 21300000, guid: 5a4cba6d83af943a584a966f176ca67d, type: 3}
    - time: 1.1666666
      value: {fileID: 21300000, guid: be1301da98c4f436ab047fd144995299, type: 3}
    - time: 1.25
      value: {fileID: 21300000, guid: abee89a5ba8444b50a457d894828e0e0, type: 3}
    - time: 1.3333334
      value: {fileID: 21300000, guid: 0c770f140270541f49bb3065a412aa87, type: 3}
    - time: 1.4166666
      value: {fileID: 21300000, guid: f8e83c8a30c794ddf8deb78ab49b6a8e, type: 3}
    - time: 1.5
      value: {fileID: 21300000, guid: 05689cb01408e4e718aaf0c635cd5d36, type: 3}
    - time: 1.5833334
      value: {fileID: 21300000, guid: 3623f21c0c2f74ad288152c951b6bb67, type: 3}
    - time: 1.6666666
      value: {fileID: 21300000, guid: 030618f5c3240493082b643a1f97b0c3, type: 3}
    - time: 1.75
      value: {fileID: 21300000, guid: 987e3bb980f854921ae124ce03a23162, type: 3}
    - time: 1.8333334
      value: {fileID: 21300000, guid: d6a4d9e59467b496294a2a58d64cbc96, type: 3}
    - time: 1.9166666
      value: {fileID: 21300000, guid: de8ecf78428e84a228ce648d8e9d3583, type: 3}
    - time: 2
      value: {fileID: 21300000, guid: 12e7467af9e4a483c9b8e962ec90441f, type: 3}
    - time: 2.0833333
      value: {fileID: 21300000, guid: ed1ff60a75d8d44ea85df013ddf42c37, type: 3}
    - time: 2.1666667
      value: {fileID: 21300000, guid: 85ce172f8b0964aa59671298b38ad3c2, type: 3}
    - time: 2.25
      value: {fileID: 21300000, guid: ec05406ae29c04d66a7aa1b3443d2583, type: 3}
    - time: 2.3333333
      value: {fileID: 21300000, guid: 03078ae30f32b4e4495fbc9b96ea0d3e, type: 3}
    - time: 2.4166667
      value: {fileID: 21300000, guid: bb63694ce7e9b4a62857e9faf7d56c9f, type: 3}
    - time: 2.5
      value: {fileID: 21300000, guid: bdb5a5610b7084d3f9331cc628094389, type: 3}
    - time: 2.5833333
      value: {fileID: 21300000, guid: 07398207577cf473d807765bfc856dd8, type: 3}
    - time: 2.6666667
      value: {fileID: 21300000, guid: de07bc7126ba5412a806f38229ba02bf, type: 3}
    - time: 2.75
      value: {fileID: 21300000, guid: 2851952c2bb844c30b6226329b7897c4, type: 3}
    - time: 2.8333333
      value: {fileID: 21300000, guid: c54a8bdaf1c714926aa33fce5632842d, type: 3}
    - time: 2.9166667
      value: {fileID: 21300000, guid: 40cff5478b0eb493ea8669126120ab7f, type: 3}
    - time: 3
      value: {fileID: 21300000, guid: 48f86ab31c1aa40e49fda0bf4d9caf96, type: 3}
    - time: 3.0833333
      value: {fileID: 21300000, guid: b104928580493474e9bdbfeee04f676c, type: 3}
    - time: 3.1666667
      value: {fileID: 21300000, guid: 1d08029fb78d84c8eaaf20370e47c2df, type: 3}
    - time: 3.25
      value: {fileID: 21300000, guid: d30d3ac3c04e74d6298b99c5421937fb, type: 3}
    - time: 3.3333333
      value: {fileID: 21300000, guid: c80475320de414a41a6eb3e5baf3be53, type: 3}
    - time: 3.4166667
      value: {fileID: 21300000, guid: e50a3ac7054994787a1c8d0a3203f7cb, type: 3}
    - time: 3.5
      value: {fileID: 21300000, guid: 75301b7a046b744089e2c064ec5296b9, type: 3}
    - time: 3.5833333
      value: {fileID: 21300000, guid: 54575258a2bb94ff585500075677db13, type: 3}
    - time: 3.6666667
      value: {fileID: 21300000, guid: 5658341ac5d0d495998585fae6f9ee6d, type: 3}
    - time: 3.75
      value: {fileID: 21300000, guid: c3e0482d23a82498f98f59e99aacc62b, type: 3}
    - time: 3.7916667
      value: {fileID: 21300000, guid: 0bd5e012cf8db4a5490d23df7b646fac, type: 3}
    - time: 3.8333333
      value: {fileID: 21300000, guid: 00bf1cfbbbf6540298b4d934995689fc, type: 3}
    - time: 3.875
      value: {fileID: 21300000, guid: 93693bf5ae16249e998cf1e4926978a7, type: 3}
    - time: 3.9166667
      value: {fileID: 21300000, guid: 67be68a688da3471895f7b47ab786188, type: 3}
    - time: 3.9583333
      value: {fileID: 21300000, guid: c3619736428d145dbb772917734b1f6d, type: 3}
    - time: 4
      value: {fileID: 21300000, guid: 6b5f8c37409c844e4bd4a57a92f06497, type: 3}
    - time: 4.0416665
      value: {fileID: 21300000, guid: 50649a79fe7c24ebe8dfd5ff5f281cd9, type: 3}
    - time: 4.0833335
      value: {fileID: 21300000, guid: d89edeca2c6dd436f9b1cbdd7aab7151, type: 3}
    - time: 4.125
      value: {fileID: 21300000, guid: a29373eefc28a4805974ee64351187a2, type: 3}
    - time: 4.1666665
      value: {fileID: 21300000, guid: c49c923c9b916471c830a04e24159951, type: 3}
    - time: 4.2083335
      value: {fileID: 21300000, guid: 96e4f0bd88f7b405fbaaf78315553bcb, type: 3}
    - time: 4.25
      value: {fileID: 21300000, guid: 5a33345e026c34e57a5e97f6234484bb, type: 3}
    - time: 4.2916665
      value: {fileID: 21300000, guid: 009723c3d52924981b56976c944cf991, type: 3}
    - time: 4.3333335
      value: {fileID: 21300000, guid: e7099bc479b5548b4875399eaeff0911, type: 3}
    - time: 4.375
      value: {fileID: 21300000, guid: ad773bc78e53d457780674bb87b8026e, type: 3}
    - time: 4.4166665
      value: {fileID: 21300000, guid: 8b40b41439ef34879ba13b489885f8c8, type: 3}
    - time: 4.4583335
      value: {fileID: 21300000, guid: 24aadec2a25d046018e895d2b0b5dd6a, type: 3}
    - time: 4.5
      value: {fileID: 21300000, guid: af02d77bf61734a3196dfb2a65aa767d, type: 3}
    - time: 4.5416665
      value: {fileID: 21300000, guid: d06aab311873b4b57ad3e3e64192a8e1, type: 3}
    - time: 4.5833335
      value: {fileID: 21300000, guid: c3d228725c37a487fad447ebc1f1f4c2, type: 3}
    - time: 4.625
      value: {fileID: 21300000, guid: f9dc873fcde1041448d4b130d5adc34b, type: 3}
    - time: 4.6666665
      value: {fileID: 21300000, guid: a721b88d80ccb40b68bdfe920297efcf, type: 3}
    - time: 4.7083335
      value: {fileID: 21300000, guid: af7ac805268fd4883b7ea5b88fab6b67, type: 3}
    - time: 4.75
      value: {fileID: 21300000, guid: c44ef40642f4d4a19badd2999a23c7ed, type: 3}
    - time: 4.7916665
      value: {fileID: 21300000, guid: 8ec40e3abee2345798119af154a9287f, type: 3}
    - time: 4.8333335
      value: {fileID: 21300000, guid: 90cda561cbd5d455fa5f60dce71b2f25, type: 3}
    - time: 4.875
      value: {fileID: 21300000, guid: a59abb4dff8284dcf964289fcc1a98b6, type: 3}
    - time: 4.9166665
      value: {fileID: 21300000, guid: 45663e72b53d140f5a77fab45d9eb883, type: 3}
    - time: 4.9583335
      value: {fileID: 21300000, guid: 1b5c3454ad467455087502394081739a, type: 3}
    - time: 5
      value: {fileID: 21300000, guid: 55847e392f86b46cc9e9ebea15d07aaf, type: 3}
    - time: 5.0416665
      value: {fileID: 21300000, guid: 3dd2561c9b442420ea6a03aebdbf8c26, type: 3}
    - time: 5.0833335
      value: {fileID: 21300000, guid: 957987fe938c7421b80d84a3982af984, type: 3}
    - time: 5.125
      value: {fileID: 21300000, guid: 07db0539585404b26b8bb82b5e0e927e, type: 3}
    - time: 5.1666665
      value: {fileID: 21300000, guid: 29f6e97cec5604e4f897cee1c80e5f48, type: 3}
    - time: 5.2083335
      value: {fileID: 21300000, guid: d60b97131a55a492aaf793895d155547, type: 3}
    - time: 5.25
      value: {fileID: 21300000, guid: 25b20955b1d994fdbbd70d122e036123, type: 3}
    - time: 5.2916665
      value: {fileID: 21300000, guid: de76582061e0042f8928149b6ad9a581, type: 3}
    - time: 5.3333335
      value: {fileID: 21300000, guid: 0735cdc0240eb41a583dce5cb68fcbf3, type: 3}
    - time: 5.375
      value: {fileID: 21300000, guid: b86f8b4e0fdca4527816a0f6c5084c81, type: 3}
    - time: 5.4166665
      value: {fileID: 21300000, guid: c7e995a0dfebe4993a69e34cd7f299c0, type: 3}
    - time: 5.4583335
      value: {fileID: 21300000, guid: 70c456f6873d646a7837eeb14fff85f1, type: 3}
    - time: 5.5
      value: {fileID: 21300000, guid: d8aa02304515f44559e78023e4df5492, type: 3}
    - time: 5.5416665
      value: {fileID: 21300000, guid: fd69e439c85734ad790b136acb9958aa, type: 3}
    - time: 5.5833335
      value: {fileID: 21300000, guid: 2cfc30e0a432f4bab8d1d29ed7c7b43a, type: 3}
    - time: 5.625
      value: {fileID: 21300000, guid: 25070c8fb4bc349299c0ff94a19db707, type: 3}
    - time: 5.6666665
      value: {fileID: 21300000, guid: 99faeaeee556746289d3b8227dd13385, type: 3}
    - time: 5.7083335
      value: {fileID: 21300000, guid: 46e281d32964c4b6cb8f696013f3d6da, type: 3}
    - time: 5.75
      value: {fileID: 21300000, guid: 4420bbeb7794e400d8ea770ec20a8aba, type: 3}
    - time: 5.7916665
      value: {fileID: 21300000, guid: fb420e4bdc1ef4c8a846367513191129, type: 3}
    - time: 5.8333335
      value: {fileID: 21300000, guid: 799a164ad40bd4a3792e866bc801ad0e, type: 3}
    - time: 5.875
      value: {fileID: 21300000, guid: b1f481508da944c2facf4f0a0d41f052, type: 3}
    - time: 5.9166665
      value: {fileID: 21300000, guid: 2e5cf1d40a4354a678db8739b38f3d9d, type: 3}
    - time: 5.9583335
      value: {fileID: 21300000, guid: e3380ee3891e143de953fab090fceb69, type: 3}
    - time: 6
      value: {fileID: 21300000, guid: 1b39f91eb5c93499484bb02c010cf2b0, type: 3}
    - time: 6.0416665
      value: {fileID: 21300000, guid: 8e9b578f1386d46f9828dca7481e7762, type: 3}
    - time: 6.0833335
      value: {fileID: 21300000, guid: a0eef0aef6ad549e7b0f1b72492dddec, type: 3}
    - time: 6.125
      value: {fileID: 21300000, guid: 41d6856543f444edd9fdab5275c0d955, type: 3}
    - time: 6.1666665
      value: {fileID: 21300000, guid: e43d5d06b0a2547c5847c9fca33fade8, type: 3}
    - time: 6.2083335
      value: {fileID: 21300000, guid: 061d8452facdc47e896ff9bb91b9a4e5, type: 3}
    - time: 6.25
      value: {fileID: 21300000, guid: d694c91b4ae5d460daba53b32bae6b59, type: 3}
    - time: 6.2916665
      value: {fileID: 21300000, guid: e5f38e41789fe416d960ff6a50a21a50, type: 3}
    - time: 6.3333335
      value: {fileID: 21300000, guid: 1684a52f255784176a40544eafc20a56, type: 3}
    - time: 6.375
      value: {fileID: 21300000, guid: 008a17106a33148ec903dc8b7466539d, type: 3}
    - time: 6.4166665
      value: {fileID: 21300000, guid: 021770c3c14724152895a87f34fdac74, type: 3}
    - time: 6.4583335
      value: {fileID: 21300000, guid: 02c9293fc1210490192425c3c20bcefd, type: 3}
    - time: 6.5
      value: {fileID: 21300000, guid: 7de0ee819756240399cdc3575ac9a26c, type: 3}
    - time: 6.5416665
      value: {fileID: 21300000, guid: b1e2d818b12404d41939080e2943151a, type: 3}
    - time: 6.5833335
      value: {fileID: 21300000, guid: f9d7d34df57da4fbca422085ec3e9db1, type: 3}
    - time: 6.625
      value: {fileID: 21300000, guid: 71a76ff42f4024fba9ba1d46d445eca0, type: 3}
    - time: 6.6666665
      value: {fileID: 21300000, guid: e10fdfc0c62e648d2b5712ac0aa9440a, type: 3}
    - time: 6.7083335
      value: {fileID: 21300000, guid: 080ee16f5fc1941d48a74e93abf8f050, type: 3}
    - time: 6.75
      value: {fileID: 21300000, guid: ffd6901a866854429ab5c60e71856c47, type: 3}
    - time: 6.7916665
      value: {fileID: 21300000, guid: 8a2947ccd13a34373b47071603e858da, type: 3}
    - time: 6.8333335
      value: {fileID: 21300000, guid: 871e3b12204a64c76b2c3b7f1b303bd0, type: 3}
    - time: 6.875
      value: {fileID: 21300000, guid: 16ae63536e0e54c2d9d8a2e73cfe2653, type: 3}
    - time: 6.9166665
      value: {fileID: 21300000, guid: 3cc3abf00a8964862aac0407b2d8d5d8, type: 3}
    - time: 6.9583335
      value: {fileID: 21300000, guid: 2e1acbdd0a210474c99e0e7b9af1fcde, type: 3}
    - time: 7
      value: {fileID: 21300000, guid: 85418d9a4bbf44c75825cc6fc5e5e10a, type: 3}
    - time: 7.0416665
      value: {fileID: 21300000, guid: 73d9be0280ae44a17a80f8a084d6766b, type: 3}
    - time: 7.0833335
      value: {fileID: 21300000, guid: fa05b48d234424b858b365971189bd21, type: 3}
    - time: 7.125
      value: {fileID: 21300000, guid: 02529293e7a6344f78213c94340728e6, type: 3}
    - time: 7.1666665
      value: {fileID: 21300000, guid: 1080f9ed0baa64317baae42e095ea997, type: 3}
    - time: 7.2083335
      value: {fileID: 21300000, guid: 1616022ea8817415c937f16151f6ee79, type: 3}
    attribute: m_Sprite
    path: 
    classID: 212
    script: {fileID: 0}
  m_SampleRate: 24
  m_WrapMode: 0
  m_Bounds:
    m_Center: {x: 0, y: 0, z: 0}
    m_Extent: {x: 0, y: 0, z: 0}
  m_ClipBindingConstant:
    genericBindings:
    - serializedVersion: 2
      path: 0
      attribute: 0
      script: {fileID: 0}
      typeID: 212
      customType: 23
      isPPtrCurve: 1
    pptrCurveMapping:
    - {fileID: 21300000, guid: b5a8148e2451c41c6a722207c107a743, type: 3}
    - {fileID: 21300000, guid: 3939bcb95098a48078108f1d2c31d98b, type: 3}
    - {fileID: 21300000, guid: 27584f943183245878bfe9e0d08b3608, type: 3}
    - {fileID: 21300000, guid: b3004c344a32149c4884443efa2b403a, type: 3}
    - {fileID: 21300000, guid: e46b38008c95645b59199fc6f06667aa, type: 3}
    - {fileID: 21300000, guid: f921fd34ee5b94d3584a7da95c935046, type: 3}
    - {fileID: 21300000, guid: 1439fb691eeeb4be0b7c7f7d48ec5180, type: 3}
    - {fileID: 21300000, guid: 4ff39071bc21648d6b296e81311fc34d, type: 3}
    - {fileID: 21300000, guid: 16db1043b607b4dba8e7befafc1042cd, type: 3}
    - {fileID: 21300000, guid: 8c2dc8540ba5a48bf842f77b9eae679c, type: 3}
    - {fileID: 21300000, guid: 1ba64e4d450fe4b2d8eca38f7be39d6d, type: 3}
    - {fileID: 21300000, guid: 4763d7eba88094eefabbc852495fd330, type: 3}
    - {fileID: 21300000, guid: 947c3e8448a3b407aa7f62b83493c344, type: 3}
    - {fileID: 21300000, guid: 5a4cba6d83af943a584a966f176ca67d, type: 3}
    - {fileID: 21300000, guid: be1301da98c4f436ab047fd144995299, type: 3}
    - {fileID: 21300000, guid: abee89a5ba8444b50a457d894828e0e0, type: 3}
    - {fileID: 21300000, guid: 0c770f140270541f49bb3065a412aa87, type: 3}
    - {fileID: 21300000, guid: f8e83c8a30c794ddf8deb78ab49b6a8e, type: 3}
    - {fileID: 21300000, guid: 05689cb01408e4e718aaf0c635cd5d36, type: 3}
    - {fileID: 21300000, guid: 3623f21c0c2f74ad288152c951b6bb67, type: 3}
    - {fileID: 21300000, guid: 030618f5c3240493082b643a1f97b0c3, type: 3}
    - {fileID: 21300000, guid: 987e3bb980f854921ae124ce03a23162, type: 3}
    - {fileID: 21300000, guid: d6a4d9e59467b496294a2a58d64cbc96, type: 3}
    - {fileID: 21300000, guid: de8ecf78428e84a228ce648d8e9d3583, type: 3}
    - {fileID: 21300000, guid: 12e7467af9e4a483c9b8e962ec90441f, type: 3}
    - {fileID: 21300000, guid: ed1ff60a75d8d44ea85df013ddf42c37, type: 3}
    - {fileID: 21300000, guid: 85ce172f8b0964aa59671298b38ad3c2, type: 3}
    - {fileID: 21300000, guid: ec05406ae29c04d66a7aa1b3443d2583, type: 3}
    - {fileID: 21300000, guid: 03078ae30f32b4e4495fbc9b96ea0d3e, type: 3}
    - {fileID: 21300000, guid: bb63694ce7e9b4a62857e9faf7d56c9f, type: 3}
    - {fileID: 21300000, guid: bdb5a5610b7084d3f9331cc628094389, type: 3}
    - {fileID: 21300000, guid: 07398207577cf473d807765bfc856dd8, type: 3}
    - {fileID: 21300000, guid: de07bc7126ba5412a806f38229ba02bf, type: 3}
    - {fileID: 21300000, guid: 2851952c2bb844c30b6226329b7897c4, type: 3}
    - {fileID: 21300000, guid: c54a8bdaf1c714926aa33fce5632842d, type: 3}
    - {fileID: 21300000, guid: 40cff5478b0eb493ea8669126120ab7f, type: 3}
    - {fileID: 21300000, guid: 48f86ab31c1aa40e49fda0bf4d9caf96, type: 3}
    - {fileID: 21300000, guid: b104928580493474e9bdbfeee04f676c, type: 3}
    - {fileID: 21300000, guid: 1d08029fb78d84c8eaaf20370e47c2df, type: 3}
    - {fileID: 21300000, guid: d30d3ac3c04e74d6298b99c5421937fb, type: 3}
    - {fileID: 21300000, guid: c80475320de414a41a6eb3e5baf3be53, type: 3}
    - {fileID: 21300000, guid: e50a3ac7054994787a1c8d0a3203f7cb, type: 3}
    - {fileID: 21300000, guid: 75301b7a046b744089e2c064ec5296b9, type: 3}
    - {fileID: 21300000, guid: 54575258a2bb94ff585500075677db13, type: 3}
    - {fileID: 21300000, guid: 5658341ac5d0d495998585fae6f9ee6d, type: 3}
    - {fileID: 21300000, guid: c3e0482d23a82498f98f59e99aacc62b, type: 3}
    - {fileID: 21300000, guid: 0bd5e012cf8db4a5490d23df7b646fac, type: 3}
    - {fileID: 21300000, guid: 00bf1cfbbbf6540298b4d934995689fc, type: 3}
    - {fileID: 21300000, guid: 93693bf5ae16249e998cf1e4926978a7, type: 3}
    - {fileID: 21300000, guid: 67be68a688da3471895f7b47ab786188, type: 3}
    - {fileID: 21300000, guid: c3619736428d145dbb772917734b1f6d, type: 3}
    - {fileID: 21300000, guid: 6b5f8c37409c844e4bd4a57a92f06497, type: 3}
    - {fileID: 21300000, guid: 50649a79fe7c24ebe8dfd5ff5f281cd9, type: 3}
    - {fileID: 21300000, guid: d89edeca2c6dd436f9b1cbdd7aab7151, type: 3}
    - {fileID: 21300000, guid: a29373eefc28a4805974ee64351187a2, type: 3}
    - {fileID: 21300000, guid: c49c923c9b916471c830a04e24159951, type: 3}
    - {fileID: 21300000, guid: 96e4f0bd88f7b405fbaaf78315553bcb, type: 3}
    - {fileID: 21300000, guid: 5a33345e026c34e57a5e97f6234484bb, type: 3}
    - {fileID: 21300000, guid: 009723c3d52924981b56976c944cf991, type: 3}
    - {fileID: 21300000, guid: e7099bc479b5548b4875399eaeff0911, type: 3}
    - {fileID: 21300000, guid: ad773bc78e53d457780674bb87b8026e, type: 3}
    - {fileID: 21300000, guid: 8b40b41439ef34879ba13b489885f8c8, type: 3}
    - {fileID: 21300000, guid: 24aadec2a25d046018e895d2b0b5dd6a, type: 3}
    - {fileID: 21300000, guid: af02d77bf61734a3196dfb2a65aa767d, type: 3}
    - {fileID: 21300000, guid: d06aab311873b4b57ad3e3e64192a8e1, type: 3}
    - {fileID: 21300000, guid: c3d228725c37a487fad447ebc1f1f4c2, type: 3}
    - {fileID: 21300000, guid: f9dc873fcde1041448d4b130d5adc34b, type: 3}
    - {fileID: 21300000, guid: a721b88d80ccb40b68bdfe920297efcf, type: 3}
    - {fileID: 21300000, guid: af7ac805268fd4883b7ea5b88fab6b67, type: 3}
    - {fileID: 21300000, guid: c44ef40642f4d4a19badd2999a23c7ed, type: 3}
    - {fileID: 21300000, guid: 8ec40e3abee2345798119af154a9287f, type: 3}
    - {fileID: 21300000, guid: 90cda561cbd5d455fa5f60dce71b2f25, type: 3}
    - {fileID: 21300000, guid: a59abb4dff8284dcf964289fcc1a98b6, type: 3}
    - {fileID: 21300000, guid: 45663e72b53d140f5a77fab45d9eb883, type: 3}
    - {fileID: 21300000, guid: 1b5c3454ad467455087502394081739a, type: 3}
    - {fileID: 21300000, guid: 55847e392f86b46cc9e9ebea15d07aaf, type: 3}
    - {fileID: 21300000, guid: 3dd2561c9b442420ea6a03aebdbf8c26, type: 3}
    - {fileID: 21300000, guid: 957987fe938c7421b80d84a3982af984, type: 3}
    - {fileID: 21300000, guid: 07db0539585404b26b8bb82b5e0e927e, type: 3}
    - {fileID: 21300000, guid: 29f6e97cec5604e4f897cee1c80e5f48, type: 3}
    - {fileID: 21300000, guid: d60b97131a55a492aaf793895d155547, type: 3}
    - {fileID: 21300000, guid: 25b20955b1d994fdbbd70d122e036123, type: 3}
    - {fileID: 21300000, guid: de76582061e0042f8928149b6ad9a581, type: 3}
    - {fileID: 21300000, guid: 0735cdc0240eb41a583dce5cb68fcbf3, type: 3}
    - {fileID: 21300000, guid: b86f8b4e0fdca4527816a0f6c5084c81, type: 3}
    - {fileID: 21300000, guid: c7e995a0dfebe4993a69e34cd7f299c0, type: 3}
    - {fileID: 21300000, guid: 70c456f6873d646a7837eeb14fff85f1, type: 3}
    - {fileID: 21300000, guid: d8aa02304515f44559e78023e4df5492, type: 3}
    - {fileID: 21300000, guid: fd69e439c85734ad790b136acb9958aa, type: 3}
    - {fileID: 21300000, guid: 2cfc30e0a432f4bab8d1d29ed7c7b43a, type: 3}
    - {fileID: 21300000, guid: 25070c8fb4bc349299c0ff94a19db707, type: 3}
    - {fileID: 21300000, guid: 99faeaeee556746289d3b8227dd13385, type: 3}
    - {fileID: 21300000, guid: 46e281d32964c4b6cb8f696013f3d6da, type: 3}
    - {fileID: 21300000, guid: 4420bbeb7794e400d8ea770ec20a8aba, type: 3}
    - {fileID: 21300000, guid: fb420e4bdc1ef4c8a846367513191129, type: 3}
    - {fileID: 21300000, guid: 799a164ad40bd4a3792e866bc801ad0e, type: 3}
    - {fileID: 21300000, guid: b1f481508da944c2facf4f0a0d41f052, type: 3}
    - {fileID: 21300000, guid: 2e5cf1d40a4354a678db8739b38f3d9d, type: 3}
    - {fileID: 21300000, guid: e3380ee3891e143de953fab090fceb69, type: 3}
    - {fileID: 21300000, guid: 1b39f91eb5c93499484bb02c010cf2b0, type: 3}
    - {fileID: 21300000, guid: 8e9b578f1386d46f9828dca7481e7762, type: 3}
    - {fileID: 21300000, guid: a0eef0aef6ad549e7b0f1b72492dddec, type: 3}
    - {fileID: 21300000, guid: 41d6856543f444edd9fdab5275c0d955, type: 3}
    - {fileID: 21300000, guid: e43d5d06b0a2547c5847c9fca33fade8, type: 3}
    - {fileID: 21300000, guid: 061d8452facdc47e896ff9bb91b9a4e5, type: 3}
    - {fileID: 21300000, guid: d694c91b4ae5d460daba53b32bae6b59, type: 3}
    - {fileID: 21300000, guid: e5f38e41789fe416d960ff6a50a21a50, type: 3}
    - {fileID: 21300000, guid: 1684a52f255784176a40544eafc20a56, type: 3}
    - {fileID: 21300000, guid: 008a17106a33148ec903dc8b7466539d, type: 3}
    - {fileID: 21300000, guid: 021770c3c14724152895a87f34fdac74, type: 3}
    - {fileID: 21300000, guid: 02c9293fc1210490192425c3c20bcefd, type: 3}
    - {fileID: 21300000, guid: 7de0ee819756240399cdc3575ac9a26c, type: 3}
    - {fileID: 21300000, guid: b1e2d818b12404d41939080e2943151a, type: 3}
    - {fileID: 21300000, guid: f9d7d34df57da4fbca422085ec3e9db1, type: 3}
    - {fileID: 21300000, guid: 71a76ff42f4024fba9ba1d46d445eca0, type: 3}
    - {fileID: 21300000, guid: e10fdfc0c62e648d2b5712ac0aa9440a, type: 3}
    - {fileID: 21300000, guid: 080ee16f5fc1941d48a74e93abf8f050, type: 3}
    - {fileID: 21300000, guid: ffd6901a866854429ab5c60e71856c47, type: 3}
    - {fileID: 21300000, guid: 8a2947ccd13a34373b47071603e858da, type: 3}
    - {fileID: 21300000, guid: 871e3b12204a64c76b2c3b7f1b303bd0, type: 3}
    - {fileID: 21300000, guid: 16ae63536e0e54c2d9d8a2e73cfe2653, type: 3}
    - {fileID: 21300000, guid: 3cc3abf00a8964862aac0407b2d8d5d8, type: 3}
    - {fileID: 21300000, guid: 2e1acbdd0a210474c99e0e7b9af1fcde, type: 3}
    - {fileID: 21300000, guid: 85418d9a4bbf44c75825cc6fc5e5e10a, type: 3}
    - {fileID: 21300000, guid: 73d9be0280ae44a17a80f8a084d6766b, type: 3}
    - {fileID: 21300000, guid: fa05b48d234424b858b365971189bd21, type: 3}
    - {fileID: 21300000, guid: 02529293e7a6344f78213c94340728e6, type: 3}
    - {fileID: 21300000, guid: 1080f9ed0baa64317baae42e095ea997, type: 3}
    - {fileID: 21300000, guid: 1616022ea8817415c937f16151f6ee79, type: 3}
  m_AnimationClipSettings:
    serializedVersion: 2
    m_AdditiveReferencePoseClip: {fileID: 0}
    m_AdditiveReferencePoseTime: 0
    m_StartTime: 0
    m_StopTime: 7.25
    m_OrientationOffsetY: 0
    m_Level: 0
    m_CycleOffset: 0
    m_HasAdditiveReferencePose: 0
    m_LoopTime: 0
    m_LoopBlend: 0
    m_LoopBlendOrientation: 0
    m_LoopBlendPositionY: 0
    m_LoopBlendPositionXZ: 0
    m_KeepOriginalOrientation: 0
    m_KeepOriginalPositionY: 1
    m_KeepOriginalPositionXZ: 0
    m_HeightFromFeet: 0
    m_Mirror: 0
  m_EditorCurves: []
  m_EulerEditorCurves: []
  m_HasGenericRootTransform: 0
  m_HasMotionFloatCurves: 0
  m_GenerateMotionCurves: 0
  m_Events:
  - time: 7.2083335
    functionName: AfterPika
    data: 
    objectReferenceParameter: {fileID: 0}
    floatParameter: 0
    intParameter: 0
    messageOptions: 0
  - time: 7.2083335
    functionName: KirakiraSound
    data: 
    objectReferenceParameter: {fileID: 0}
    floatParameter: 0
    intParameter: 1
    messageOptions: 0
