%YAML 1.1
%TAG !u! tag:unity3d.com,2011:
--- !u!74 &7400000
AnimationClip:
  m_ObjectHideFlags: 0
  m_PrefabParentObject: {fileID: 0}
  m_PrefabInternal: {fileID: 0}
  m_Name: 06_nem_way04_back
  serializedVersion: 6
  m_Legacy: 0
  m_Compressed: 0
  m_UseHighQualityCurve: 1
  m_RotationCurves: []
  m_CompressedRotationCurves: []
  m_EulerCurves: []
  m_PositionCurves: []
  m_ScaleCurves: []
  m_FloatCurves: []
  m_PPtrCurves:
  - curve:
    - time: 0
      value: {fileID: 21300000, guid: 2e2fe4b22ce8148368495b46c07e282f, type: 3}
    - time: 0.041666668
      value: {fileID: 21300000, guid: 63f8197dd96274e7aac6c4d540b57eca, type: 3}
    - time: 0.125
      value: {fileID: 21300000, guid: 558b92740c85b434b86d248f22e32834, type: 3}
    - time: 0.20833333
      value: {fileID: 21300000, guid: 059ab5178821b44b08ede4165dc42770, type: 3}
    - time: 0.29166666
      value: {fileID: 21300000, guid: 6c28dcba2279a4289b3fe74318cb6a8e, type: 3}
    - time: 0.375
      value: {fileID: 21300000, guid: ec331373acdc64383aa330a97a731f33, type: 3}
    - time: 0.45833334
      value: {fileID: 21300000, guid: eaf5e9dab46b34121aa0a7087d88e401, type: 3}
    - time: 0.5416667
      value: {fileID: 21300000, guid: 46ca8559c2c3d4b3fb10cac020729f06, type: 3}
    - time: 0.625
      value: {fileID: 21300000, guid: 56c1490996f4e4879b411cc3824b7105, type: 3}
    - time: 0.7083333
      value: {fileID: 21300000, guid: 9727aa8b90ce34299ab56b74e841e991, type: 3}
    - time: 0.75
      value: {fileID: 21300000, guid: 2274d3535f56f46efaa03fd6534fe3b3, type: 3}
    attribute: m_Sprite
    path: 
    classID: 212
    script: {fileID: 0}
  m_SampleRate: 24
  m_WrapMode: 0
  m_Bounds:
    m_Center: {x: 0, y: 0, z: 0}
    m_Extent: {x: 0, y: 0, z: 0}
  m_ClipBindingConstant:
    genericBindings:
    - serializedVersion: 2
      path: 0
      attribute: 0
      script: {fileID: 0}
      typeID: 212
      customType: 23
      isPPtrCurve: 1
    pptrCurveMapping:
    - {fileID: 21300000, guid: 2e2fe4b22ce8148368495b46c07e282f, type: 3}
    - {fileID: 21300000, guid: 63f8197dd96274e7aac6c4d540b57eca, type: 3}
    - {fileID: 21300000, guid: 558b92740c85b434b86d248f22e32834, type: 3}
    - {fileID: 21300000, guid: 059ab5178821b44b08ede4165dc42770, type: 3}
    - {fileID: 21300000, guid: 6c28dcba2279a4289b3fe74318cb6a8e, type: 3}
    - {fileID: 21300000, guid: ec331373acdc64383aa330a97a731f33, type: 3}
    - {fileID: 21300000, guid: eaf5e9dab46b34121aa0a7087d88e401, type: 3}
    - {fileID: 21300000, guid: 46ca8559c2c3d4b3fb10cac020729f06, type: 3}
    - {fileID: 21300000, guid: 56c1490996f4e4879b411cc3824b7105, type: 3}
    - {fileID: 21300000, guid: 9727aa8b90ce34299ab56b74e841e991, type: 3}
    - {fileID: 21300000, guid: 2274d3535f56f46efaa03fd6534fe3b3, type: 3}
  m_AnimationClipSettings:
    serializedVersion: 2
    m_AdditiveReferencePoseClip: {fileID: 0}
    m_AdditiveReferencePoseTime: 0
    m_StartTime: 0
    m_StopTime: 0.7916667
    m_OrientationOffsetY: 0
    m_Level: 0
    m_CycleOffset: 0
    m_HasAdditiveReferencePose: 0
    m_LoopTime: 0
    m_LoopBlend: 0
    m_LoopBlendOrientation: 0
    m_LoopBlendPositionY: 0
    m_LoopBlendPositionXZ: 0
    m_KeepOriginalOrientation: 0
    m_KeepOriginalPositionY: 1
    m_KeepOriginalPositionXZ: 0
    m_HeightFromFeet: 0
    m_Mirror: 0
  m_EditorCurves: []
  m_EulerEditorCurves: []
  m_HasGenericRootTransform: 0
  m_HasMotionFloatCurves: 0
  m_GenerateMotionCurves: 0
  m_Events:
  - time: 0.75
    functionName: AfterWakeUp
    data: 
    objectReferenceParameter: {fileID: 0}
    floatParameter: 0
    intParameter: 0
    messageOptions: 0
