%YAML 1.1
%TAG !u! tag:unity3d.com,2011:
--- !u!74 &7400000
AnimationClip:
  m_ObjectHideFlags: 0
  m_PrefabParentObject: {fileID: 0}
  m_PrefabInternal: {fileID: 0}
  m_Name: 06_frame_out
  serializedVersion: 6
  m_Legacy: 0
  m_Compressed: 0
  m_UseHighQualityCurve: 1
  m_RotationCurves: []
  m_CompressedRotationCurves: []
  m_EulerCurves: []
  m_PositionCurves: []
  m_ScaleCurves: []
  m_FloatCurves: []
  m_PPtrCurves:
  - curve:
    - time: 0
      value: {fileID: 21300000, guid: 86d3497ff274648eda65e324a90744aa, type: 3}
    - time: 0.083333336
      value: {fileID: 21300000, guid: 7488b2df6ccf94943930e4ac99979b95, type: 3}
    - time: 0.16666667
      value: {fileID: 21300000, guid: 7105b59fbc67f4f21bc6017a25aa7187, type: 3}
    - time: 0.25
      value: {fileID: 21300000, guid: 89c7a4617d55e4984b1e62131ba61e26, type: 3}
    - time: 0.33333334
      value: {fileID: 21300000, guid: 94db26be07eb8455286210b8e70ae469, type: 3}
    - time: 0.41666666
      value: {fileID: 21300000, guid: 7bd5316d509e143499e9b02e2fa40162, type: 3}
    - time: 0.5
      value: {fileID: 21300000, guid: 7d2bcb92377ae41d6bdd580849157300, type: 3}
    - time: 1
      value: {fileID: 21300000, guid: 655f69e32f7604ec98d6982d40fc509c, type: 3}
    - time: 1.125
      value: {fileID: 21300000, guid: 372a25e64a747431e94ff8b88488945d, type: 3}
    - time: 1.25
      value: {fileID: 21300000, guid: d6aa72679c58040529dbfc38f48e2b5a, type: 3}
    - time: 1.3333334
      value: {fileID: 21300000, guid: 2b2c7bdc82cdd40a2980ca72d4421aa9, type: 3}
    - time: 1.5
      value: {fileID: 21300000, guid: ed6874fc2604145f49e1b6682d7a3c55, type: 3}
    - time: 1.5833334
      value: {fileID: 21300000, guid: 2bcc7cb214fe6489e82a9158602531c3, type: 3}
    - time: 1.6666666
      value: {fileID: 21300000, guid: 62152dcaeb2a94f96822214b0cf6e5ef, type: 3}
    - time: 1.75
      value: {fileID: 21300000, guid: 2c9097e4f796d4fff8afa1408664a8dd, type: 3}
    - time: 1.9166666
      value: {fileID: 21300000, guid: 67c7ec92d2f1a44c1a89b95ba6673807, type: 3}
    - time: 2
      value: {fileID: 21300000, guid: be7e05f619d9244969d16cda81cd8158, type: 3}
    - time: 2.0833333
      value: {fileID: 21300000, guid: 4ffd15737fa1b4fd3816037c4571c4fa, type: 3}
    - time: 2.1666667
      value: {fileID: 21300000, guid: 1097e8dd80a6a4481a84dd0171c87cba, type: 3}
    - time: 2.3333333
      value: {fileID: 21300000, guid: 72e6879c062a0490bb25b7f02d7e1fa3, type: 3}
    - time: 2.4166667
      value: {fileID: 21300000, guid: f62988884f05642ef8fbe88854efbaf4, type: 3}
    - time: 2.5
      value: {fileID: 21300000, guid: 726c946d1e79447b8a825819208a84ce, type: 3}
    - time: 2.5833333
      value: {fileID: 21300000, guid: 083685400518f46dd861174bfca9b41a, type: 3}
    - time: 2.75
      value: {fileID: 21300000, guid: 14954cc6e90a146e891006b997ea77e5, type: 3}
    - time: 2.8333333
      value: {fileID: 21300000, guid: 8fb4032bb6d67411d9d7be2d4574640c, type: 3}
    - time: 2.9166667
      value: {fileID: 21300000, guid: dbc0c700f3f9c4ebe8c6f150bdf8021c, type: 3}
    - time: 3
      value: {fileID: 21300000, guid: 5889a53cc344f4a678b80fd1949f01d5, type: 3}
    - time: 3.125
      value: {fileID: 21300000, guid: 05bd1983767b64c519edada2514bf71f, type: 3}
    - time: 3.2083333
      value: {fileID: 21300000, guid: 6edb3a31210d84446a85eb0ff44b5abe, type: 3}
    - time: 3.2916667
      value: {fileID: 21300000, guid: dcaf16851c4a2442584f042dda57f2a2, type: 3}
    - time: 3.375
      value: {fileID: 21300000, guid: 6b634c1e7633b482cb40422caa6f43f9, type: 3}
    - time: 3.5
      value: {fileID: 21300000, guid: 03f4f28a3e1ee4158a3ed84bcd8e5eb0, type: 3}
    - time: 3.5833333
      value: {fileID: 21300000, guid: 5e45d172a2d51412999830af75781574, type: 3}
    - time: 3.6666667
      value: {fileID: 21300000, guid: fd458deaed616454b81008f795b788c2, type: 3}
    - time: 3.75
      value: {fileID: 21300000, guid: 1e98f4d7d6cc344ff964e6cdbff5a545, type: 3}
    - time: 3.875
      value: {fileID: 21300000, guid: 8ac120d44d21b4abdafb1969cf520a25, type: 3}
    - time: 3.9583333
      value: {fileID: 21300000, guid: f29c7930219ef423fb7ac7888d90ebc5, type: 3}
    - time: 4.0416665
      value: {fileID: 21300000, guid: d198196a332dd442198b37c319df7cc9, type: 3}
    - time: 4.125
      value: {fileID: 21300000, guid: 1f0a62be20c75486b87f1f7a9cda68d3, type: 3}
    - time: 4.25
      value: {fileID: 21300000, guid: e27608512879f4a06b4500084af41b8a, type: 3}
    - time: 4.3333335
      value: {fileID: 21300000, guid: e72e37f06cc7f42d7a7a06c386737ebf, type: 3}
    - time: 4.4166665
      value: {fileID: 21300000, guid: c226d1cea257b4dffa894e80921d0f19, type: 3}
    - time: 4.5
      value: {fileID: 21300000, guid: d3b73aeb870ab4330990b99ad725518e, type: 3}
    - time: 4.625
      value: {fileID: 21300000, guid: 1325cdddb96bd4e27b0d90e2dfc09f6d, type: 3}
    - time: 4.7083335
      value: {fileID: 21300000, guid: e0e6b33bb2efb49208d1a8973cc53c3f, type: 3}
    - time: 4.7916665
      value: {fileID: 21300000, guid: 4961ea08e416c46d9919aa3d7bbad520, type: 3}
    - time: 4.875
      value: {fileID: 21300000, guid: bf5f8d8fcd30440cb83652534682691b, type: 3}
    - time: 5
      value: {fileID: 21300000, guid: 37d7ff2403455409b9d784ee626de342, type: 3}
    - time: 5.0833335
      value: {fileID: 21300000, guid: 7ffc87d0f4a4d42718c87dbfec455c4f, type: 3}
    - time: 5.1666665
      value: {fileID: 21300000, guid: 5dad6b0a8bb7a485db446fe947db65cc, type: 3}
    - time: 5.25
      value: {fileID: 21300000, guid: 102eaee25bcf144ba80f69f9c6c54597, type: 3}
    - time: 5.375
      value: {fileID: 21300000, guid: b316a8b362f2945eab7caba71615029b, type: 3}
    - time: 5.4583335
      value: {fileID: 21300000, guid: 8eafc6fe1e5a84e399613a0680c6646f, type: 3}
    - time: 5.5416665
      value: {fileID: 21300000, guid: e93304138bb2b41ab8489d0b7d163eea, type: 3}
    - time: 5.625
      value: {fileID: 21300000, guid: bb87b33a0c1ce4ab3aaf22fa00af0810, type: 3}
    - time: 5.75
      value: {fileID: 21300000, guid: 989d84adc16a94052a299d3348359ad7, type: 3}
    - time: 5.8333335
      value: {fileID: 21300000, guid: 6fe4554d8368e439cb29b4b62cac236b, type: 3}
    - time: 5.9166665
      value: {fileID: 21300000, guid: c81da88e90ab54f1499408ad7c8841ab, type: 3}
    - time: 6
      value: {fileID: 21300000, guid: 61a101617eba3443394730c83a3b55df, type: 3}
    - time: 6.125
      value: {fileID: 21300000, guid: c1d06e155a56d41a5aa1c45e28efcca3, type: 3}
    - time: 6.2083335
      value: {fileID: 21300000, guid: 29397f3434c6c48c8b7d3c5dc3593ef6, type: 3}
    - time: 6.2916665
      value: {fileID: 21300000, guid: 149be6d7d027c444eb974657d0fdd0e1, type: 3}
    - time: 6.375
      value: {fileID: 21300000, guid: e0a68c21873354af1b36c0bedc190a3f, type: 3}
    - time: 6.5
      value: {fileID: 21300000, guid: 774f6d85cf7004d548c6d05a309e8197, type: 3}
    - time: 6.5833335
      value: {fileID: 21300000, guid: 2573af5412394427c886f80ffef90b59, type: 3}
    - time: 6.6666665
      value: {fileID: 21300000, guid: 81f0bc961d0184f9d8e2c65aa1dd677c, type: 3}
    - time: 6.75
      value: {fileID: 21300000, guid: bed9197e515c84b4eaaf93200a49a64d, type: 3}
    - time: 6.875
      value: {fileID: 21300000, guid: 75361e09d7ce24375a378e933647bd20, type: 3}
    - time: 6.9583335
      value: {fileID: 21300000, guid: 0ae5427b01d494e1297fa1943b343485, type: 3}
    - time: 7.0416665
      value: {fileID: 21300000, guid: ddd996cf983564bf380550b8fdc0a1ef, type: 3}
    - time: 7.125
      value: {fileID: 21300000, guid: 8d1a6e6a73dc34600bc8541f557fcc9d, type: 3}
    - time: 7.25
      value: {fileID: 21300000, guid: dd56e5692f9b042c8817db25ec7202f9, type: 3}
    - time: 7.3333335
      value: {fileID: 21300000, guid: e38752d92a2584a70aea8bbab388c36d, type: 3}
    - time: 7.4166665
      value: {fileID: 21300000, guid: dc2a9808e283b48b2baf7eb866705495, type: 3}
    - time: 7.5
      value: {fileID: 21300000, guid: 1b1010ff170434a4aba4f9de1c9d8b62, type: 3}
    - time: 7.625
      value: {fileID: 21300000, guid: e5991c9c6137043f694061c8d45589be, type: 3}
    - time: 7.7083335
      value: {fileID: 21300000, guid: 4d8f3360485264149b4a4aa6b5ae6d6e, type: 3}
    - time: 7.7916665
      value: {fileID: 21300000, guid: 12426b4cb31ff4aabbb1cddb14149928, type: 3}
    - time: 7.875
      value: {fileID: 21300000, guid: 3e12f43b457104e759bc093c15837cfb, type: 3}
    - time: 8
      value: {fileID: 21300000, guid: fddd6089052c94a079cd84d1d06c0373, type: 3}
    - time: 8.083333
      value: {fileID: 21300000, guid: 3bb25f46eecc74ac1b8f5d0c796fdfa0, type: 3}
    - time: 8.166667
      value: {fileID: 21300000, guid: 41eea0e84ff004f57a84ed9e29224519, type: 3}
    - time: 8.25
      value: {fileID: 21300000, guid: acfffc906147c4a79aa13d6f116f95ea, type: 3}
    - time: 8.375
      value: {fileID: 21300000, guid: 3b51fd11aae6b49ea9bc1b0f31080317, type: 3}
    - time: 8.458333
      value: {fileID: 21300000, guid: d945cec2c4bcf4d84af02a87251e870d, type: 3}
    - time: 8.541667
      value: {fileID: 21300000, guid: 4e26495edc5ef4693816614a4fbc6b41, type: 3}
    - time: 8.625
      value: {fileID: 21300000, guid: afbb45868b64e43f7946b0faa04c4360, type: 3}
    - time: 8.75
      value: {fileID: 21300000, guid: a9747cc5770ae4b7ead7d66fff090019, type: 3}
    - time: 8.833333
      value: {fileID: 21300000, guid: e7f58daf344b34d21aa48d4f8c9cbdff, type: 3}
    - time: 8.916667
      value: {fileID: 21300000, guid: a24053f9bde9148bba4c43713802f6d4, type: 3}
    - time: 9
      value: {fileID: 21300000, guid: 5e97534a4619c4eb18031f8db1534e0f, type: 3}
    - time: 9.125
      value: {fileID: 21300000, guid: c25a6f8a578d940eea4c225dd1b6d0aa, type: 3}
    - time: 9.208333
      value: {fileID: 21300000, guid: 743c8cea19b5d4707a7b02b896b61093, type: 3}
    - time: 9.291667
      value: {fileID: 21300000, guid: 07e420c289b294145b9779b02a65ac34, type: 3}
    - time: 9.375
      value: {fileID: 21300000, guid: 37358d2c3b97a40c09be94ffed27ed56, type: 3}
    - time: 9.5
      value: {fileID: 21300000, guid: bdcb564fb3cdb4bd19db8903d7cbcc41, type: 3}
    - time: 9.583333
      value: {fileID: 21300000, guid: 29b71d64eeda64abe81b5618a147a0c5, type: 3}
    - time: 9.666667
      value: {fileID: 21300000, guid: 102aca803e79b49bdbdca7ed6235e1f6, type: 3}
    - time: 9.75
      value: {fileID: 21300000, guid: 169034b3ce4b14ce091ca432cd777bcd, type: 3}
    - time: 9.875
      value: {fileID: 21300000, guid: e79fa5ea7211549549505aaf33ca62bc, type: 3}
    - time: 10.666667
      value: {fileID: 21300000, guid: b2c2c6068668a4f83a143b5f84f6ef37, type: 3}
    attribute: m_Sprite
    path: 
    classID: 212
    script: {fileID: 0}
  m_SampleRate: 24
  m_WrapMode: 0
  m_Bounds:
    m_Center: {x: 0, y: 0, z: 0}
    m_Extent: {x: 0, y: 0, z: 0}
  m_ClipBindingConstant:
    genericBindings:
    - serializedVersion: 2
      path: 0
      attribute: 0
      script: {fileID: 0}
      typeID: 212
      customType: 23
      isPPtrCurve: 1
    pptrCurveMapping:
    - {fileID: 21300000, guid: 86d3497ff274648eda65e324a90744aa, type: 3}
    - {fileID: 21300000, guid: 7488b2df6ccf94943930e4ac99979b95, type: 3}
    - {fileID: 21300000, guid: 7105b59fbc67f4f21bc6017a25aa7187, type: 3}
    - {fileID: 21300000, guid: 89c7a4617d55e4984b1e62131ba61e26, type: 3}
    - {fileID: 21300000, guid: 94db26be07eb8455286210b8e70ae469, type: 3}
    - {fileID: 21300000, guid: 7bd5316d509e143499e9b02e2fa40162, type: 3}
    - {fileID: 21300000, guid: 7d2bcb92377ae41d6bdd580849157300, type: 3}
    - {fileID: 21300000, guid: 655f69e32f7604ec98d6982d40fc509c, type: 3}
    - {fileID: 21300000, guid: 372a25e64a747431e94ff8b88488945d, type: 3}
    - {fileID: 21300000, guid: d6aa72679c58040529dbfc38f48e2b5a, type: 3}
    - {fileID: 21300000, guid: 2b2c7bdc82cdd40a2980ca72d4421aa9, type: 3}
    - {fileID: 21300000, guid: ed6874fc2604145f49e1b6682d7a3c55, type: 3}
    - {fileID: 21300000, guid: 2bcc7cb214fe6489e82a9158602531c3, type: 3}
    - {fileID: 21300000, guid: 62152dcaeb2a94f96822214b0cf6e5ef, type: 3}
    - {fileID: 21300000, guid: 2c9097e4f796d4fff8afa1408664a8dd, type: 3}
    - {fileID: 21300000, guid: 67c7ec92d2f1a44c1a89b95ba6673807, type: 3}
    - {fileID: 21300000, guid: be7e05f619d9244969d16cda81cd8158, type: 3}
    - {fileID: 21300000, guid: 4ffd15737fa1b4fd3816037c4571c4fa, type: 3}
    - {fileID: 21300000, guid: 1097e8dd80a6a4481a84dd0171c87cba, type: 3}
    - {fileID: 21300000, guid: 72e6879c062a0490bb25b7f02d7e1fa3, type: 3}
    - {fileID: 21300000, guid: f62988884f05642ef8fbe88854efbaf4, type: 3}
    - {fileID: 21300000, guid: 726c946d1e79447b8a825819208a84ce, type: 3}
    - {fileID: 21300000, guid: 083685400518f46dd861174bfca9b41a, type: 3}
    - {fileID: 21300000, guid: 14954cc6e90a146e891006b997ea77e5, type: 3}
    - {fileID: 21300000, guid: 8fb4032bb6d67411d9d7be2d4574640c, type: 3}
    - {fileID: 21300000, guid: dbc0c700f3f9c4ebe8c6f150bdf8021c, type: 3}
    - {fileID: 21300000, guid: 5889a53cc344f4a678b80fd1949f01d5, type: 3}
    - {fileID: 21300000, guid: 05bd1983767b64c519edada2514bf71f, type: 3}
    - {fileID: 21300000, guid: 6edb3a31210d84446a85eb0ff44b5abe, type: 3}
    - {fileID: 21300000, guid: dcaf16851c4a2442584f042dda57f2a2, type: 3}
    - {fileID: 21300000, guid: 6b634c1e7633b482cb40422caa6f43f9, type: 3}
    - {fileID: 21300000, guid: 03f4f28a3e1ee4158a3ed84bcd8e5eb0, type: 3}
    - {fileID: 21300000, guid: 5e45d172a2d51412999830af75781574, type: 3}
    - {fileID: 21300000, guid: fd458deaed616454b81008f795b788c2, type: 3}
    - {fileID: 21300000, guid: 1e98f4d7d6cc344ff964e6cdbff5a545, type: 3}
    - {fileID: 21300000, guid: 8ac120d44d21b4abdafb1969cf520a25, type: 3}
    - {fileID: 21300000, guid: f29c7930219ef423fb7ac7888d90ebc5, type: 3}
    - {fileID: 21300000, guid: d198196a332dd442198b37c319df7cc9, type: 3}
    - {fileID: 21300000, guid: 1f0a62be20c75486b87f1f7a9cda68d3, type: 3}
    - {fileID: 21300000, guid: e27608512879f4a06b4500084af41b8a, type: 3}
    - {fileID: 21300000, guid: e72e37f06cc7f42d7a7a06c386737ebf, type: 3}
    - {fileID: 21300000, guid: c226d1cea257b4dffa894e80921d0f19, type: 3}
    - {fileID: 21300000, guid: d3b73aeb870ab4330990b99ad725518e, type: 3}
    - {fileID: 21300000, guid: 1325cdddb96bd4e27b0d90e2dfc09f6d, type: 3}
    - {fileID: 21300000, guid: e0e6b33bb2efb49208d1a8973cc53c3f, type: 3}
    - {fileID: 21300000, guid: 4961ea08e416c46d9919aa3d7bbad520, type: 3}
    - {fileID: 21300000, guid: bf5f8d8fcd30440cb83652534682691b, type: 3}
    - {fileID: 21300000, guid: 37d7ff2403455409b9d784ee626de342, type: 3}
    - {fileID: 21300000, guid: 7ffc87d0f4a4d42718c87dbfec455c4f, type: 3}
    - {fileID: 21300000, guid: 5dad6b0a8bb7a485db446fe947db65cc, type: 3}
    - {fileID: 21300000, guid: 102eaee25bcf144ba80f69f9c6c54597, type: 3}
    - {fileID: 21300000, guid: b316a8b362f2945eab7caba71615029b, type: 3}
    - {fileID: 21300000, guid: 8eafc6fe1e5a84e399613a0680c6646f, type: 3}
    - {fileID: 21300000, guid: e93304138bb2b41ab8489d0b7d163eea, type: 3}
    - {fileID: 21300000, guid: bb87b33a0c1ce4ab3aaf22fa00af0810, type: 3}
    - {fileID: 21300000, guid: 989d84adc16a94052a299d3348359ad7, type: 3}
    - {fileID: 21300000, guid: 6fe4554d8368e439cb29b4b62cac236b, type: 3}
    - {fileID: 21300000, guid: c81da88e90ab54f1499408ad7c8841ab, type: 3}
    - {fileID: 21300000, guid: 61a101617eba3443394730c83a3b55df, type: 3}
    - {fileID: 21300000, guid: c1d06e155a56d41a5aa1c45e28efcca3, type: 3}
    - {fileID: 21300000, guid: 29397f3434c6c48c8b7d3c5dc3593ef6, type: 3}
    - {fileID: 21300000, guid: 149be6d7d027c444eb974657d0fdd0e1, type: 3}
    - {fileID: 21300000, guid: e0a68c21873354af1b36c0bedc190a3f, type: 3}
    - {fileID: 21300000, guid: 774f6d85cf7004d548c6d05a309e8197, type: 3}
    - {fileID: 21300000, guid: 2573af5412394427c886f80ffef90b59, type: 3}
    - {fileID: 21300000, guid: 81f0bc961d0184f9d8e2c65aa1dd677c, type: 3}
    - {fileID: 21300000, guid: bed9197e515c84b4eaaf93200a49a64d, type: 3}
    - {fileID: 21300000, guid: 75361e09d7ce24375a378e933647bd20, type: 3}
    - {fileID: 21300000, guid: 0ae5427b01d494e1297fa1943b343485, type: 3}
    - {fileID: 21300000, guid: ddd996cf983564bf380550b8fdc0a1ef, type: 3}
    - {fileID: 21300000, guid: 8d1a6e6a73dc34600bc8541f557fcc9d, type: 3}
    - {fileID: 21300000, guid: dd56e5692f9b042c8817db25ec7202f9, type: 3}
    - {fileID: 21300000, guid: e38752d92a2584a70aea8bbab388c36d, type: 3}
    - {fileID: 21300000, guid: dc2a9808e283b48b2baf7eb866705495, type: 3}
    - {fileID: 21300000, guid: 1b1010ff170434a4aba4f9de1c9d8b62, type: 3}
    - {fileID: 21300000, guid: e5991c9c6137043f694061c8d45589be, type: 3}
    - {fileID: 21300000, guid: 4d8f3360485264149b4a4aa6b5ae6d6e, type: 3}
    - {fileID: 21300000, guid: 12426b4cb31ff4aabbb1cddb14149928, type: 3}
    - {fileID: 21300000, guid: 3e12f43b457104e759bc093c15837cfb, type: 3}
    - {fileID: 21300000, guid: fddd6089052c94a079cd84d1d06c0373, type: 3}
    - {fileID: 21300000, guid: 3bb25f46eecc74ac1b8f5d0c796fdfa0, type: 3}
    - {fileID: 21300000, guid: 41eea0e84ff004f57a84ed9e29224519, type: 3}
    - {fileID: 21300000, guid: acfffc906147c4a79aa13d6f116f95ea, type: 3}
    - {fileID: 21300000, guid: 3b51fd11aae6b49ea9bc1b0f31080317, type: 3}
    - {fileID: 21300000, guid: d945cec2c4bcf4d84af02a87251e870d, type: 3}
    - {fileID: 21300000, guid: 4e26495edc5ef4693816614a4fbc6b41, type: 3}
    - {fileID: 21300000, guid: afbb45868b64e43f7946b0faa04c4360, type: 3}
    - {fileID: 21300000, guid: a9747cc5770ae4b7ead7d66fff090019, type: 3}
    - {fileID: 21300000, guid: e7f58daf344b34d21aa48d4f8c9cbdff, type: 3}
    - {fileID: 21300000, guid: a24053f9bde9148bba4c43713802f6d4, type: 3}
    - {fileID: 21300000, guid: 5e97534a4619c4eb18031f8db1534e0f, type: 3}
    - {fileID: 21300000, guid: c25a6f8a578d940eea4c225dd1b6d0aa, type: 3}
    - {fileID: 21300000, guid: 743c8cea19b5d4707a7b02b896b61093, type: 3}
    - {fileID: 21300000, guid: 07e420c289b294145b9779b02a65ac34, type: 3}
    - {fileID: 21300000, guid: 37358d2c3b97a40c09be94ffed27ed56, type: 3}
    - {fileID: 21300000, guid: bdcb564fb3cdb4bd19db8903d7cbcc41, type: 3}
    - {fileID: 21300000, guid: 29b71d64eeda64abe81b5618a147a0c5, type: 3}
    - {fileID: 21300000, guid: 102aca803e79b49bdbdca7ed6235e1f6, type: 3}
    - {fileID: 21300000, guid: 169034b3ce4b14ce091ca432cd777bcd, type: 3}
    - {fileID: 21300000, guid: e79fa5ea7211549549505aaf33ca62bc, type: 3}
    - {fileID: 21300000, guid: b2c2c6068668a4f83a143b5f84f6ef37, type: 3}
  m_AnimationClipSettings:
    serializedVersion: 2
    m_AdditiveReferencePoseClip: {fileID: 0}
    m_AdditiveReferencePoseTime: 0
    m_StartTime: 0
    m_StopTime: 10.708334
    m_OrientationOffsetY: 0
    m_Level: 0
    m_CycleOffset: 0
    m_HasAdditiveReferencePose: 0
    m_LoopTime: 0
    m_LoopBlend: 0
    m_LoopBlendOrientation: 0
    m_LoopBlendPositionY: 0
    m_LoopBlendPositionXZ: 0
    m_KeepOriginalOrientation: 0
    m_KeepOriginalPositionY: 1
    m_KeepOriginalPositionXZ: 0
    m_HeightFromFeet: 0
    m_Mirror: 0
  m_EditorCurves: []
  m_EulerEditorCurves: []
  m_HasGenericRootTransform: 0
  m_HasMotionFloatCurves: 0
  m_GenerateMotionCurves: 0
  m_Events:
  - time: 8.291667
    functionName: SetLayer
    data: 06
    objectReferenceParameter: {fileID: 0}
    floatParameter: 0
    intParameter: 0
    messageOptions: 0
  - time: 10.666667
    functionName: NextScene
    data: 
    objectReferenceParameter: {fileID: 0}
    floatParameter: 0
    intParameter: 0
    messageOptions: 0
