%YAML 1.1
%TAG !u! tag:unity3d.com,2011:
--- !u!74 &7400000
AnimationClip:
  m_ObjectHideFlags: 0
  m_PrefabParentObject: {fileID: 0}
  m_PrefabInternal: {fileID: 0}
  m_Name: m05_jump02-tap_mushroom
  serializedVersion: 6
  m_Legacy: 0
  m_Compressed: 0
  m_UseHighQualityCurve: 1
  m_RotationCurves: []
  m_CompressedRotationCurves: []
  m_EulerCurves: []
  m_PositionCurves: []
  m_ScaleCurves: []
  m_FloatCurves: []
  m_PPtrCurves:
  - curve:
    - time: 0
      value: {fileID: 21300000, guid: 35f8c5b46e94b47d8bb0c58b69fa251b, type: 3}
    - time: 0.5
      value: {fileID: 21300000, guid: f5df144b576f941b8919d1f32b27756f, type: 3}
    - time: 0.5833333
      value: {fileID: 21300000, guid: 05abfd332303047faae6730f7700e9b6, type: 3}
    - time: 0.6666667
      value: {fileID: 21300000, guid: cde5620073cfe41dea43f4e9fbd94804, type: 3}
    - time: 0.75
      value: {fileID: 21300000, guid: 73644bd69bdb74d72af2a0e608f36b56, type: 3}
    - time: 0.8333333
      value: {fileID: 21300000, guid: 8a3b7fa5e6a2a4b369c76669d8be2533, type: 3}
    - time: 0.9166667
      value: {fileID: 21300000, guid: 9d118ca1728f84530ab2753dae3809ea, type: 3}
    - time: 1
      value: {fileID: 21300000, guid: cca7223dd140e4d08ae1357ed2c934f8, type: 3}
    - time: 1.9583334
      value: {fileID: 21300000, guid: 40dc75f3472f7423092e2a0a430459f3, type: 3}
    attribute: m_Sprite
    path: 
    classID: 212
    script: {fileID: 0}
  m_SampleRate: 24
  m_WrapMode: 0
  m_Bounds:
    m_Center: {x: 0, y: 0, z: 0}
    m_Extent: {x: 0, y: 0, z: 0}
  m_ClipBindingConstant:
    genericBindings:
    - serializedVersion: 2
      path: 0
      attribute: 0
      script: {fileID: 0}
      typeID: 212
      customType: 23
      isPPtrCurve: 1
    pptrCurveMapping:
    - {fileID: 21300000, guid: 35f8c5b46e94b47d8bb0c58b69fa251b, type: 3}
    - {fileID: 21300000, guid: f5df144b576f941b8919d1f32b27756f, type: 3}
    - {fileID: 21300000, guid: 05abfd332303047faae6730f7700e9b6, type: 3}
    - {fileID: 21300000, guid: cde5620073cfe41dea43f4e9fbd94804, type: 3}
    - {fileID: 21300000, guid: 73644bd69bdb74d72af2a0e608f36b56, type: 3}
    - {fileID: 21300000, guid: 8a3b7fa5e6a2a4b369c76669d8be2533, type: 3}
    - {fileID: 21300000, guid: 9d118ca1728f84530ab2753dae3809ea, type: 3}
    - {fileID: 21300000, guid: cca7223dd140e4d08ae1357ed2c934f8, type: 3}
    - {fileID: 21300000, guid: 40dc75f3472f7423092e2a0a430459f3, type: 3}
  m_AnimationClipSettings:
    serializedVersion: 2
    m_AdditiveReferencePoseClip: {fileID: 0}
    m_AdditiveReferencePoseTime: 0
    m_StartTime: 0
    m_StopTime: 2
    m_OrientationOffsetY: 0
    m_Level: 0
    m_CycleOffset: 0
    m_HasAdditiveReferencePose: 0
    m_LoopTime: 0
    m_LoopBlend: 0
    m_LoopBlendOrientation: 0
    m_LoopBlendPositionY: 0
    m_LoopBlendPositionXZ: 0
    m_KeepOriginalOrientation: 0
    m_KeepOriginalPositionY: 1
    m_KeepOriginalPositionXZ: 0
    m_HeightFromFeet: 0
    m_Mirror: 0
  m_EditorCurves: []
  m_EulerEditorCurves: []
  m_HasGenericRootTransform: 0
  m_HasMotionFloatCurves: 0
  m_GenerateMotionCurves: 0
  m_Events:
  - time: 0
    functionName: PlayId
    data: 
    objectReferenceParameter: {fileID: 0}
    floatParameter: 0
    intParameter: 2
    messageOptions: 0
