%YAML 1.1
%TAG !u! tag:unity3d.com,2011:
--- !u!74 &7400000
AnimationClip:
  m_ObjectHideFlags: 0
  m_PrefabParentObject: {fileID: 0}
  m_PrefabInternal: {fileID: 0}
  m_Name: 05_bigyellow_loop
  serializedVersion: 6
  m_Legacy: 0
  m_Compressed: 0
  m_UseHighQualityCurve: 1
  m_RotationCurves: []
  m_CompressedRotationCurves: []
  m_EulerCurves: []
  m_PositionCurves: []
  m_ScaleCurves: []
  m_FloatCurves: []
  m_PPtrCurves:
  - curve:
    - time: 0
      value: {fileID: 21300000, guid: c63536d7124f34bfbb5df87674ab1b48, type: 3}
    - time: 0.125
      value: {fileID: 21300000, guid: 821b3b7a9a1b3452eac4eb8106571b45, type: 3}
    - time: 0.25
      value: {fileID: 21300000, guid: f9abe0940dd0146efa87b51b33ec33ef, type: 3}
    - time: 0.33333334
      value: {fileID: 21300000, guid: 4c6af438f66cf48a3a38b0ed37e81826, type: 3}
    - time: 0.375
      value: {fileID: 21300000, guid: 4fc0b73596a7c4db4b56deb65b9adae1, type: 3}
    - time: 0.625
      value: {fileID: 21300000, guid: 67d637a53251949f48f0da676e69b67d, type: 3}
    - time: 0.75
      value: {fileID: 21300000, guid: 72937a8a4d8bf42269771d2142a3f234, type: 3}
    - time: 0.8333333
      value: {fileID: 21300000, guid: 72937a8a4d8bf42269771d2142a3f234, type: 3}
    attribute: m_Sprite
    path: 
    classID: 212
    script: {fileID: 0}
  m_SampleRate: 24
  m_WrapMode: 0
  m_Bounds:
    m_Center: {x: 0, y: 0, z: 0}
    m_Extent: {x: 0, y: 0, z: 0}
  m_ClipBindingConstant:
    genericBindings:
    - serializedVersion: 2
      path: 0
      attribute: 0
      script: {fileID: 0}
      typeID: 212
      customType: 23
      isPPtrCurve: 1
    pptrCurveMapping:
    - {fileID: 21300000, guid: c63536d7124f34bfbb5df87674ab1b48, type: 3}
    - {fileID: 21300000, guid: 821b3b7a9a1b3452eac4eb8106571b45, type: 3}
    - {fileID: 21300000, guid: f9abe0940dd0146efa87b51b33ec33ef, type: 3}
    - {fileID: 21300000, guid: 4c6af438f66cf48a3a38b0ed37e81826, type: 3}
    - {fileID: 21300000, guid: 4fc0b73596a7c4db4b56deb65b9adae1, type: 3}
    - {fileID: 21300000, guid: 67d637a53251949f48f0da676e69b67d, type: 3}
    - {fileID: 21300000, guid: 72937a8a4d8bf42269771d2142a3f234, type: 3}
    - {fileID: 21300000, guid: 72937a8a4d8bf42269771d2142a3f234, type: 3}
  m_AnimationClipSettings:
    serializedVersion: 2
    m_AdditiveReferencePoseClip: {fileID: 0}
    m_AdditiveReferencePoseTime: 0
    m_StartTime: 0
    m_StopTime: 0.875
    m_OrientationOffsetY: 0
    m_Level: 0
    m_CycleOffset: 0
    m_HasAdditiveReferencePose: 0
    m_LoopTime: 1
    m_LoopBlend: 0
    m_LoopBlendOrientation: 0
    m_LoopBlendPositionY: 0
    m_LoopBlendPositionXZ: 0
    m_KeepOriginalOrientation: 0
    m_KeepOriginalPositionY: 1
    m_KeepOriginalPositionXZ: 0
    m_HeightFromFeet: 0
    m_Mirror: 0
  m_EditorCurves: []
  m_EulerEditorCurves: []
  m_HasGenericRootTransform: 0
  m_HasMotionFloatCurves: 0
  m_GenerateMotionCurves: 0
  m_Events: []
