%YAML 1.1
%TAG !u! tag:unity3d.com,2011:
--- !u!1045 &1
EditorBuildSettings:
  m_ObjectHideFlags: 0
  serializedVersion: 2
  m_Scenes:
  - enabled: 1
    path: Assets/Wander_in_Wonder/Scenes/01_op.unity
    guid: 6892112e1b362462f977d1bec0b82dfd
  - enabled: 1
    path: Assets/Wander_in_Wonder/Scenes/01to02.unity
    guid: 8ff0f385a3d524424b03b59e26558368
  - enabled: 1
    path: Assets/Wander_in_Wonder/Scenes/02_tanpopo.unity
    guid: 40a81d50581f14f358892f39764a6759
  - enabled: 1
    path: Assets/Wander_in_Wonder/Scenes/02to03.unity
    guid: 7f00d5eaced8a497f9c8c97d611ad918
  - enabled: 1
    path: Assets/Wander_in_Wonder/Scenes/03_onamomi-new.unity
    guid: 11c43a8fe424c41b4a97c06d20df93de
  - enabled: 1
    path: Assets/Wander_in_Wonder/Scenes/03to04.unity
    guid: e792bc2caf12f4541b45ee02f2906a75
  - enabled: 1
    path: Assets/Wander_in_Wonder/Scenes/04_kinoko.unity
    guid: ed4dd6ac0591640ca887347bc90a581e
  - enabled: 1
    path: Assets/Wander_in_Wonder/Scenes/04to05.unity
    guid: 8c21787e76e7e4f53a73cc08c1366878
  - enabled: 1
    path: Assets/Wander_in_Wonder/Scenes/05_party.unity
    guid: 294b00ff2b3c84c6f83d298163124f16
  - enabled: 1
    path: Assets/Wander_in_Wonder/Scenes/05to06.unity
    guid: 15d6b03116f6e48e9bda57e6c62480c1
  - enabled: 1
    path: Assets/Wander_in_Wonder/Scenes/06_nemunoki.unity
    guid: 7ac2092baf797432cab3d2e54c2f9c32
  - enabled: 1
    path: Assets/Wander_in_Wonder/Scenes/06to07.unity
    guid: 1db9eac86ed95466fb2be58fb626e6d0
  - enabled: 1
    path: Assets/Wander_in_Wonder/Scenes/07_ed.unity
    guid: 0372de0ef393b45b98012061f29f3420
  - enabled: 1
    path: Assets/Wander_in_Wonder/Scenes/07to01.unity
    guid: 108aa816c27e3466fba4e915d3bec14d
