%YAML 1.1
%TAG !u! tag:unity3d.com,2011:
--- !u!74 &7400000
AnimationClip:
  m_ObjectHideFlags: 0
  m_PrefabParentObject: {fileID: 0}
  m_PrefabInternal: {fileID: 0}
  m_Name: 06-07_loop
  serializedVersion: 6
  m_Legacy: 0
  m_Compressed: 0
  m_UseHighQualityCurve: 1
  m_RotationCurves: []
  m_CompressedRotationCurves: []
  m_EulerCurves: []
  m_PositionCurves: []
  m_ScaleCurves: []
  m_FloatCurves: []
  m_PPtrCurves:
  - curve:
    - time: 0
      value: {fileID: 21300000, guid: 96d541938b28c4187967465e3236b4f5, type: 3}
    - time: 0.083333336
      value: {fileID: 21300000, guid: 5c83e0e8557304541baaf4640bd9d48b, type: 3}
    - time: 0.16666667
      value: {fileID: 21300000, guid: e0c9f57b14685486aa236151e1adc75f, type: 3}
    - time: 0.25
      value: {fileID: 21300000, guid: 71860d55268c64b64a2254a61219bf2a, type: 3}
    - time: 0.375
      value: {fileID: 21300000, guid: e1f1eea3ebf084c288a2b4f0d1b9a0b6, type: 3}
    - time: 0.45833334
      value: {fileID: 21300000, guid: 956ba9cb8be004b6cb88074b16fe1f92, type: 3}
    - time: 0.5416667
      value: {fileID: 21300000, guid: 5e508b8ad066742f99ac932e6927cd4e, type: 3}
    - time: 0.625
      value: {fileID: 21300000, guid: 5ea117189d1d7461e9c8610c7dcd72e7, type: 3}
    - time: 0.7083333
      value: {fileID: 21300000, guid: e2cd7ea24391a42abb25ff7a8e8ea39f, type: 3}
    attribute: m_Sprite
    path: 
    classID: 212
    script: {fileID: 0}
  m_SampleRate: 24
  m_WrapMode: 0
  m_Bounds:
    m_Center: {x: 0, y: 0, z: 0}
    m_Extent: {x: 0, y: 0, z: 0}
  m_ClipBindingConstant:
    genericBindings:
    - serializedVersion: 2
      path: 0
      attribute: 0
      script: {fileID: 0}
      typeID: 212
      customType: 23
      isPPtrCurve: 1
    pptrCurveMapping:
    - {fileID: 21300000, guid: 96d541938b28c4187967465e3236b4f5, type: 3}
    - {fileID: 21300000, guid: 5c83e0e8557304541baaf4640bd9d48b, type: 3}
    - {fileID: 21300000, guid: e0c9f57b14685486aa236151e1adc75f, type: 3}
    - {fileID: 21300000, guid: 71860d55268c64b64a2254a61219bf2a, type: 3}
    - {fileID: 21300000, guid: e1f1eea3ebf084c288a2b4f0d1b9a0b6, type: 3}
    - {fileID: 21300000, guid: 956ba9cb8be004b6cb88074b16fe1f92, type: 3}
    - {fileID: 21300000, guid: 5e508b8ad066742f99ac932e6927cd4e, type: 3}
    - {fileID: 21300000, guid: 5ea117189d1d7461e9c8610c7dcd72e7, type: 3}
    - {fileID: 21300000, guid: e2cd7ea24391a42abb25ff7a8e8ea39f, type: 3}
  m_AnimationClipSettings:
    serializedVersion: 2
    m_AdditiveReferencePoseClip: {fileID: 0}
    m_AdditiveReferencePoseTime: 0
    m_StartTime: 0
    m_StopTime: 0.75
    m_OrientationOffsetY: 0
    m_Level: 0
    m_CycleOffset: 0
    m_HasAdditiveReferencePose: 0
    m_LoopTime: 1
    m_LoopBlend: 0
    m_LoopBlendOrientation: 0
    m_LoopBlendPositionY: 0
    m_LoopBlendPositionXZ: 0
    m_KeepOriginalOrientation: 0
    m_KeepOriginalPositionY: 1
    m_KeepOriginalPositionXZ: 0
    m_HeightFromFeet: 0
    m_Mirror: 0
  m_EditorCurves: []
  m_EulerEditorCurves: []
  m_HasGenericRootTransform: 0
  m_HasMotionFloatCurves: 0
  m_GenerateMotionCurves: 0
  m_Events: []
