%YAML 1.1
%TAG !u! tag:unity3d.com,2011:
--- !u!74 &7400000
AnimationClip:
  m_ObjectHideFlags: 0
  m_PrefabParentObject: {fileID: 0}
  m_PrefabInternal: {fileID: 0}
  m_Name: 02_dandeseed_left_seed
  serializedVersion: 6
  m_Legacy: 0
  m_Compressed: 0
  m_UseHighQualityCurve: 1
  m_RotationCurves: []
  m_CompressedRotationCurves: []
  m_EulerCurves: []
  m_PositionCurves: []
  m_ScaleCurves: []
  m_FloatCurves: []
  m_PPtrCurves:
  - curve:
    - time: 0
      value: {fileID: 21300000, guid: c6d9d6ec2e0824c9fa09ce4dacd1b602, type: 3}
    - time: 0.125
      value: {fileID: 21300000, guid: a6eccb6dce04f4d6d980d28823c3ad07, type: 3}
    - time: 0.25
      value: {fileID: 21300000, guid: 4570c92e1a30e4e64a976df71cb2632b, type: 3}
    - time: 0.37499997
      value: {fileID: 21300000, guid: 64356977c373448488a4d420b1a0f635, type: 3}
    - time: 0.5416666
      value: {fileID: 21300000, guid: 71e61ba8cea2e42c29ebd9926a0d8ed5, type: 3}
    - time: 0.6666667
      value: {fileID: 21300000, guid: 5ee27daf6414049349de76f2ffe7eefe, type: 3}
    - time: 0.79166675
      value: {fileID: 21300000, guid: e0c1a50f4d6c24e568d2ebf390affa88, type: 3}
    - time: 0.9166668
      value: {fileID: 21300000, guid: 89029046797c14497a43d0568c8a6454, type: 3}
    - time: 1.0416667
      value: {fileID: 21300000, guid: ce14624aabd704baa92b815e9958b5bf, type: 3}
    - time: 1.1666666
      value: {fileID: 21300000, guid: 7f60fc8e6b79d4aa58d18c2a66b0ebb7, type: 3}
    - time: 1.2916665
      value: {fileID: 21300000, guid: 6f5a4ed88ef284b3f9e89805a1ac9cc0, type: 3}
    - time: 1.4166664
      value: {fileID: 21300000, guid: f3b4a4ed0d08840d6bc44e070a70beca, type: 3}
    - time: 1.5416663
      value: {fileID: 21300000, guid: e96c5dfc0519941b0ab059015408e964, type: 3}
    - time: 1.6666662
      value: {fileID: 21300000, guid: 874e5d98972d849d29d3efe2179f3760, type: 3}
    - time: 1.791666
      value: {fileID: 21300000, guid: 41f9d143e329647019e5c4a3fd20b95a, type: 3}
    - time: 1.9166659
      value: {fileID: 21300000, guid: 09cfc704f2ff246d9816572e4f668c8c, type: 3}
    - time: 2.0416658
      value: {fileID: 21300000, guid: 30c9eb97e26ac43c584f65ec49de20de, type: 3}
    - time: 2.166666
      value: {fileID: 21300000, guid: 8d92b3ce551084a72b900d03455cba0d, type: 3}
    - time: 2.2916663
      value: {fileID: 21300000, guid: 83be181b2455a41039cf6ff667b8caa4, type: 3}
    - time: 2.333333
      value: {fileID: 21300000, guid: 4c947fddc868d47d58185a3917f3a5cf, type: 3}
    - time: 2.4166665
      value: {fileID: 21300000, guid: 95f5d11e3ed134558b6a7aa4d7a74e9e, type: 3}
    - time: 2.4583333
      value: {fileID: 21300000, guid: 1439df781878841c8b22126b32e64734, type: 3}
    - time: 2.5416667
      value: {fileID: 21300000, guid: 4c4caabff21904f1c9618208cf781605, type: 3}
    - time: 2.5833335
      value: {fileID: 21300000, guid: 08c584ff497c145fa8c9935de450ffe3, type: 3}
    - time: 2.666667
      value: {fileID: 21300000, guid: 63bfcb2aef9594390a8f0a066af81a36, type: 3}
    - time: 2.7083337
      value: {fileID: 21300000, guid: 170b1ed682e7c4be08b7c1f4cecbd16f, type: 3}
    - time: 2.7916672
      value: {fileID: 21300000, guid: 7784bb2ae8f214663a8d76127ba9e43e, type: 3}
    - time: 2.833334
      value: {fileID: 21300000, guid: 869f4d7a667e44f599092adc9100df70, type: 3}
    - time: 2.9166675
      value: {fileID: 21300000, guid: 4169cfc9e293f410f94a4b5296f412d5, type: 3}
    - time: 3.000001
      value: {fileID: 21300000, guid: 5abe93dad68c44fc38b6a9782f6a0299, type: 3}
    - time: 3.0416677
      value: {fileID: 21300000, guid: 48cc1404de8df41d7947e35a324e1061, type: 3}
    - time: 3.1250012
      value: {fileID: 21300000, guid: 432b877deb3ba465d85e870995ab0c87, type: 3}
    - time: 3.166668
      value: {fileID: 21300000, guid: 75a236f9f77ae4681aa332e3ad69f112, type: 3}
    - time: 3.2500014
      value: {fileID: 21300000, guid: 45ba0819b5a9d4706a0c5d3ccff0aef4, type: 3}
    - time: 3.2916682
      value: {fileID: 21300000, guid: 71d18872d89f54b3f8cdef9749a63ca9, type: 3}
    - time: 3.3750017
      value: {fileID: 21300000, guid: 636a0d2fecb8942a19cc4728bd806726, type: 3}
    - time: 3.4166684
      value: {fileID: 21300000, guid: 6d98ba8740a9446b7b6c09fdc2ff56aa, type: 3}
    - time: 3.500002
      value: {fileID: 21300000, guid: 9ab1a1c613a1a45fd9c7ffd0e44c4225, type: 3}
    - time: 3.5416687
      value: {fileID: 21300000, guid: 64148c80d6d4a44cfbce2d82171709cd, type: 3}
    - time: 3.666669
      value: {fileID: 21300000, guid: 19dc69419257743b9a4c654b54f28898, type: 3}
    - time: 3.7916691
      value: {fileID: 21300000, guid: 8a219da6278f4481a807c36dca1ab1e2, type: 3}
    - time: 3.9166694
      value: {fileID: 21300000, guid: 87b69af9484b549078374acb6faa090a, type: 3}
    - time: 4.0416694
      value: {fileID: 21300000, guid: 682d565dd63e545a4af17765c896d958, type: 3}
    - time: 4.166669
      value: {fileID: 21300000, guid: 88102fd14c56d404995a8ca375c6e2eb, type: 3}
    - time: 4.2916684
      value: {fileID: 21300000, guid: 22db5b156c7e346ab920b5069fff57ac, type: 3}
    - time: 4.333335
      value: {fileID: 21300000, guid: 4318e6dee31094289aec8f182602f438, type: 3}
    - time: 4.416668
      value: {fileID: 21300000, guid: c0f81edacdfe242e08e64b14a35144e1, type: 3}
    - time: 4.4583344
      value: {fileID: 21300000, guid: 77d3702000b304435a7285f0e1f84a8b, type: 3}
    - time: 4.5416675
      value: {fileID: 21300000, guid: a1bbf05307cc04cdd95710ecc7977451, type: 3}
    - time: 4.583334
      value: {fileID: 21300000, guid: d24ed838a66774c4c8fd39da456dae74, type: 3}
    - time: 4.666667
      value: {fileID: 21300000, guid: 064fcea452aea4090b347322e5cbe09b, type: 3}
    - time: 4.7083335
      value: {fileID: 21300000, guid: 4ad39854a4a554c5387adeb1b4400c9b, type: 3}
    - time: 4.7916665
      value: {fileID: 21300000, guid: 68b976a4614d84bb58e8d7b56432fd39, type: 3}
    - time: 4.833333
      value: {fileID: 21300000, guid: 3f5d5664b856c48beadd3d7ed5bfd3bf, type: 3}
    - time: 4.916666
      value: {fileID: 21300000, guid: fc6cfba8ccbb649d193afb5de427b759, type: 3}
    - time: 4.999999
      value: {fileID: 21300000, guid: 13f485a68fd8c412999e265be568900d, type: 3}
    - time: 5.0416656
      value: {fileID: 21300000, guid: 3313540a21960411bb5f39e390309834, type: 3}
    - time: 5.1249986
      value: {fileID: 21300000, guid: 5a7a7861c241d4fe59b9a717d684b343, type: 3}
    - time: 5.166665
      value: {fileID: 21300000, guid: 87be04c5da69241968511580c6da8469, type: 3}
    - time: 5.249998
      value: {fileID: 21300000, guid: 6fa26fab5caf14313b128fe720e2d793, type: 3}
    - time: 5.2916646
      value: {fileID: 21300000, guid: 9b9c657be912a4fd4bbeb3ce113f0c82, type: 3}
    - time: 5.3749976
      value: {fileID: 21300000, guid: bbd386168296348d1ad4a11569106736, type: 3}
    - time: 5.416664
      value: {fileID: 21300000, guid: c6904ce560c704531962975071cacae6, type: 3}
    - time: 5.499997
      value: {fileID: 21300000, guid: 1bba9056786244bddb954f4efb9c689e, type: 3}
    - time: 5.5416636
      value: {fileID: 21300000, guid: aec23e783623c4e6abf1af3a165dcac3, type: 3}
    - time: 5.666663
      value: {fileID: 21300000, guid: 9723dc231ebdb4f78a71874f74ae3b96, type: 3}
    - time: 5.7916627
      value: {fileID: 21300000, guid: 5feb3b1151bc442e7ac15f6554cb5b11, type: 3}
    - time: 5.916662
      value: {fileID: 21300000, guid: d9d42c18c4d8d4994ac5c5aabcfc586e, type: 3}
    - time: 5.999995
      value: {fileID: 21300000, guid: 52c6f399d5646486e9f6a6ecce361fd7, type: 3}
    - time: 6.0416617
      value: {fileID: 21300000, guid: 05f83465a89f04fd0b33b8929dd0e241, type: 3}
    - time: 6.1249948
      value: {fileID: 21300000, guid: a2ced232d07d942eba9da3c404a1d9d1, type: 3}
    - time: 6.1666613
      value: {fileID: 21300000, guid: c9434f5c35ebf43e588c267184e88019, type: 3}
    - time: 6.2499943
      value: {fileID: 21300000, guid: 8a540b7cdec2641989611d48340cb9ef, type: 3}
    - time: 6.3333273
      value: {fileID: 21300000, guid: 34050e83ad41342ef925f2b1b5f65b51, type: 3}
    - time: 6.374994
      value: {fileID: 21300000, guid: 5d447fe277bac4a86abc166f338b1ecb, type: 3}
    - time: 6.4166665
      value: {fileID: 21300000, guid: 5d447fe277bac4a86abc166f338b1ecb, type: 3}
    attribute: m_Sprite
    path: 
    classID: 212
    script: {fileID: 0}
  m_SampleRate: 24
  m_WrapMode: 0
  m_Bounds:
    m_Center: {x: 0, y: 0, z: 0}
    m_Extent: {x: 0, y: 0, z: 0}
  m_ClipBindingConstant:
    genericBindings:
    - serializedVersion: 2
      path: 0
      attribute: 0
      script: {fileID: 0}
      typeID: 212
      customType: 23
      isPPtrCurve: 1
    pptrCurveMapping:
    - {fileID: 21300000, guid: c6d9d6ec2e0824c9fa09ce4dacd1b602, type: 3}
    - {fileID: 21300000, guid: a6eccb6dce04f4d6d980d28823c3ad07, type: 3}
    - {fileID: 21300000, guid: 4570c92e1a30e4e64a976df71cb2632b, type: 3}
    - {fileID: 21300000, guid: 64356977c373448488a4d420b1a0f635, type: 3}
    - {fileID: 21300000, guid: 71e61ba8cea2e42c29ebd9926a0d8ed5, type: 3}
    - {fileID: 21300000, guid: 5ee27daf6414049349de76f2ffe7eefe, type: 3}
    - {fileID: 21300000, guid: e0c1a50f4d6c24e568d2ebf390affa88, type: 3}
    - {fileID: 21300000, guid: 89029046797c14497a43d0568c8a6454, type: 3}
    - {fileID: 21300000, guid: ce14624aabd704baa92b815e9958b5bf, type: 3}
    - {fileID: 21300000, guid: 7f60fc8e6b79d4aa58d18c2a66b0ebb7, type: 3}
    - {fileID: 21300000, guid: 6f5a4ed88ef284b3f9e89805a1ac9cc0, type: 3}
    - {fileID: 21300000, guid: f3b4a4ed0d08840d6bc44e070a70beca, type: 3}
    - {fileID: 21300000, guid: e96c5dfc0519941b0ab059015408e964, type: 3}
    - {fileID: 21300000, guid: 874e5d98972d849d29d3efe2179f3760, type: 3}
    - {fileID: 21300000, guid: 41f9d143e329647019e5c4a3fd20b95a, type: 3}
    - {fileID: 21300000, guid: 09cfc704f2ff246d9816572e4f668c8c, type: 3}
    - {fileID: 21300000, guid: 30c9eb97e26ac43c584f65ec49de20de, type: 3}
    - {fileID: 21300000, guid: 8d92b3ce551084a72b900d03455cba0d, type: 3}
    - {fileID: 21300000, guid: 83be181b2455a41039cf6ff667b8caa4, type: 3}
    - {fileID: 21300000, guid: 4c947fddc868d47d58185a3917f3a5cf, type: 3}
    - {fileID: 21300000, guid: 95f5d11e3ed134558b6a7aa4d7a74e9e, type: 3}
    - {fileID: 21300000, guid: 1439df781878841c8b22126b32e64734, type: 3}
    - {fileID: 21300000, guid: 4c4caabff21904f1c9618208cf781605, type: 3}
    - {fileID: 21300000, guid: 08c584ff497c145fa8c9935de450ffe3, type: 3}
    - {fileID: 21300000, guid: 63bfcb2aef9594390a8f0a066af81a36, type: 3}
    - {fileID: 21300000, guid: 170b1ed682e7c4be08b7c1f4cecbd16f, type: 3}
    - {fileID: 21300000, guid: 7784bb2ae8f214663a8d76127ba9e43e, type: 3}
    - {fileID: 21300000, guid: 869f4d7a667e44f599092adc9100df70, type: 3}
    - {fileID: 21300000, guid: 4169cfc9e293f410f94a4b5296f412d5, type: 3}
    - {fileID: 21300000, guid: 5abe93dad68c44fc38b6a9782f6a0299, type: 3}
    - {fileID: 21300000, guid: 48cc1404de8df41d7947e35a324e1061, type: 3}
    - {fileID: 21300000, guid: 432b877deb3ba465d85e870995ab0c87, type: 3}
    - {fileID: 21300000, guid: 75a236f9f77ae4681aa332e3ad69f112, type: 3}
    - {fileID: 21300000, guid: 45ba0819b5a9d4706a0c5d3ccff0aef4, type: 3}
    - {fileID: 21300000, guid: 71d18872d89f54b3f8cdef9749a63ca9, type: 3}
    - {fileID: 21300000, guid: 636a0d2fecb8942a19cc4728bd806726, type: 3}
    - {fileID: 21300000, guid: 6d98ba8740a9446b7b6c09fdc2ff56aa, type: 3}
    - {fileID: 21300000, guid: 9ab1a1c613a1a45fd9c7ffd0e44c4225, type: 3}
    - {fileID: 21300000, guid: 64148c80d6d4a44cfbce2d82171709cd, type: 3}
    - {fileID: 21300000, guid: 19dc69419257743b9a4c654b54f28898, type: 3}
    - {fileID: 21300000, guid: 8a219da6278f4481a807c36dca1ab1e2, type: 3}
    - {fileID: 21300000, guid: 87b69af9484b549078374acb6faa090a, type: 3}
    - {fileID: 21300000, guid: 682d565dd63e545a4af17765c896d958, type: 3}
    - {fileID: 21300000, guid: 88102fd14c56d404995a8ca375c6e2eb, type: 3}
    - {fileID: 21300000, guid: 22db5b156c7e346ab920b5069fff57ac, type: 3}
    - {fileID: 21300000, guid: 4318e6dee31094289aec8f182602f438, type: 3}
    - {fileID: 21300000, guid: c0f81edacdfe242e08e64b14a35144e1, type: 3}
    - {fileID: 21300000, guid: 77d3702000b304435a7285f0e1f84a8b, type: 3}
    - {fileID: 21300000, guid: a1bbf05307cc04cdd95710ecc7977451, type: 3}
    - {fileID: 21300000, guid: d24ed838a66774c4c8fd39da456dae74, type: 3}
    - {fileID: 21300000, guid: 064fcea452aea4090b347322e5cbe09b, type: 3}
    - {fileID: 21300000, guid: 4ad39854a4a554c5387adeb1b4400c9b, type: 3}
    - {fileID: 21300000, guid: 68b976a4614d84bb58e8d7b56432fd39, type: 3}
    - {fileID: 21300000, guid: 3f5d5664b856c48beadd3d7ed5bfd3bf, type: 3}
    - {fileID: 21300000, guid: fc6cfba8ccbb649d193afb5de427b759, type: 3}
    - {fileID: 21300000, guid: 13f485a68fd8c412999e265be568900d, type: 3}
    - {fileID: 21300000, guid: 3313540a21960411bb5f39e390309834, type: 3}
    - {fileID: 21300000, guid: 5a7a7861c241d4fe59b9a717d684b343, type: 3}
    - {fileID: 21300000, guid: 87be04c5da69241968511580c6da8469, type: 3}
    - {fileID: 21300000, guid: 6fa26fab5caf14313b128fe720e2d793, type: 3}
    - {fileID: 21300000, guid: 9b9c657be912a4fd4bbeb3ce113f0c82, type: 3}
    - {fileID: 21300000, guid: bbd386168296348d1ad4a11569106736, type: 3}
    - {fileID: 21300000, guid: c6904ce560c704531962975071cacae6, type: 3}
    - {fileID: 21300000, guid: 1bba9056786244bddb954f4efb9c689e, type: 3}
    - {fileID: 21300000, guid: aec23e783623c4e6abf1af3a165dcac3, type: 3}
    - {fileID: 21300000, guid: 9723dc231ebdb4f78a71874f74ae3b96, type: 3}
    - {fileID: 21300000, guid: 5feb3b1151bc442e7ac15f6554cb5b11, type: 3}
    - {fileID: 21300000, guid: d9d42c18c4d8d4994ac5c5aabcfc586e, type: 3}
    - {fileID: 21300000, guid: 52c6f399d5646486e9f6a6ecce361fd7, type: 3}
    - {fileID: 21300000, guid: 05f83465a89f04fd0b33b8929dd0e241, type: 3}
    - {fileID: 21300000, guid: a2ced232d07d942eba9da3c404a1d9d1, type: 3}
    - {fileID: 21300000, guid: c9434f5c35ebf43e588c267184e88019, type: 3}
    - {fileID: 21300000, guid: 8a540b7cdec2641989611d48340cb9ef, type: 3}
    - {fileID: 21300000, guid: 34050e83ad41342ef925f2b1b5f65b51, type: 3}
    - {fileID: 21300000, guid: 5d447fe277bac4a86abc166f338b1ecb, type: 3}
    - {fileID: 21300000, guid: 5d447fe277bac4a86abc166f338b1ecb, type: 3}
  m_AnimationClipSettings:
    serializedVersion: 2
    m_AdditiveReferencePoseClip: {fileID: 0}
    m_AdditiveReferencePoseTime: 0
    m_StartTime: 0
    m_StopTime: 6.458333
    m_OrientationOffsetY: 0
    m_Level: 0
    m_CycleOffset: 0
    m_HasAdditiveReferencePose: 0
    m_LoopTime: 0
    m_LoopBlend: 0
    m_LoopBlendOrientation: 0
    m_LoopBlendPositionY: 0
    m_LoopBlendPositionXZ: 0
    m_KeepOriginalOrientation: 0
    m_KeepOriginalPositionY: 1
    m_KeepOriginalPositionXZ: 0
    m_HeightFromFeet: 0
    m_Mirror: 0
  m_EditorCurves: []
  m_EulerEditorCurves: []
  m_HasGenericRootTransform: 0
  m_HasMotionFloatCurves: 0
  m_GenerateMotionCurves: 0
  m_Events:
  - time: 0
    functionName: Play
    data: 
    objectReferenceParameter: {fileID: 0}
    floatParameter: 0
    intParameter: 0
    messageOptions: 0
  - time: 6.4166665
    functionName: Seed
    data: 
    objectReferenceParameter: {fileID: 0}
    floatParameter: 0
    intParameter: 0
    messageOptions: 0
