%YAML 1.1
%TAG !u! tag:unity3d.com,2011:
--- !u!74 &7400000
AnimationClip:
  m_ObjectHideFlags: 0
  m_PrefabParentObject: {fileID: 0}
  m_PrefabInternal: {fileID: 0}
  m_Name: 02_dande_back_05loop
  serializedVersion: 6
  m_Legacy: 0
  m_Compressed: 0
  m_UseHighQualityCurve: 1
  m_RotationCurves: []
  m_CompressedRotationCurves: []
  m_EulerCurves: []
  m_PositionCurves: []
  m_ScaleCurves: []
  m_FloatCurves: []
  m_PPtrCurves:
  - curve:
    - time: 0
      value: {fileID: 21300000, guid: 2fd610e39d7274ee0ae9745d4596c420, type: 3}
    - time: 0.16666667
      value: {fileID: 21300000, guid: ee96dcc4bd90f448fa23ea050651e0ac, type: 3}
    - time: 0.3333333
      value: {fileID: 21300000, guid: 805f19dd8db9542bd936b0a2844cafef, type: 3}
    - time: 0.49999994
      value: {fileID: 21300000, guid: 92250886606e6408c81cb48d8d20e71b, type: 3}
    - time: 0.625
      value: {fileID: 21300000, guid: 92250886606e6408c81cb48d8d20e71b, type: 3}
    attribute: m_Sprite
    path: 
    classID: 212
    script: {fileID: 0}
  m_SampleRate: 24
  m_WrapMode: 0
  m_Bounds:
    m_Center: {x: 0, y: 0, z: 0}
    m_Extent: {x: 0, y: 0, z: 0}
  m_ClipBindingConstant:
    genericBindings:
    - serializedVersion: 2
      path: 0
      attribute: 0
      script: {fileID: 0}
      typeID: 212
      customType: 23
      isPPtrCurve: 1
    pptrCurveMapping:
    - {fileID: 21300000, guid: 2fd610e39d7274ee0ae9745d4596c420, type: 3}
    - {fileID: 21300000, guid: ee96dcc4bd90f448fa23ea050651e0ac, type: 3}
    - {fileID: 21300000, guid: 805f19dd8db9542bd936b0a2844cafef, type: 3}
    - {fileID: 21300000, guid: 92250886606e6408c81cb48d8d20e71b, type: 3}
    - {fileID: 21300000, guid: 92250886606e6408c81cb48d8d20e71b, type: 3}
  m_AnimationClipSettings:
    serializedVersion: 2
    m_AdditiveReferencePoseClip: {fileID: 0}
    m_AdditiveReferencePoseTime: 0
    m_StartTime: 0
    m_StopTime: 0.6666667
    m_OrientationOffsetY: 0
    m_Level: 0
    m_CycleOffset: 0
    m_HasAdditiveReferencePose: 0
    m_LoopTime: 1
    m_LoopBlend: 0
    m_LoopBlendOrientation: 0
    m_LoopBlendPositionY: 0
    m_LoopBlendPositionXZ: 0
    m_KeepOriginalOrientation: 0
    m_KeepOriginalPositionY: 1
    m_KeepOriginalPositionXZ: 0
    m_HeightFromFeet: 0
    m_Mirror: 0
  m_EditorCurves: []
  m_EulerEditorCurves: []
  m_HasGenericRootTransform: 0
  m_HasMotionFloatCurves: 0
  m_GenerateMotionCurves: 0
  m_Events: []
