%YAML 1.1
%TAG !u! tag:unity3d.com,2011:
--- !u!74 &7400000
AnimationClip:
  m_ObjectHideFlags: 0
  m_PrefabParentObject: {fileID: 0}
  m_PrefabInternal: {fileID: 0}
  m_Name: Cry
  serializedVersion: 6
  m_Legacy: 0
  m_Compressed: 0
  m_UseHighQualityCurve: 1
  m_RotationCurves: []
  m_CompressedRotationCurves: []
  m_EulerCurves: []
  m_PositionCurves: []
  m_ScaleCurves: []
  m_FloatCurves: []
  m_PPtrCurves:
  - curve:
    - time: 0
      value: {fileID: 21300000, guid: 0c44c06d305644951b65b8a0e880f229, type: 3}
    - time: 0.25
      value: {fileID: 21300000, guid: 8824723db959e4068a693d98d84b2667, type: 3}
    - time: 0.33333334
      value: {fileID: 21300000, guid: ef6d10a8f467247e5a6c0ddf47184eef, type: 3}
    - time: 0.45833334
      value: {fileID: 21300000, guid: 1f586ba0b238246a0ac0140a3e57576f, type: 3}
    - time: 1.2916666
      value: {fileID: 21300000, guid: 3ceb41342eaa34ec7b1db9c1f76aa2bb, type: 3}
    - time: 1.375
      value: {fileID: 21300000, guid: 5240c52f0181f44eea84b60ae41c812b, type: 3}
    - time: 1.5
      value: {fileID: 21300000, guid: 4ca61fd97f96645469fdeeb5a7b131d1, type: 3}
    - time: 1.625
      value: {fileID: 21300000, guid: 61ead872bfcf449c1b6a22eb3fdfd7c4, type: 3}
    - time: 1.75
      value: {fileID: 21300000, guid: 811882888feba4e36a8f241de2a620f2, type: 3}
    - time: 1.875
      value: {fileID: 21300000, guid: c5a06261c784945aaab1c711d06934a3, type: 3}
    - time: 2
      value: {fileID: 21300000, guid: 4de10864f273b40969215649dfc1dcfc, type: 3}
    - time: 2.0833333
      value: {fileID: 21300000, guid: 06535c08ccde94c709a3bc61984e385a, type: 3}
    - time: 2.1666667
      value: {fileID: 21300000, guid: e071a217a272347da9175ee1af02edce, type: 3}
    - time: 2.25
      value: {fileID: 21300000, guid: c7c3f2aeefdf54a7eb670a62c2216ab4, type: 3}
    - time: 2.3333333
      value: {fileID: 21300000, guid: a1c4946fd73d44450a6ed811d2fffff4, type: 3}
    - time: 2.4166667
      value: {fileID: 21300000, guid: d40c69ed790e249bbb5528735e09defb, type: 3}
    - time: 2.5
      value: {fileID: 21300000, guid: 2abb10d20c4b24f7fbf5f7759a470caf, type: 3}
    - time: 2.5833333
      value: {fileID: 21300000, guid: 268bb42fb9fe546fba2c7a14da27e1d0, type: 3}
    - time: 3.5416667
      value: {fileID: 21300000, guid: 268bb42fb9fe546fba2c7a14da27e1d0, type: 3}
    attribute: m_Sprite
    path: 
    classID: 212
    script: {fileID: 0}
  m_SampleRate: 24
  m_WrapMode: 0
  m_Bounds:
    m_Center: {x: 0, y: 0, z: 0}
    m_Extent: {x: 0, y: 0, z: 0}
  m_ClipBindingConstant:
    genericBindings:
    - serializedVersion: 2
      path: 0
      attribute: 0
      script: {fileID: 0}
      typeID: 212
      customType: 23
      isPPtrCurve: 1
    pptrCurveMapping:
    - {fileID: 21300000, guid: 0c44c06d305644951b65b8a0e880f229, type: 3}
    - {fileID: 21300000, guid: 8824723db959e4068a693d98d84b2667, type: 3}
    - {fileID: 21300000, guid: ef6d10a8f467247e5a6c0ddf47184eef, type: 3}
    - {fileID: 21300000, guid: 1f586ba0b238246a0ac0140a3e57576f, type: 3}
    - {fileID: 21300000, guid: 3ceb41342eaa34ec7b1db9c1f76aa2bb, type: 3}
    - {fileID: 21300000, guid: 5240c52f0181f44eea84b60ae41c812b, type: 3}
    - {fileID: 21300000, guid: 4ca61fd97f96645469fdeeb5a7b131d1, type: 3}
    - {fileID: 21300000, guid: 61ead872bfcf449c1b6a22eb3fdfd7c4, type: 3}
    - {fileID: 21300000, guid: 811882888feba4e36a8f241de2a620f2, type: 3}
    - {fileID: 21300000, guid: c5a06261c784945aaab1c711d06934a3, type: 3}
    - {fileID: 21300000, guid: 4de10864f273b40969215649dfc1dcfc, type: 3}
    - {fileID: 21300000, guid: 06535c08ccde94c709a3bc61984e385a, type: 3}
    - {fileID: 21300000, guid: e071a217a272347da9175ee1af02edce, type: 3}
    - {fileID: 21300000, guid: c7c3f2aeefdf54a7eb670a62c2216ab4, type: 3}
    - {fileID: 21300000, guid: a1c4946fd73d44450a6ed811d2fffff4, type: 3}
    - {fileID: 21300000, guid: d40c69ed790e249bbb5528735e09defb, type: 3}
    - {fileID: 21300000, guid: 2abb10d20c4b24f7fbf5f7759a470caf, type: 3}
    - {fileID: 21300000, guid: 268bb42fb9fe546fba2c7a14da27e1d0, type: 3}
    - {fileID: 21300000, guid: 268bb42fb9fe546fba2c7a14da27e1d0, type: 3}
  m_AnimationClipSettings:
    serializedVersion: 2
    m_AdditiveReferencePoseClip: {fileID: 0}
    m_AdditiveReferencePoseTime: 0
    m_StartTime: 0
    m_StopTime: 3.5833335
    m_OrientationOffsetY: 0
    m_Level: 0
    m_CycleOffset: 0
    m_HasAdditiveReferencePose: 0
    m_LoopTime: 0
    m_LoopBlend: 0
    m_LoopBlendOrientation: 0
    m_LoopBlendPositionY: 0
    m_LoopBlendPositionXZ: 0
    m_KeepOriginalOrientation: 0
    m_KeepOriginalPositionY: 1
    m_KeepOriginalPositionXZ: 0
    m_HeightFromFeet: 0
    m_Mirror: 0
  m_EditorCurves: []
  m_EulerEditorCurves: []
  m_HasGenericRootTransform: 0
  m_HasMotionFloatCurves: 0
  m_GenerateMotionCurves: 0
  m_Events: []
