%YAML 1.1
%TAG !u! tag:unity3d.com,2011:
--- !u!74 &7400000
AnimationClip:
  m_ObjectHideFlags: 0
  m_PrefabParentObject: {fileID: 0}
  m_PrefabInternal: {fileID: 0}
  m_Name: Idle
  serializedVersion: 6
  m_Legacy: 0
  m_Compressed: 0
  m_UseHighQualityCurve: 1
  m_RotationCurves: []
  m_CompressedRotationCurves: []
  m_EulerCurves: []
  m_PositionCurves: []
  m_ScaleCurves: []
  m_FloatCurves: []
  m_PPtrCurves:
  - curve:
    - time: 0
      value: {fileID: 21300000, guid: ac22e917b1c5f4a84af877925cafcf3a, type: 3}
    - time: 0.5833333
      value: {fileID: 21300000, guid: 1382a40b1744f40969535fce72208816, type: 3}
    - time: 0.7083334
      value: {fileID: 21300000, guid: f1766430a4fab48b595701c015710301, type: 3}
    - time: 0.9583335
      value: {fileID: 21300000, guid: f15ab36a25fda49e1b876c6da1c7d39e, type: 3}
    - time: 1.0833334
      value: {fileID: 21300000, guid: 7358d6d2c01a14a9dbe4b43263f9359a, type: 3}
    - time: 1.2083333
      value: {fileID: 21300000, guid: 8ecdf25e67b2f4d48808039cfd9e57be, type: 3}
    - time: 2.0416658
      value: {fileID: 21300000, guid: 04527a2a2a9614606af41932b0cc27d2, type: 3}
    - time: 2.1249993
      value: {fileID: 21300000, guid: 2d5243079d4384724bf6330bd00a207c, type: 3}
    - time: 2.2083328
      value: {fileID: 21300000, guid: e5c1efde1d10547d087c127bc0c500bd, type: 3}
    - time: 2.2916667
      value: {fileID: 21300000, guid: e5c1efde1d10547d087c127bc0c500bd, type: 3}
    attribute: m_Sprite
    path: 
    classID: 212
    script: {fileID: 0}
  m_SampleRate: 24
  m_WrapMode: 0
  m_Bounds:
    m_Center: {x: 0, y: 0, z: 0}
    m_Extent: {x: 0, y: 0, z: 0}
  m_ClipBindingConstant:
    genericBindings:
    - serializedVersion: 2
      path: 0
      attribute: 0
      script: {fileID: 0}
      typeID: 212
      customType: 23
      isPPtrCurve: 1
    pptrCurveMapping:
    - {fileID: 21300000, guid: ac22e917b1c5f4a84af877925cafcf3a, type: 3}
    - {fileID: 21300000, guid: 1382a40b1744f40969535fce72208816, type: 3}
    - {fileID: 21300000, guid: f1766430a4fab48b595701c015710301, type: 3}
    - {fileID: 21300000, guid: f15ab36a25fda49e1b876c6da1c7d39e, type: 3}
    - {fileID: 21300000, guid: 7358d6d2c01a14a9dbe4b43263f9359a, type: 3}
    - {fileID: 21300000, guid: 8ecdf25e67b2f4d48808039cfd9e57be, type: 3}
    - {fileID: 21300000, guid: 04527a2a2a9614606af41932b0cc27d2, type: 3}
    - {fileID: 21300000, guid: 2d5243079d4384724bf6330bd00a207c, type: 3}
    - {fileID: 21300000, guid: e5c1efde1d10547d087c127bc0c500bd, type: 3}
    - {fileID: 21300000, guid: e5c1efde1d10547d087c127bc0c500bd, type: 3}
  m_AnimationClipSettings:
    serializedVersion: 2
    m_AdditiveReferencePoseClip: {fileID: 0}
    m_AdditiveReferencePoseTime: 0
    m_StartTime: 0
    m_StopTime: 2.3333335
    m_OrientationOffsetY: 0
    m_Level: 0
    m_CycleOffset: 0
    m_HasAdditiveReferencePose: 0
    m_LoopTime: 1
    m_LoopBlend: 0
    m_LoopBlendOrientation: 0
    m_LoopBlendPositionY: 0
    m_LoopBlendPositionXZ: 0
    m_KeepOriginalOrientation: 0
    m_KeepOriginalPositionY: 1
    m_KeepOriginalPositionXZ: 0
    m_HeightFromFeet: 0
    m_Mirror: 0
  m_EditorCurves: []
  m_EulerEditorCurves: []
  m_HasGenericRootTransform: 0
  m_HasMotionFloatCurves: 0
  m_GenerateMotionCurves: 0
  m_Events: []
