%YAML 1.1
%TAG !u! tag:unity3d.com,2011:
--- !u!74 &7400000
AnimationClip:
  m_ObjectHideFlags: 0
  m_PrefabParentObject: {fileID: 0}
  m_PrefabInternal: {fileID: 0}
  m_Name: Jump
  serializedVersion: 6
  m_Legacy: 0
  m_Compressed: 0
  m_UseHighQualityCurve: 1
  m_RotationCurves: []
  m_CompressedRotationCurves: []
  m_EulerCurves: []
  m_PositionCurves: []
  m_ScaleCurves: []
  m_FloatCurves: []
  m_PPtrCurves:
  - curve:
    - time: 0
      value: {fileID: 21300000, guid: dd5f16ddb935b4b2894e88413a66ee2e, type: 3}
    - time: 0.25
      value: {fileID: 21300000, guid: a0014d891b2984208992e890e5b34ece, type: 3}
    - time: 0.375
      value: {fileID: 21300000, guid: 9d5b63d3c8d2d4fc7935b0d87e0158a9, type: 3}
    - time: 0.5
      value: {fileID: 21300000, guid: 1003aab811bb14aa1a10ccca2bccbc7e, type: 3}
    - time: 0.5833333
      value: {fileID: 21300000, guid: 9f42b3de588184129aef6bc4a09562a5, type: 3}
    - time: 0.6666667
      value: {fileID: 21300000, guid: 251b196c85ff8485e8f1c5c69913d599, type: 3}
    - time: 0.75
      value: {fileID: 21300000, guid: 1ae77fb855f5c4c4ca5f99828cf9b952, type: 3}
    - time: 0.7916667
      value: {fileID: 21300000, guid: 1ae77fb855f5c4c4ca5f99828cf9b952, type: 3}
    attribute: m_Sprite
    path: 
    classID: 212
    script: {fileID: 0}
  m_SampleRate: 24
  m_WrapMode: 0
  m_Bounds:
    m_Center: {x: 0, y: 0, z: 0}
    m_Extent: {x: 0, y: 0, z: 0}
  m_ClipBindingConstant:
    genericBindings:
    - serializedVersion: 2
      path: 0
      attribute: 0
      script: {fileID: 0}
      typeID: 212
      customType: 23
      isPPtrCurve: 1
    pptrCurveMapping:
    - {fileID: 21300000, guid: dd5f16ddb935b4b2894e88413a66ee2e, type: 3}
    - {fileID: 21300000, guid: a0014d891b2984208992e890e5b34ece, type: 3}
    - {fileID: 21300000, guid: 9d5b63d3c8d2d4fc7935b0d87e0158a9, type: 3}
    - {fileID: 21300000, guid: 1003aab811bb14aa1a10ccca2bccbc7e, type: 3}
    - {fileID: 21300000, guid: 9f42b3de588184129aef6bc4a09562a5, type: 3}
    - {fileID: 21300000, guid: 251b196c85ff8485e8f1c5c69913d599, type: 3}
    - {fileID: 21300000, guid: 1ae77fb855f5c4c4ca5f99828cf9b952, type: 3}
    - {fileID: 21300000, guid: 1ae77fb855f5c4c4ca5f99828cf9b952, type: 3}
  m_AnimationClipSettings:
    serializedVersion: 2
    m_AdditiveReferencePoseClip: {fileID: 0}
    m_AdditiveReferencePoseTime: 0
    m_StartTime: 0
    m_StopTime: 0.8333334
    m_OrientationOffsetY: 0
    m_Level: 0
    m_CycleOffset: 0
    m_HasAdditiveReferencePose: 0
    m_LoopTime: 0
    m_LoopBlend: 0
    m_LoopBlendOrientation: 0
    m_LoopBlendPositionY: 0
    m_LoopBlendPositionXZ: 0
    m_KeepOriginalOrientation: 0
    m_KeepOriginalPositionY: 1
    m_KeepOriginalPositionXZ: 0
    m_HeightFromFeet: 0
    m_Mirror: 0
  m_EditorCurves: []
  m_EulerEditorCurves: []
  m_HasGenericRootTransform: 0
  m_HasMotionFloatCurves: 0
  m_GenerateMotionCurves: 0
  m_Events:
  - time: 0
    functionName: SetMovable
    data: 
    objectReferenceParameter: {fileID: 0}
    floatParameter: 0
    intParameter: 0
    messageOptions: 0
  - time: 0.20833333
    functionName: SetMovable
    data: 
    objectReferenceParameter: {fileID: 0}
    floatParameter: 0
    intParameter: 1
    messageOptions: 0
  - time: 0.375
    functionName: SetMovable
    data: 
    objectReferenceParameter: {fileID: 0}
    floatParameter: 0
    intParameter: 0
    messageOptions: 0
