%YAML 1.1
%TAG !u! tag:unity3d.com,2011:
--- !u!74 &7400000
AnimationClip:
  m_ObjectHideFlags: 0
  m_PrefabParentObject: {fileID: 0}
  m_PrefabInternal: {fileID: 0}
  m_Name: To front
  serializedVersion: 6
  m_Legacy: 0
  m_Compressed: 0
  m_UseHighQualityCurve: 1
  m_RotationCurves: []
  m_CompressedRotationCurves: []
  m_EulerCurves: []
  m_PositionCurves: []
  m_ScaleCurves: []
  m_FloatCurves: []
  m_PPtrCurves:
  - curve:
    - time: 0
      value: {fileID: 21300000, guid: 8dc61d52458f24a2481fd4a2df213f2e, type: 3}
    - time: 0.25
      value: {fileID: 21300000, guid: 8d926d4101fcb4eb8b25fe661f056f45, type: 3}
    - time: 0.3333333
      value: {fileID: 21300000, guid: 83c8028417fb8425d99d0d1cbd342fc7, type: 3}
    - time: 0.41666663
      value: {fileID: 21300000, guid: 8bcd3d745ab9947d78d271e869287414, type: 3}
    - time: 0.49999994
      value: {fileID: 21300000, guid: 20d024bf9d22c4355bb53ddfc4eeffe0, type: 3}
    - time: 0.7083333
      value: {fileID: 21300000, guid: 20d024bf9d22c4355bb53ddfc4eeffe0, type: 3}
    attribute: m_Sprite
    path: 
    classID: 212
    script: {fileID: 0}
  m_SampleRate: 24
  m_WrapMode: 0
  m_Bounds:
    m_Center: {x: 0, y: 0, z: 0}
    m_Extent: {x: 0, y: 0, z: 0}
  m_ClipBindingConstant:
    genericBindings:
    - serializedVersion: 2
      path: 0
      attribute: 0
      script: {fileID: 0}
      typeID: 212
      customType: 23
      isPPtrCurve: 1
    pptrCurveMapping:
    - {fileID: 21300000, guid: 8dc61d52458f24a2481fd4a2df213f2e, type: 3}
    - {fileID: 21300000, guid: 8d926d4101fcb4eb8b25fe661f056f45, type: 3}
    - {fileID: 21300000, guid: 83c8028417fb8425d99d0d1cbd342fc7, type: 3}
    - {fileID: 21300000, guid: 8bcd3d745ab9947d78d271e869287414, type: 3}
    - {fileID: 21300000, guid: 20d024bf9d22c4355bb53ddfc4eeffe0, type: 3}
    - {fileID: 21300000, guid: 20d024bf9d22c4355bb53ddfc4eeffe0, type: 3}
  m_AnimationClipSettings:
    serializedVersion: 2
    m_AdditiveReferencePoseClip: {fileID: 0}
    m_AdditiveReferencePoseTime: 0
    m_StartTime: 0
    m_StopTime: 0.75
    m_OrientationOffsetY: 0
    m_Level: 0
    m_CycleOffset: 0
    m_HasAdditiveReferencePose: 0
    m_LoopTime: 0
    m_LoopBlend: 0
    m_LoopBlendOrientation: 0
    m_LoopBlendPositionY: 0
    m_LoopBlendPositionXZ: 0
    m_KeepOriginalOrientation: 0
    m_KeepOriginalPositionY: 1
    m_KeepOriginalPositionXZ: 0
    m_HeightFromFeet: 0
    m_Mirror: 0
  m_EditorCurves: []
  m_EulerEditorCurves: []
  m_HasGenericRootTransform: 0
  m_HasMotionFloatCurves: 0
  m_GenerateMotionCurves: 0
  m_Events: []
