%YAML 1.1
%TAG !u! tag:unity3d.com,2011:
--- !u!74 &7400000
AnimationClip:
  m_ObjectHideFlags: 0
  m_PrefabParentObject: {fileID: 0}
  m_PrefabInternal: {fileID: 0}
  m_Name: To left
  serializedVersion: 6
  m_Legacy: 0
  m_Compressed: 0
  m_UseHighQualityCurve: 1
  m_RotationCurves: []
  m_CompressedRotationCurves: []
  m_EulerCurves: []
  m_PositionCurves: []
  m_ScaleCurves: []
  m_FloatCurves: []
  m_PPtrCurves:
  - curve:
    - time: 0
      value: {fileID: 21300000, guid: c439864e1595d45cb838673a006288bf, type: 3}
    - time: 0.25
      value: {fileID: 21300000, guid: 9a536a1640d6143f1a9c606f1874d936, type: 3}
    - time: 0.37499997
      value: {fileID: 21300000, guid: 9a29c3e887c9d4f9ca512023da3c4aff, type: 3}
    - time: 0.49999994
      value: {fileID: 21300000, guid: d9f6c48b3b0ca421e8d6fa305904d79b, type: 3}
    - time: 0.5833333
      value: {fileID: 21300000, guid: b13e3fb6c03e84fbd9e1cd36cdcc5c9c, type: 3}
    - time: 0.6666667
      value: {fileID: 21300000, guid: 06ace70f1e0fd41b38c60fe8d68ab5ee, type: 3}
    - time: 0.875
      value: {fileID: 21300000, guid: 06ace70f1e0fd41b38c60fe8d68ab5ee, type: 3}
    attribute: m_Sprite
    path: 
    classID: 212
    script: {fileID: 0}
  m_SampleRate: 24
  m_WrapMode: 0
  m_Bounds:
    m_Center: {x: 0, y: 0, z: 0}
    m_Extent: {x: 0, y: 0, z: 0}
  m_ClipBindingConstant:
    genericBindings:
    - serializedVersion: 2
      path: 0
      attribute: 0
      script: {fileID: 0}
      typeID: 212
      customType: 23
      isPPtrCurve: 1
    pptrCurveMapping:
    - {fileID: 21300000, guid: c439864e1595d45cb838673a006288bf, type: 3}
    - {fileID: 21300000, guid: 9a536a1640d6143f1a9c606f1874d936, type: 3}
    - {fileID: 21300000, guid: 9a29c3e887c9d4f9ca512023da3c4aff, type: 3}
    - {fileID: 21300000, guid: d9f6c48b3b0ca421e8d6fa305904d79b, type: 3}
    - {fileID: 21300000, guid: b13e3fb6c03e84fbd9e1cd36cdcc5c9c, type: 3}
    - {fileID: 21300000, guid: 06ace70f1e0fd41b38c60fe8d68ab5ee, type: 3}
    - {fileID: 21300000, guid: 06ace70f1e0fd41b38c60fe8d68ab5ee, type: 3}
  m_AnimationClipSettings:
    serializedVersion: 2
    m_AdditiveReferencePoseClip: {fileID: 0}
    m_AdditiveReferencePoseTime: 0
    m_StartTime: 0
    m_StopTime: 0.9166667
    m_OrientationOffsetY: 0
    m_Level: 0
    m_CycleOffset: 0
    m_HasAdditiveReferencePose: 0
    m_LoopTime: 0
    m_LoopBlend: 0
    m_LoopBlendOrientation: 0
    m_LoopBlendPositionY: 0
    m_LoopBlendPositionXZ: 0
    m_KeepOriginalOrientation: 0
    m_KeepOriginalPositionY: 1
    m_KeepOriginalPositionXZ: 0
    m_HeightFromFeet: 0
    m_Mirror: 0
  m_EditorCurves: []
  m_EulerEditorCurves: []
  m_HasGenericRootTransform: 0
  m_HasMotionFloatCurves: 0
  m_GenerateMotionCurves: 0
  m_Events: []
