%YAML 1.1
%TAG !u! tag:unity3d.com,2011:
--- !u!74 &7400000
AnimationClip:
  m_ObjectHideFlags: 0
  m_PrefabParentObject: {fileID: 0}
  m_PrefabInternal: {fileID: 0}
  m_Name: Trot
  serializedVersion: 6
  m_Legacy: 0
  m_Compressed: 0
  m_UseHighQualityCurve: 1
  m_RotationCurves: []
  m_CompressedRotationCurves: []
  m_EulerCurves: []
  m_PositionCurves: []
  m_ScaleCurves: []
  m_FloatCurves: []
  m_PPtrCurves:
  - curve:
    - time: 0
      value: {fileID: 21300000, guid: 1efe470a741304ef4833a1dca0408b4b, type: 3}
    - time: 0.083333336
      value: {fileID: 21300000, guid: 43190bc3f781341528010e744e7532fe, type: 3}
    - time: 0.16666667
      value: {fileID: 21300000, guid: 6e00c980a779c4b95beafd45fbd77f97, type: 3}
    - time: 0.29166666
      value: {fileID: 21300000, guid: 2109d9444dc8648eabfbe0cfdba1a8c0, type: 3}
    - time: 0.37499997
      value: {fileID: 21300000, guid: 22f23abd8b403470aa0e39307ca5c2ba, type: 3}
    - time: 0.45833328
      value: {fileID: 21300000, guid: d012eaf5829ca45dab74409a359b48ec, type: 3}
    - time: 0.5416667
      value: {fileID: 21300000, guid: d012eaf5829ca45dab74409a359b48ec, type: 3}
    attribute: m_Sprite
    path: 
    classID: 212
    script: {fileID: 0}
  m_SampleRate: 24
  m_WrapMode: 0
  m_Bounds:
    m_Center: {x: 0, y: 0, z: 0}
    m_Extent: {x: 0, y: 0, z: 0}
  m_ClipBindingConstant:
    genericBindings:
    - serializedVersion: 2
      path: 0
      attribute: 0
      script: {fileID: 0}
      typeID: 212
      customType: 23
      isPPtrCurve: 1
    pptrCurveMapping:
    - {fileID: 21300000, guid: 1efe470a741304ef4833a1dca0408b4b, type: 3}
    - {fileID: 21300000, guid: 43190bc3f781341528010e744e7532fe, type: 3}
    - {fileID: 21300000, guid: 6e00c980a779c4b95beafd45fbd77f97, type: 3}
    - {fileID: 21300000, guid: 2109d9444dc8648eabfbe0cfdba1a8c0, type: 3}
    - {fileID: 21300000, guid: 22f23abd8b403470aa0e39307ca5c2ba, type: 3}
    - {fileID: 21300000, guid: d012eaf5829ca45dab74409a359b48ec, type: 3}
    - {fileID: 21300000, guid: d012eaf5829ca45dab74409a359b48ec, type: 3}
  m_AnimationClipSettings:
    serializedVersion: 2
    m_AdditiveReferencePoseClip: {fileID: 0}
    m_AdditiveReferencePoseTime: 0
    m_StartTime: 0
    m_StopTime: 0.5833334
    m_OrientationOffsetY: 0
    m_Level: 0
    m_CycleOffset: 0
    m_HasAdditiveReferencePose: 0
    m_LoopTime: 1
    m_LoopBlend: 0
    m_LoopBlendOrientation: 0
    m_LoopBlendPositionY: 0
    m_LoopBlendPositionXZ: 0
    m_KeepOriginalOrientation: 0
    m_KeepOriginalPositionY: 1
    m_KeepOriginalPositionXZ: 0
    m_HeightFromFeet: 0
    m_Mirror: 0
  m_EditorCurves: []
  m_EulerEditorCurves: []
  m_HasGenericRootTransform: 0
  m_HasMotionFloatCurves: 0
  m_GenerateMotionCurves: 0
  m_Events:
  - time: 0.083333336
    functionName: Play
    data: 
    objectReferenceParameter: {fileID: 0}
    floatParameter: 0
    intParameter: 0
    messageOptions: 0
  - time: 0.375
    functionName: Play
    data: 
    objectReferenceParameter: {fileID: 0}
    floatParameter: 0
    intParameter: 0
    messageOptions: 0
