%YAML 1.1
%TAG !u! tag:unity3d.com,2011:
--- !u!74 &7400000
AnimationClip:
  m_ObjectHideFlags: 0
  m_PrefabParentObject: {fileID: 0}
  m_PrefabInternal: {fileID: 0}
  m_Name: usagi
  serializedVersion: 6
  m_Legacy: 0
  m_Compressed: 0
  m_UseHighQualityCurve: 1
  m_RotationCurves: []
  m_CompressedRotationCurves: []
  m_EulerCurves: []
  m_PositionCurves:
  - curve:
      serializedVersion: 2
      m_Curve:
      - serializedVersion: 2
        time: 0
        value: {x: 5.297, y: -2.173, z: 0}
        inSlope: {x: 0, y: 0, z: 0}
        outSlope: {x: 0, y: 0, z: 0}
        tangentMode: 0
      m_PreInfinity: 2
      m_PostInfinity: 2
      m_RotationOrder: 4
    path: 
  m_ScaleCurves: []
  m_FloatCurves: []
  m_PPtrCurves:
  - curve:
    - time: 0
      value: {fileID: 21300000, guid: fbe3d638755a4458797efe64f3ddcca8, type: 3}
    - time: 0.25
      value: {fileID: 21300000, guid: 2fd84a383ad7c4a4cb21b9ed291e4074, type: 3}
    - time: 0.33333334
      value: {fileID: 21300000, guid: 111ff03f21cd14146a92bcf858be2675, type: 3}
    - time: 0.41666666
      value: {fileID: 21300000, guid: 6c0e99df70239420989788749afb2b19, type: 3}
    - time: 0.75
      value: {fileID: 21300000, guid: 3ce7e884941524ebfa12cdfe88bc31dc, type: 3}
    - time: 0.875
      value: {fileID: 21300000, guid: c86ea94a9b1024a1e90392328cdff9a8, type: 3}
    - time: 1
      value: {fileID: 21300000, guid: 97b914a66ef0f4e0b905dc81b46fed15, type: 3}
    - time: 1.0833334
      value: {fileID: 21300000, guid: e1fd84f69c2224b0ca326088f5b3e0e1, type: 3}
    - time: 1.1666666
      value: {fileID: 21300000, guid: c8d402c3b741e48a88098ce62e6441e0, type: 3}
    - time: 1.25
      value: {fileID: 21300000, guid: 32800cd5b4cd24f81b45f9c466e19e8d, type: 3}
    - time: 2.75
      value: {fileID: 21300000, guid: b9089eed8599643f0853fe825f057334, type: 3}
    - time: 2.8333333
      value: {fileID: 21300000, guid: 951b0a93dfea248528bd145e8953752e, type: 3}
    - time: 2.9166667
      value: {fileID: 21300000, guid: 926961abaa310418484fe5b66ee31b8f, type: 3}
    - time: 2.9583333
      value: {fileID: 21300000, guid: 5642e0e7ccadf4c2495d75bc3d31ea26, type: 3}
    - time: 3
      value: {fileID: 21300000, guid: 0255a4039f26f4a55811796408162726, type: 3}
    - time: 3.0416667
      value: {fileID: 21300000, guid: c0ee78f45c2db4c478c2a69cbc604ddc, type: 3}
    - time: 3.125
      value: {fileID: 21300000, guid: 1a3c74810fed449d6a1edcc2c1153d4f, type: 3}
    - time: 3.2083333
      value: {fileID: 21300000, guid: 734f4b42188834d69a346b7abf31522f, type: 3}
    - time: 3.25
      value: {fileID: 21300000, guid: fe219c7d0357147859f7cff79ad2486d, type: 3}
    - time: 3.3333333
      value: {fileID: 21300000, guid: 1380ea0d1438247dfb6f47f9d2f6f9d9, type: 3}
    - time: 3.4166667
      value: {fileID: 21300000, guid: cdd782ddc447e424a880bd84000e6002, type: 3}
    - time: 3.5
      value: {fileID: 21300000, guid: 9e790ab507ecc4952b19f3f0e97ecc05, type: 3}
    - time: 3.5833333
      value: {fileID: 21300000, guid: e3b05604c7d0e4abc955fa21504f7c21, type: 3}
    - time: 3.6666667
      value: {fileID: 21300000, guid: dcd4939bcc21c46d6b40d52faf156df3, type: 3}
    - time: 3.75
      value: {fileID: 21300000, guid: a95d45c06509048269e777a498bf528a, type: 3}
    - time: 3.8333333
      value: {fileID: 21300000, guid: 5be442d82588a4b88bb54b8f93e4cb7c, type: 3}
    - time: 3.9166667
      value: {fileID: 21300000, guid: 8d94a91256c5b49a89384624119a8954, type: 3}
    - time: 4
      value: {fileID: 21300000, guid: 333d2a3ba341c4b37bf107b830af876a, type: 3}
    - time: 4.0833335
      value: {fileID: 21300000, guid: a4e768ace19af42c79e1bbccb925e643, type: 3}
    - time: 4.1666665
      value: {fileID: 21300000, guid: 6a9352d554f63430e9ac87a394ac2183, type: 3}
    - time: 4.25
      value: {fileID: 21300000, guid: cf0c2af9f007e4173a3e0d7f73bbb5e3, type: 3}
    - time: 4.3333335
      value: {fileID: 21300000, guid: fdfbefda0680545069ac9943a6ff74b5, type: 3}
    - time: 4.4166665
      value: {fileID: 21300000, guid: 7f8d01a8ba92044e6bb5fdbdbc9f7d4e, type: 3}
    - time: 4.5
      value: {fileID: 21300000, guid: a3a60fa2748fc463389dacf2b26d8d57, type: 3}
    - time: 4.5833335
      value: {fileID: 21300000, guid: 3028972453e62400097fbce60bb95e0f, type: 3}
    - time: 4.6666665
      value: {fileID: 21300000, guid: 2a47365b1d0bd42378578216d894386b, type: 3}
    - time: 4.75
      value: {fileID: 21300000, guid: 3ecb01f5c8f3449a4a2c47bd485a731e, type: 3}
    - time: 4.8333335
      value: {fileID: 21300000, guid: 50f072a4edd99472880b0083026a1b81, type: 3}
    - time: 4.9166665
      value: {fileID: 21300000, guid: c0c202e5ef1cf44129486544c333df07, type: 3}
    - time: 5
      value: {fileID: 21300000, guid: 56f38c57901fd42a59cd8db6c2620b44, type: 3}
    - time: 5.0833335
      value: {fileID: 21300000, guid: cff208571133a48228655e7e57e6829e, type: 3}
    - time: 5.1666665
      value: {fileID: 21300000, guid: 6c5b527208e954c7fbbfc299c94d4e8a, type: 3}
    - time: 5.25
      value: {fileID: 21300000, guid: 18acec0f9e5994769bd27592af3d814b, type: 3}
    - time: 5.3333335
      value: {fileID: 21300000, guid: 153fd05507c5c483c9a58683f438070f, type: 3}
    - time: 5.4166665
      value: {fileID: 21300000, guid: f814dea44a8c7488bbde47ca384712ca, type: 3}
    - time: 5.5
      value: {fileID: 21300000, guid: 741dde3f7d1484689927193f7d6a8915, type: 3}
    - time: 5.5833335
      value: {fileID: 21300000, guid: c730c6043391949cc96b925676d1ce4e, type: 3}
    - time: 5.6666665
      value: {fileID: 21300000, guid: 69f82ee16704d4e139684657121e1e66, type: 3}
    - time: 5.75
      value: {fileID: 21300000, guid: b6d7899cd03ca49e7ae2d399437fd5b2, type: 3}
    - time: 5.8333335
      value: {fileID: 21300000, guid: acec7f4d2bc664af7a0e64321babf307, type: 3}
    - time: 5.9166665
      value: {fileID: 21300000, guid: 630762ed69bee4a93ac5575c5a794736, type: 3}
    - time: 6
      value: {fileID: 21300000, guid: 29853bff1afd646e09e81779c5ffb46a, type: 3}
    - time: 6.0833335
      value: {fileID: 21300000, guid: bc33420614607445e8762f9d04fcc373, type: 3}
    - time: 6.1666665
      value: {fileID: 21300000, guid: 1870a17ebbb6d485baf4e81bc994f47f, type: 3}
    - time: 6.25
      value: {fileID: 21300000, guid: 8e6da32b1888d47c790203aa0065a3b8, type: 3}
    - time: 6.3333335
      value: {fileID: 21300000, guid: 2491828b75b7c4f3ab3b49aa7ef2f6e8, type: 3}
    - time: 6.4166665
      value: {fileID: 21300000, guid: c27b694482342456ab4b65075aafcc0a, type: 3}
    - time: 6.5
      value: {fileID: 21300000, guid: b84e806ca050149d7b353928bf717522, type: 3}
    - time: 6.5833335
      value: {fileID: 21300000, guid: bc74ae49325f2454fb041f593ef8c781, type: 3}
    - time: 6.6666665
      value: {fileID: 21300000, guid: f802f6372fd8c401f96d42fc28ccdd23, type: 3}
    - time: 6.75
      value: {fileID: 21300000, guid: 25c35238947c945b9bc9cc77d1e4f871, type: 3}
    - time: 6.8333335
      value: {fileID: 21300000, guid: 43128f1b04b6748efb4226bbcb1cd407, type: 3}
    - time: 6.9166665
      value: {fileID: 21300000, guid: 9935efe55290b4f4395119f6aa89a259, type: 3}
    - time: 7
      value: {fileID: 21300000, guid: d0495d9472fbd4a2a8493d57d0d9979d, type: 3}
    - time: 7.0833335
      value: {fileID: 21300000, guid: 7a868a913b48a427db1b0db34867b8c9, type: 3}
    - time: 7.1666665
      value: {fileID: 21300000, guid: 937e9f13e2f2d48efacc7e5ad0579613, type: 3}
    - time: 7.25
      value: {fileID: 21300000, guid: d37ff6889e41d41a5b3c3ed5ed7d2426, type: 3}
    - time: 7.3333335
      value: {fileID: 21300000, guid: 61e027e5c52d6464591f93612e4b9a2a, type: 3}
    - time: 7.4166665
      value: {fileID: 21300000, guid: 62ec0a22217c5414db10a9f2ee7f4dab, type: 3}
    - time: 7.5
      value: {fileID: 21300000, guid: 08a0b435278394a3ab7062bc6cfb1dee, type: 3}
    - time: 7.5833335
      value: {fileID: 21300000, guid: 66d1c195a2eea43cc9d3d387d9804780, type: 3}
    - time: 7.6666665
      value: {fileID: 21300000, guid: 4fb6519ab517541c2b3a812906413988, type: 3}
    - time: 7.75
      value: {fileID: 21300000, guid: bb0d5fde7024f4410ab1749430e1b955, type: 3}
    - time: 7.8333335
      value: {fileID: 21300000, guid: 4a8e1411d516a4c18847ebebf9ff10bb, type: 3}
    - time: 7.9166665
      value: {fileID: 21300000, guid: d7055bc44ef894df8bd290040a413d85, type: 3}
    - time: 8
      value: {fileID: 21300000, guid: ab7c02cb0d5ad491f86efa516e3c8361, type: 3}
    - time: 8.083333
      value: {fileID: 21300000, guid: 832a3eb73aa294415aa96e57492c21f3, type: 3}
    - time: 8.125
      value: {fileID: 21300000, guid: 84f8e0cf5c55c428595bd4f5e2eb1835, type: 3}
    - time: 8.166667
      value: {fileID: 0}
    attribute: m_Sprite
    path: 
    classID: 212
    script: {fileID: 0}
  m_SampleRate: 24
  m_WrapMode: 0
  m_Bounds:
    m_Center: {x: 0, y: 0, z: 0}
    m_Extent: {x: 0, y: 0, z: 0}
  m_ClipBindingConstant:
    genericBindings:
    - serializedVersion: 2
      path: 0
      attribute: 0
      script: {fileID: 0}
      typeID: 212
      customType: 23
      isPPtrCurve: 1
    - serializedVersion: 2
      path: 0
      attribute: 1
      script: {fileID: 0}
      typeID: 4
      customType: 0
      isPPtrCurve: 0
    pptrCurveMapping:
    - {fileID: 21300000, guid: fbe3d638755a4458797efe64f3ddcca8, type: 3}
    - {fileID: 21300000, guid: 2fd84a383ad7c4a4cb21b9ed291e4074, type: 3}
    - {fileID: 21300000, guid: 111ff03f21cd14146a92bcf858be2675, type: 3}
    - {fileID: 21300000, guid: 6c0e99df70239420989788749afb2b19, type: 3}
    - {fileID: 21300000, guid: 3ce7e884941524ebfa12cdfe88bc31dc, type: 3}
    - {fileID: 21300000, guid: c86ea94a9b1024a1e90392328cdff9a8, type: 3}
    - {fileID: 21300000, guid: 97b914a66ef0f4e0b905dc81b46fed15, type: 3}
    - {fileID: 21300000, guid: e1fd84f69c2224b0ca326088f5b3e0e1, type: 3}
    - {fileID: 21300000, guid: c8d402c3b741e48a88098ce62e6441e0, type: 3}
    - {fileID: 21300000, guid: 32800cd5b4cd24f81b45f9c466e19e8d, type: 3}
    - {fileID: 21300000, guid: b9089eed8599643f0853fe825f057334, type: 3}
    - {fileID: 21300000, guid: 951b0a93dfea248528bd145e8953752e, type: 3}
    - {fileID: 21300000, guid: 926961abaa310418484fe5b66ee31b8f, type: 3}
    - {fileID: 21300000, guid: 5642e0e7ccadf4c2495d75bc3d31ea26, type: 3}
    - {fileID: 21300000, guid: 0255a4039f26f4a55811796408162726, type: 3}
    - {fileID: 21300000, guid: c0ee78f45c2db4c478c2a69cbc604ddc, type: 3}
    - {fileID: 21300000, guid: 1a3c74810fed449d6a1edcc2c1153d4f, type: 3}
    - {fileID: 21300000, guid: 734f4b42188834d69a346b7abf31522f, type: 3}
    - {fileID: 21300000, guid: fe219c7d0357147859f7cff79ad2486d, type: 3}
    - {fileID: 21300000, guid: 1380ea0d1438247dfb6f47f9d2f6f9d9, type: 3}
    - {fileID: 21300000, guid: cdd782ddc447e424a880bd84000e6002, type: 3}
    - {fileID: 21300000, guid: 9e790ab507ecc4952b19f3f0e97ecc05, type: 3}
    - {fileID: 21300000, guid: e3b05604c7d0e4abc955fa21504f7c21, type: 3}
    - {fileID: 21300000, guid: dcd4939bcc21c46d6b40d52faf156df3, type: 3}
    - {fileID: 21300000, guid: a95d45c06509048269e777a498bf528a, type: 3}
    - {fileID: 21300000, guid: 5be442d82588a4b88bb54b8f93e4cb7c, type: 3}
    - {fileID: 21300000, guid: 8d94a91256c5b49a89384624119a8954, type: 3}
    - {fileID: 21300000, guid: 333d2a3ba341c4b37bf107b830af876a, type: 3}
    - {fileID: 21300000, guid: a4e768ace19af42c79e1bbccb925e643, type: 3}
    - {fileID: 21300000, guid: 6a9352d554f63430e9ac87a394ac2183, type: 3}
    - {fileID: 21300000, guid: cf0c2af9f007e4173a3e0d7f73bbb5e3, type: 3}
    - {fileID: 21300000, guid: fdfbefda0680545069ac9943a6ff74b5, type: 3}
    - {fileID: 21300000, guid: 7f8d01a8ba92044e6bb5fdbdbc9f7d4e, type: 3}
    - {fileID: 21300000, guid: a3a60fa2748fc463389dacf2b26d8d57, type: 3}
    - {fileID: 21300000, guid: 3028972453e62400097fbce60bb95e0f, type: 3}
    - {fileID: 21300000, guid: 2a47365b1d0bd42378578216d894386b, type: 3}
    - {fileID: 21300000, guid: 3ecb01f5c8f3449a4a2c47bd485a731e, type: 3}
    - {fileID: 21300000, guid: 50f072a4edd99472880b0083026a1b81, type: 3}
    - {fileID: 21300000, guid: c0c202e5ef1cf44129486544c333df07, type: 3}
    - {fileID: 21300000, guid: 56f38c57901fd42a59cd8db6c2620b44, type: 3}
    - {fileID: 21300000, guid: cff208571133a48228655e7e57e6829e, type: 3}
    - {fileID: 21300000, guid: 6c5b527208e954c7fbbfc299c94d4e8a, type: 3}
    - {fileID: 21300000, guid: 18acec0f9e5994769bd27592af3d814b, type: 3}
    - {fileID: 21300000, guid: 153fd05507c5c483c9a58683f438070f, type: 3}
    - {fileID: 21300000, guid: f814dea44a8c7488bbde47ca384712ca, type: 3}
    - {fileID: 21300000, guid: 741dde3f7d1484689927193f7d6a8915, type: 3}
    - {fileID: 21300000, guid: c730c6043391949cc96b925676d1ce4e, type: 3}
    - {fileID: 21300000, guid: 69f82ee16704d4e139684657121e1e66, type: 3}
    - {fileID: 21300000, guid: b6d7899cd03ca49e7ae2d399437fd5b2, type: 3}
    - {fileID: 21300000, guid: acec7f4d2bc664af7a0e64321babf307, type: 3}
    - {fileID: 21300000, guid: 630762ed69bee4a93ac5575c5a794736, type: 3}
    - {fileID: 21300000, guid: 29853bff1afd646e09e81779c5ffb46a, type: 3}
    - {fileID: 21300000, guid: bc33420614607445e8762f9d04fcc373, type: 3}
    - {fileID: 21300000, guid: 1870a17ebbb6d485baf4e81bc994f47f, type: 3}
    - {fileID: 21300000, guid: 8e6da32b1888d47c790203aa0065a3b8, type: 3}
    - {fileID: 21300000, guid: 2491828b75b7c4f3ab3b49aa7ef2f6e8, type: 3}
    - {fileID: 21300000, guid: c27b694482342456ab4b65075aafcc0a, type: 3}
    - {fileID: 21300000, guid: b84e806ca050149d7b353928bf717522, type: 3}
    - {fileID: 21300000, guid: bc74ae49325f2454fb041f593ef8c781, type: 3}
    - {fileID: 21300000, guid: f802f6372fd8c401f96d42fc28ccdd23, type: 3}
    - {fileID: 21300000, guid: 25c35238947c945b9bc9cc77d1e4f871, type: 3}
    - {fileID: 21300000, guid: 43128f1b04b6748efb4226bbcb1cd407, type: 3}
    - {fileID: 21300000, guid: 9935efe55290b4f4395119f6aa89a259, type: 3}
    - {fileID: 21300000, guid: d0495d9472fbd4a2a8493d57d0d9979d, type: 3}
    - {fileID: 21300000, guid: 7a868a913b48a427db1b0db34867b8c9, type: 3}
    - {fileID: 21300000, guid: 937e9f13e2f2d48efacc7e5ad0579613, type: 3}
    - {fileID: 21300000, guid: d37ff6889e41d41a5b3c3ed5ed7d2426, type: 3}
    - {fileID: 21300000, guid: 61e027e5c52d6464591f93612e4b9a2a, type: 3}
    - {fileID: 21300000, guid: 62ec0a22217c5414db10a9f2ee7f4dab, type: 3}
    - {fileID: 21300000, guid: 08a0b435278394a3ab7062bc6cfb1dee, type: 3}
    - {fileID: 21300000, guid: 66d1c195a2eea43cc9d3d387d9804780, type: 3}
    - {fileID: 21300000, guid: 4fb6519ab517541c2b3a812906413988, type: 3}
    - {fileID: 21300000, guid: bb0d5fde7024f4410ab1749430e1b955, type: 3}
    - {fileID: 21300000, guid: 4a8e1411d516a4c18847ebebf9ff10bb, type: 3}
    - {fileID: 21300000, guid: d7055bc44ef894df8bd290040a413d85, type: 3}
    - {fileID: 21300000, guid: ab7c02cb0d5ad491f86efa516e3c8361, type: 3}
    - {fileID: 21300000, guid: 832a3eb73aa294415aa96e57492c21f3, type: 3}
    - {fileID: 21300000, guid: 84f8e0cf5c55c428595bd4f5e2eb1835, type: 3}
    - {fileID: 0}
  m_AnimationClipSettings:
    serializedVersion: 2
    m_AdditiveReferencePoseClip: {fileID: 0}
    m_AdditiveReferencePoseTime: 0
    m_StartTime: 0
    m_StopTime: 8.208334
    m_OrientationOffsetY: 0
    m_Level: 0
    m_CycleOffset: 0
    m_HasAdditiveReferencePose: 0
    m_LoopTime: 0
    m_LoopBlend: 0
    m_LoopBlendOrientation: 0
    m_LoopBlendPositionY: 0
    m_LoopBlendPositionXZ: 0
    m_KeepOriginalOrientation: 0
    m_KeepOriginalPositionY: 1
    m_KeepOriginalPositionXZ: 0
    m_HeightFromFeet: 0
    m_Mirror: 0
  m_EditorCurves:
  - curve:
      serializedVersion: 2
      m_Curve:
      - serializedVersion: 2
        time: 0
        value: 5.297
        inSlope: 0
        outSlope: 0
        tangentMode: 136
      m_PreInfinity: 2
      m_PostInfinity: 2
      m_RotationOrder: 4
    attribute: m_LocalPosition.x
    path: 
    classID: 4
    script: {fileID: 0}
  - curve:
      serializedVersion: 2
      m_Curve:
      - serializedVersion: 2
        time: 0
        value: -2.173
        inSlope: 0
        outSlope: 0
        tangentMode: 136
      m_PreInfinity: 2
      m_PostInfinity: 2
      m_RotationOrder: 4
    attribute: m_LocalPosition.y
    path: 
    classID: 4
    script: {fileID: 0}
  - curve:
      serializedVersion: 2
      m_Curve:
      - serializedVersion: 2
        time: 0
        value: 0
        inSlope: 0
        outSlope: 0
        tangentMode: 136
      m_PreInfinity: 2
      m_PostInfinity: 2
      m_RotationOrder: 4
    attribute: m_LocalPosition.z
    path: 
    classID: 4
    script: {fileID: 0}
  m_EulerEditorCurves: []
  m_HasGenericRootTransform: 1
  m_HasMotionFloatCurves: 0
  m_GenerateMotionCurves: 0
  m_Events: []
