%YAML 1.1
%TAG !u! tag:unity3d.com,2011:
--- !u!74 &7400000
AnimationClip:
  m_ObjectHideFlags: 0
  m_PrefabParentObject: {fileID: 0}
  m_PrefabInternal: {fileID: 0}
  m_Name: out
  serializedVersion: 6
  m_Legacy: 0
  m_Compressed: 0
  m_UseHighQualityCurve: 1
  m_RotationCurves: []
  m_CompressedRotationCurves: []
  m_EulerCurves: []
  m_PositionCurves: []
  m_ScaleCurves: []
  m_FloatCurves: []
  m_PPtrCurves:
  - curve:
    - time: 0
      value: {fileID: 21300000, guid: 382a2babb6ecd4b3c9f6f8d6d5e02242, type: 3}
    - time: 0.125
      value: {fileID: 21300000, guid: 698185232d4434f9ca477a0b8bba268a, type: 3}
    - time: 0.25
      value: {fileID: 21300000, guid: 8e3d99347603349b69436463e7d1c6d7, type: 3}
    - time: 0.375
      value: {fileID: 21300000, guid: 7898a10118e5248508a1af375af04224, type: 3}
    - time: 0.5
      value: {fileID: 21300000, guid: 0b88eb108cfd84f608712ce932bb5706, type: 3}
    - time: 0.625
      value: {fileID: 21300000, guid: a9d9d593fe0644b729c6060c687c7520, type: 3}
    - time: 0.75
      value: {fileID: 21300000, guid: 3ed33f413425f479f95e03a66b18a6cf, type: 3}
    - time: 0.875
      value: {fileID: 21300000, guid: 4384723be68b84452a13461d50694fb9, type: 3}
    - time: 1
      value: {fileID: 21300000, guid: 6b7f32dc518a5483d973b770582b0e31, type: 3}
    - time: 1.125
      value: {fileID: 21300000, guid: b9608c04a2c83488cbaa347793f9de7a, type: 3}
    - time: 1.25
      value: {fileID: 21300000, guid: 360884c79695b488abb9fe4368280faa, type: 3}
    - time: 1.375
      value: {fileID: 21300000, guid: 6bd58d404a9db41f18cf0da188545318, type: 3}
    - time: 1.5
      value: {fileID: 21300000, guid: 7f08dc30ccfbf4e599880814d8e70b2b, type: 3}
    - time: 1.625
      value: {fileID: 21300000, guid: 3e75c1178996e4445b161c820c06c306, type: 3}
    - time: 1.75
      value: {fileID: 21300000, guid: 07e62b7f344fd479a90ba9092cd6ff5b, type: 3}
    - time: 1.875
      value: {fileID: 21300000, guid: 810f6020a9b414fa5b9a235690b52a62, type: 3}
    - time: 2.0416667
      value: {fileID: 21300000, guid: c3ff8f693fa2d456495d0948d4709b08, type: 3}
    - time: 2.2083333
      value: {fileID: 21300000, guid: a17166dd2dc674b9d9050cbb245ad82e, type: 3}
    - time: 2.3333333
      value: {fileID: 21300000, guid: 4e1190e1178824ec9969b725887ef34e, type: 3}
    - time: 2.4583333
      value: {fileID: 21300000, guid: 552b735bda74143708fffec166830f04, type: 3}
    - time: 2.5833333
      value: {fileID: 21300000, guid: c0cb9663c06e640a09ab0f55f1b4d863, type: 3}
    - time: 2.7083333
      value: {fileID: 21300000, guid: 51aae6a024959466a90b407d220d4099, type: 3}
    - time: 2.8333333
      value: {fileID: 21300000, guid: 2652bd8de6dba4f729c4de49b572c488, type: 3}
    - time: 2.9166667
      value: {fileID: 21300000, guid: feec8d1be602144ffa48d7a209ff029a, type: 3}
    - time: 3
      value: {fileID: 21300000, guid: b3f26ded2ed614978966518d7e0a15a3, type: 3}
    - time: 3.0833333
      value: {fileID: 21300000, guid: 6ba027444e6b94d66a5683e5e24d3f6d, type: 3}
    - time: 3.3333333
      value: {fileID: 21300000, guid: 5349a03323b894818b0d9c3f6ee599be, type: 3}
    - time: 3.4166667
      value: {fileID: 21300000, guid: f141ac53e2dcf4fc0b34fdac94ff2b5f, type: 3}
    - time: 3.5
      value: {fileID: 21300000, guid: 60023f3f0c3564576b163b4c0e2f9040, type: 3}
    - time: 3.6666667
      value: {fileID: 21300000, guid: c3ba777823f054aafb7aaca94c0a46d2, type: 3}
    - time: 3.7916667
      value: {fileID: 21300000, guid: 1e55a62987d024eddba9ea3c348aa438, type: 3}
    - time: 3.9166667
      value: {fileID: 21300000, guid: 89ee3a49403df417c96f04fce8891fce, type: 3}
    - time: 4.0416665
      value: {fileID: 21300000, guid: 552a7c0c7d5fa411299ae2fe84f6a630, type: 3}
    - time: 4.1666665
      value: {fileID: 21300000, guid: e305db2247af24224aa2464aee735e06, type: 3}
    - time: 4.2916665
      value: {fileID: 21300000, guid: 6057cdabbd283419e932a7dbeb2bbd89, type: 3}
    - time: 4.4166665
      value: {fileID: 21300000, guid: 14a0f4c17804648cd81ef4e48ad06479, type: 3}
    - time: 4.5416665
      value: {fileID: 21300000, guid: d3cf2d76d21844427a7aa9944b5c1eed, type: 3}
    - time: 4.6666665
      value: {fileID: 21300000, guid: 5eabb01e799ca42998d0cf84acdaa873, type: 3}
    - time: 4.7916665
      value: {fileID: 21300000, guid: 04955c148b40a43529e4a613649d3ffc, type: 3}
    - time: 4.9166665
      value: {fileID: 21300000, guid: f876690182db0480bb4ff1e707fe26a0, type: 3}
    - time: 5.0416665
      value: {fileID: 21300000, guid: 915a703c301fd472e915a38aafe8ab3d, type: 3}
    - time: 5.1666665
      value: {fileID: 21300000, guid: fcc812067143b4be7bb8eab14d45f7cb, type: 3}
    - time: 5.2916665
      value: {fileID: 21300000, guid: 4e205a248862948729e219c56fe92c4e, type: 3}
    - time: 5.4166665
      value: {fileID: 21300000, guid: 1a43d2620a33240fa9aea274c8335546, type: 3}
    - time: 5.5416665
      value: {fileID: 21300000, guid: 88a8495eb962748a6ab22a38c8268dbf, type: 3}
    - time: 5.6666665
      value: {fileID: 21300000, guid: 6b40cbd0b21c34c9cbe34cf9826d618d, type: 3}
    - time: 5.7916665
      value: {fileID: 21300000, guid: bfd15898d3cda46b5ba11701629ecf2e, type: 3}
    - time: 5.9166665
      value: {fileID: 21300000, guid: a9c5b3bba1a644f1baef31d1c3848c3b, type: 3}
    - time: 6.0416665
      value: {fileID: 21300000, guid: cd12d874636c84954aa792105353af7d, type: 3}
    - time: 6.1666665
      value: {fileID: 21300000, guid: 715d625647f034078899b9250063901d, type: 3}
    - time: 6.2916665
      value: {fileID: 21300000, guid: 6fc4ad158be8847a78d4bd42cd87ceb4, type: 3}
    - time: 6.4166665
      value: {fileID: 21300000, guid: 00a2dba9641f24a3c9ad7d0ec064a61f, type: 3}
    - time: 6.5416665
      value: {fileID: 21300000, guid: cd59529a2e1c24b3b987b6440019b777, type: 3}
    - time: 6.6666665
      value: {fileID: 21300000, guid: ea4b6f290a68246e09ed02a3ca0261f5, type: 3}
    - time: 6.7916665
      value: {fileID: 21300000, guid: 3c6eb37e5a63446b59b0a4b906a6d974, type: 3}
    - time: 6.9166665
      value: {fileID: 21300000, guid: 7411b9a5eedb1424f9459af021402d76, type: 3}
    - time: 7.0416665
      value: {fileID: 21300000, guid: bcd2656c38fe143428a3de79a8ee76d6, type: 3}
    - time: 7.1666665
      value: {fileID: 21300000, guid: 739cd9abde895493485e66e95adfade8, type: 3}
    - time: 7.2916665
      value: {fileID: 21300000, guid: 20ba378ad5d5c4a5093b4878b811ee5f, type: 3}
    - time: 7.4166665
      value: {fileID: 21300000, guid: bb9aa6299225543fb8eac96070f83d2e, type: 3}
    - time: 7.5416665
      value: {fileID: 21300000, guid: 09d8e9437651743c899a79641f460118, type: 3}
    - time: 7.6666665
      value: {fileID: 21300000, guid: 155b367cb2d624defae3ef1aff912b21, type: 3}
    - time: 7.7916665
      value: {fileID: 21300000, guid: 1f9e9557cfb8b4df7a907022be3f2b67, type: 3}
    - time: 7.9166665
      value: {fileID: 21300000, guid: 7897f7e5a125244fa80508769b7519ab, type: 3}
    - time: 8.041667
      value: {fileID: 21300000, guid: b989ac6d7b67f49bc8a01e82e607d1e2, type: 3}
    - time: 8.166667
      value: {fileID: 21300000, guid: eb4906a5ec22a437d9f27e87b5bb6431, type: 3}
    - time: 8.291667
      value: {fileID: 21300000, guid: e8541eab26264416f9f471dc3333904d, type: 3}
    - time: 8.416667
      value: {fileID: 21300000, guid: af2b37bb97914485b97bb076fb6574ae, type: 3}
    - time: 8.541667
      value: {fileID: 21300000, guid: 6767d5d3b1e1c437cacf4048550a0d07, type: 3}
    - time: 8.666667
      value: {fileID: 21300000, guid: 17fb2210c5d064c8fa995df7b93a9524, type: 3}
    - time: 8.791667
      value: {fileID: 21300000, guid: 66de271cd18fb42d6aa5f46ed75c229f, type: 3}
    - time: 8.916667
      value: {fileID: 21300000, guid: 8aec73d83462745d8b04f96548073ed0, type: 3}
    - time: 9.041667
      value: {fileID: 21300000, guid: 02e671738500e4ad0b133739ffbc3a0c, type: 3}
    - time: 9.166667
      value: {fileID: 21300000, guid: bb9556b9574694fa9b4947b338f0bd6f, type: 3}
    - time: 9.291667
      value: {fileID: 21300000, guid: 7f2b3919fcccd442ba2848a81e87b55d, type: 3}
    - time: 9.416667
      value: {fileID: 21300000, guid: 0679224baacef4a2699fcf69a41b0ebd, type: 3}
    - time: 9.541667
      value: {fileID: 21300000, guid: 8fd82084d5a7849e5bd78990a542748d, type: 3}
    - time: 9.666667
      value: {fileID: 21300000, guid: a0a5fbc2c0dc6449f8dfc8f133266c94, type: 3}
    - time: 9.791667
      value: {fileID: 21300000, guid: 43d93d6447cbb4bc9af75a306b9451e1, type: 3}
    - time: 9.916667
      value: {fileID: 21300000, guid: d73dc03144cca48619b3e8685c510ca9, type: 3}
    - time: 10.041667
      value: {fileID: 21300000, guid: 42e251bca0f4a467291275f7058084d8, type: 3}
    - time: 10.166667
      value: {fileID: 21300000, guid: abc2f9b42773c46438898b629b27e07e, type: 3}
    - time: 10.291667
      value: {fileID: 21300000, guid: ea56b2a0310074c49a4d70c076adc9a0, type: 3}
    - time: 10.416667
      value: {fileID: 21300000, guid: 922173a19651d403e958a7514e5964fb, type: 3}
    - time: 10.5
      value: {fileID: 21300000, guid: 922173a19651d403e958a7514e5964fb, type: 3}
    attribute: m_Sprite
    path: 
    classID: 212
    script: {fileID: 0}
  m_SampleRate: 24
  m_WrapMode: 0
  m_Bounds:
    m_Center: {x: 0, y: 0, z: 0}
    m_Extent: {x: 0, y: 0, z: 0}
  m_ClipBindingConstant:
    genericBindings:
    - serializedVersion: 2
      path: 0
      attribute: 0
      script: {fileID: 0}
      typeID: 212
      customType: 23
      isPPtrCurve: 1
    pptrCurveMapping:
    - {fileID: 21300000, guid: 382a2babb6ecd4b3c9f6f8d6d5e02242, type: 3}
    - {fileID: 21300000, guid: 698185232d4434f9ca477a0b8bba268a, type: 3}
    - {fileID: 21300000, guid: 8e3d99347603349b69436463e7d1c6d7, type: 3}
    - {fileID: 21300000, guid: 7898a10118e5248508a1af375af04224, type: 3}
    - {fileID: 21300000, guid: 0b88eb108cfd84f608712ce932bb5706, type: 3}
    - {fileID: 21300000, guid: a9d9d593fe0644b729c6060c687c7520, type: 3}
    - {fileID: 21300000, guid: 3ed33f413425f479f95e03a66b18a6cf, type: 3}
    - {fileID: 21300000, guid: 4384723be68b84452a13461d50694fb9, type: 3}
    - {fileID: 21300000, guid: 6b7f32dc518a5483d973b770582b0e31, type: 3}
    - {fileID: 21300000, guid: b9608c04a2c83488cbaa347793f9de7a, type: 3}
    - {fileID: 21300000, guid: 360884c79695b488abb9fe4368280faa, type: 3}
    - {fileID: 21300000, guid: 6bd58d404a9db41f18cf0da188545318, type: 3}
    - {fileID: 21300000, guid: 7f08dc30ccfbf4e599880814d8e70b2b, type: 3}
    - {fileID: 21300000, guid: 3e75c1178996e4445b161c820c06c306, type: 3}
    - {fileID: 21300000, guid: 07e62b7f344fd479a90ba9092cd6ff5b, type: 3}
    - {fileID: 21300000, guid: 810f6020a9b414fa5b9a235690b52a62, type: 3}
    - {fileID: 21300000, guid: c3ff8f693fa2d456495d0948d4709b08, type: 3}
    - {fileID: 21300000, guid: a17166dd2dc674b9d9050cbb245ad82e, type: 3}
    - {fileID: 21300000, guid: 4e1190e1178824ec9969b725887ef34e, type: 3}
    - {fileID: 21300000, guid: 552b735bda74143708fffec166830f04, type: 3}
    - {fileID: 21300000, guid: c0cb9663c06e640a09ab0f55f1b4d863, type: 3}
    - {fileID: 21300000, guid: 51aae6a024959466a90b407d220d4099, type: 3}
    - {fileID: 21300000, guid: 2652bd8de6dba4f729c4de49b572c488, type: 3}
    - {fileID: 21300000, guid: feec8d1be602144ffa48d7a209ff029a, type: 3}
    - {fileID: 21300000, guid: b3f26ded2ed614978966518d7e0a15a3, type: 3}
    - {fileID: 21300000, guid: 6ba027444e6b94d66a5683e5e24d3f6d, type: 3}
    - {fileID: 21300000, guid: 5349a03323b894818b0d9c3f6ee599be, type: 3}
    - {fileID: 21300000, guid: f141ac53e2dcf4fc0b34fdac94ff2b5f, type: 3}
    - {fileID: 21300000, guid: 60023f3f0c3564576b163b4c0e2f9040, type: 3}
    - {fileID: 21300000, guid: c3ba777823f054aafb7aaca94c0a46d2, type: 3}
    - {fileID: 21300000, guid: 1e55a62987d024eddba9ea3c348aa438, type: 3}
    - {fileID: 21300000, guid: 89ee3a49403df417c96f04fce8891fce, type: 3}
    - {fileID: 21300000, guid: 552a7c0c7d5fa411299ae2fe84f6a630, type: 3}
    - {fileID: 21300000, guid: e305db2247af24224aa2464aee735e06, type: 3}
    - {fileID: 21300000, guid: 6057cdabbd283419e932a7dbeb2bbd89, type: 3}
    - {fileID: 21300000, guid: 14a0f4c17804648cd81ef4e48ad06479, type: 3}
    - {fileID: 21300000, guid: d3cf2d76d21844427a7aa9944b5c1eed, type: 3}
    - {fileID: 21300000, guid: 5eabb01e799ca42998d0cf84acdaa873, type: 3}
    - {fileID: 21300000, guid: 04955c148b40a43529e4a613649d3ffc, type: 3}
    - {fileID: 21300000, guid: f876690182db0480bb4ff1e707fe26a0, type: 3}
    - {fileID: 21300000, guid: 915a703c301fd472e915a38aafe8ab3d, type: 3}
    - {fileID: 21300000, guid: fcc812067143b4be7bb8eab14d45f7cb, type: 3}
    - {fileID: 21300000, guid: 4e205a248862948729e219c56fe92c4e, type: 3}
    - {fileID: 21300000, guid: 1a43d2620a33240fa9aea274c8335546, type: 3}
    - {fileID: 21300000, guid: 88a8495eb962748a6ab22a38c8268dbf, type: 3}
    - {fileID: 21300000, guid: 6b40cbd0b21c34c9cbe34cf9826d618d, type: 3}
    - {fileID: 21300000, guid: bfd15898d3cda46b5ba11701629ecf2e, type: 3}
    - {fileID: 21300000, guid: a9c5b3bba1a644f1baef31d1c3848c3b, type: 3}
    - {fileID: 21300000, guid: cd12d874636c84954aa792105353af7d, type: 3}
    - {fileID: 21300000, guid: 715d625647f034078899b9250063901d, type: 3}
    - {fileID: 21300000, guid: 6fc4ad158be8847a78d4bd42cd87ceb4, type: 3}
    - {fileID: 21300000, guid: 00a2dba9641f24a3c9ad7d0ec064a61f, type: 3}
    - {fileID: 21300000, guid: cd59529a2e1c24b3b987b6440019b777, type: 3}
    - {fileID: 21300000, guid: ea4b6f290a68246e09ed02a3ca0261f5, type: 3}
    - {fileID: 21300000, guid: 3c6eb37e5a63446b59b0a4b906a6d974, type: 3}
    - {fileID: 21300000, guid: 7411b9a5eedb1424f9459af021402d76, type: 3}
    - {fileID: 21300000, guid: bcd2656c38fe143428a3de79a8ee76d6, type: 3}
    - {fileID: 21300000, guid: 739cd9abde895493485e66e95adfade8, type: 3}
    - {fileID: 21300000, guid: 20ba378ad5d5c4a5093b4878b811ee5f, type: 3}
    - {fileID: 21300000, guid: bb9aa6299225543fb8eac96070f83d2e, type: 3}
    - {fileID: 21300000, guid: 09d8e9437651743c899a79641f460118, type: 3}
    - {fileID: 21300000, guid: 155b367cb2d624defae3ef1aff912b21, type: 3}
    - {fileID: 21300000, guid: 1f9e9557cfb8b4df7a907022be3f2b67, type: 3}
    - {fileID: 21300000, guid: 7897f7e5a125244fa80508769b7519ab, type: 3}
    - {fileID: 21300000, guid: b989ac6d7b67f49bc8a01e82e607d1e2, type: 3}
    - {fileID: 21300000, guid: eb4906a5ec22a437d9f27e87b5bb6431, type: 3}
    - {fileID: 21300000, guid: e8541eab26264416f9f471dc3333904d, type: 3}
    - {fileID: 21300000, guid: af2b37bb97914485b97bb076fb6574ae, type: 3}
    - {fileID: 21300000, guid: 6767d5d3b1e1c437cacf4048550a0d07, type: 3}
    - {fileID: 21300000, guid: 17fb2210c5d064c8fa995df7b93a9524, type: 3}
    - {fileID: 21300000, guid: 66de271cd18fb42d6aa5f46ed75c229f, type: 3}
    - {fileID: 21300000, guid: 8aec73d83462745d8b04f96548073ed0, type: 3}
    - {fileID: 21300000, guid: 02e671738500e4ad0b133739ffbc3a0c, type: 3}
    - {fileID: 21300000, guid: bb9556b9574694fa9b4947b338f0bd6f, type: 3}
    - {fileID: 21300000, guid: 7f2b3919fcccd442ba2848a81e87b55d, type: 3}
    - {fileID: 21300000, guid: 0679224baacef4a2699fcf69a41b0ebd, type: 3}
    - {fileID: 21300000, guid: 8fd82084d5a7849e5bd78990a542748d, type: 3}
    - {fileID: 21300000, guid: a0a5fbc2c0dc6449f8dfc8f133266c94, type: 3}
    - {fileID: 21300000, guid: 43d93d6447cbb4bc9af75a306b9451e1, type: 3}
    - {fileID: 21300000, guid: d73dc03144cca48619b3e8685c510ca9, type: 3}
    - {fileID: 21300000, guid: 42e251bca0f4a467291275f7058084d8, type: 3}
    - {fileID: 21300000, guid: abc2f9b42773c46438898b629b27e07e, type: 3}
    - {fileID: 21300000, guid: ea56b2a0310074c49a4d70c076adc9a0, type: 3}
    - {fileID: 21300000, guid: 922173a19651d403e958a7514e5964fb, type: 3}
    - {fileID: 21300000, guid: 922173a19651d403e958a7514e5964fb, type: 3}
  m_AnimationClipSettings:
    serializedVersion: 2
    m_AdditiveReferencePoseClip: {fileID: 0}
    m_AdditiveReferencePoseTime: 0
    m_StartTime: 0
    m_StopTime: 10.541667
    m_OrientationOffsetY: 0
    m_Level: 0
    m_CycleOffset: 0
    m_HasAdditiveReferencePose: 0
    m_LoopTime: 0
    m_LoopBlend: 0
    m_LoopBlendOrientation: 0
    m_LoopBlendPositionY: 0
    m_LoopBlendPositionXZ: 0
    m_KeepOriginalOrientation: 0
    m_KeepOriginalPositionY: 1
    m_KeepOriginalPositionXZ: 0
    m_HeightFromFeet: 0
    m_Mirror: 0
  m_EditorCurves: []
  m_EulerEditorCurves: []
  m_HasGenericRootTransform: 0
  m_HasMotionFloatCurves: 0
  m_GenerateMotionCurves: 0
  m_Events:
  - time: 0
    functionName: PlayId
    data: 
    objectReferenceParameter: {fileID: 0}
    floatParameter: 0
    intParameter: 0
    messageOptions: 0
  - time: 1
    functionName: PlayId
    data: 
    objectReferenceParameter: {fileID: 0}
    floatParameter: 0
    intParameter: 1
    messageOptions: 0
  - time: 10.5
    functionName: NextScene
    data: 
    objectReferenceParameter: {fileID: 0}
    floatParameter: 0
    intParameter: 0
    messageOptions: 0
