%YAML 1.1
%TAG !u! tag:unity3d.com,2011:
--- !u!74 &7400000
AnimationClip:
  m_ObjectHideFlags: 0
  m_PrefabParentObject: {fileID: 0}
  m_PrefabInternal: {fileID: 0}
  m_Name: Tap
  serializedVersion: 6
  m_Legacy: 0
  m_Compressed: 0
  m_UseHighQualityCurve: 1
  m_RotationCurves: []
  m_CompressedRotationCurves: []
  m_EulerCurves: []
  m_PositionCurves: []
  m_ScaleCurves: []
  m_FloatCurves: []
  m_PPtrCurves:
  - curve:
    - time: 0
      value: {fileID: 21300000, guid: 282324c248e3d484bb66c95d27185eb2, type: 3}
    - time: 0.083333336
      value: {fileID: 21300000, guid: 8737f98f4c542426eb1bf278494f608e, type: 3}
    - time: 0.16666667
      value: {fileID: 21300000, guid: c1563aaa8675e40329ab52967a67f2fb, type: 3}
    - time: 0.25
      value: {fileID: 21300000, guid: 3b21f3bc14b4f45b0aee93433654617f, type: 3}
    - time: 0.3333333
      value: {fileID: 21300000, guid: c3d0066a4fb024c50b68b043396b7c15, type: 3}
    - time: 0.41666663
      value: {fileID: 21300000, guid: 91b601acb9d454d9799eb61f0d2425d9, type: 3}
    - time: 0.5
      value: {fileID: 21300000, guid: 63e7c2baedc67441fa31da3ee9c34ed0, type: 3}
    attribute: m_Sprite
    path: 
    classID: 212
    script: {fileID: 0}
  m_SampleRate: 24
  m_WrapMode: 0
  m_Bounds:
    m_Center: {x: 0, y: 0, z: 0}
    m_Extent: {x: 0, y: 0, z: 0}
  m_ClipBindingConstant:
    genericBindings:
    - serializedVersion: 2
      path: 0
      attribute: 0
      script: {fileID: 0}
      typeID: 212
      customType: 23
      isPPtrCurve: 1
    pptrCurveMapping:
    - {fileID: 21300000, guid: 282324c248e3d484bb66c95d27185eb2, type: 3}
    - {fileID: 21300000, guid: 8737f98f4c542426eb1bf278494f608e, type: 3}
    - {fileID: 21300000, guid: c1563aaa8675e40329ab52967a67f2fb, type: 3}
    - {fileID: 21300000, guid: 3b21f3bc14b4f45b0aee93433654617f, type: 3}
    - {fileID: 21300000, guid: c3d0066a4fb024c50b68b043396b7c15, type: 3}
    - {fileID: 21300000, guid: 91b601acb9d454d9799eb61f0d2425d9, type: 3}
    - {fileID: 21300000, guid: 63e7c2baedc67441fa31da3ee9c34ed0, type: 3}
  m_AnimationClipSettings:
    serializedVersion: 2
    m_AdditiveReferencePoseClip: {fileID: 0}
    m_AdditiveReferencePoseTime: 0
    m_StartTime: 0
    m_StopTime: 0.5416667
    m_OrientationOffsetY: 0
    m_Level: 0
    m_CycleOffset: 0
    m_HasAdditiveReferencePose: 0
    m_LoopTime: 0
    m_LoopBlend: 0
    m_LoopBlendOrientation: 0
    m_LoopBlendPositionY: 0
    m_LoopBlendPositionXZ: 0
    m_KeepOriginalOrientation: 0
    m_KeepOriginalPositionY: 1
    m_KeepOriginalPositionXZ: 0
    m_HeightFromFeet: 0
    m_Mirror: 0
  m_EditorCurves: []
  m_EulerEditorCurves: []
  m_HasGenericRootTransform: 0
  m_HasMotionFloatCurves: 0
  m_GenerateMotionCurves: 0
  m_Events: []
